<svg xmlns="http://www.w3.org/2000/svg" width="22" height="22" viewBox="0 0 22 22">
 <defs>
  <style id="current-color-scheme" type="text/css">
   .ColorScheme-Text { color:#e6e6fa; } .ColorScheme-Highlight { color:#5294e2; }
  </style>
 </defs>
 <path style="fill:currentColor" class="ColorScheme-Text" d="M 2 1.0039062 L 2 7.0039062 L 3 7.0039062 L 3 9.0039062 L 1 9.0039062 L 1 15.003906 L 7 15.003906 L 7 9.0039062 L 5 9.0039062 L 5 7.0039062 L 10 7.0039062 L 10 5.0039062 L 11 5.0039062 L 11 10.003906 L 9 10.003906 L 9 15.003906 L 15 15.003906 L 15 10.003906 L 13 10.003906 L 13 3.0039062 L 10 3.0039062 L 10 1.0039062 L 2 1.0039062 z" transform="translate(3 3)"/>
</svg>
