<svg xmlns="http://www.w3.org/2000/svg" width="22" height="22" viewBox="0 0 22 22">
 <defs>
  <style id="current-color-scheme" type="text/css">
   .ColorScheme-Text { color:#e6e6fa; } .ColorScheme-Highlight { color:#5294e2; }
  </style>
 </defs>
 <path style="fill:currentColor" class="ColorScheme-Text" d="M 8.0292969 1.0625 C 4.1759969 1.0625 1.0605469 4.17785 1.0605469 8.03125 C 1.0605469 11.88455 4.1758969 15 8.0292969 15 C 11.882597 15 14.998047 11.88465 14.998047 8.03125 C 14.998047 4.17795 11.882697 1.0625 8.0292969 1.0625 z M 5 5.0039062 L 6 5.0039062 C 6.27614 5.0039062 6.53779 5.1041862 6.71875 5.2851562 L 8 6.5625 L 9.28125 5.2851562 C 9.46125 5.1041563 9.7219531 5.0039062 10.001953 5.0039062 L 11.001953 5.0039062 L 11.001953 6.0039062 C 11.001953 6.2800462 10.901663 6.5416862 10.720703 6.7226562 L 9.4394531 8 L 10.720703 9.2851562 C 10.901663 9.4661263 11.003323 9.7277663 11.001953 10.003906 L 11.001953 11.003906 L 10.001953 11.003906 C 9.7258131 11.003906 9.4641631 10.903626 9.2832031 10.722656 L 8.0019531 9.4375 L 6.7207031 10.722656 C 6.5407031 10.902656 6.28 11.001953 6 11.001953 L 5 11.001953 L 5 10.001953 C 5 9.7258131 5.10029 9.4641731 5.28125 9.2832031 L 6.5625 7.9980469 L 5.28125 6.7207031 C 5.10125 6.5407031 5.0019531 6.2779531 5.0019531 6.0019531 L 5 5.0039062 z" transform="translate(3 3)"/>
</svg>
