<svg xmlns="http://www.w3.org/2000/svg" width="22" height="22" viewBox="0 0 22 22">
 <defs>
  <style id="current-color-scheme" type="text/css">
   .ColorScheme-Text { color:#e6e6fa; } .ColorScheme-Highlight { color:#5294e2; }
  </style>
 </defs>
 <path style="fill:currentColor" class="ColorScheme-Text" d="M 2 2 L 2 10 L 6 10 L 6 14 L 14 14 L 14 6 L 10 6 L 10 2 L 2 2 z M 10 7 C 10.739 7 11.333984 7.7802344 11.333984 8.7402344 L 11.333984 9.5722656 L 11.666016 9.5722656 C 11.851016 9.5722656 12 9.7626 12 10 L 12 12.572266 C 12 12.810266 11.851016 13 11.666016 13 L 8.3339844 13 C 8.1492844 13 8 12.810266 8 12.572266 L 8 10 C 8 9.7626 8.1492844 9.5722656 8.3339844 9.5722656 L 8.6660156 9.5722656 L 8.6660156 8.7402344 C 8.6660156 7.7799344 9.2613 7 10 7 z M 10 7.8574219 C 9.6307 7.8574219 9.3339844 8.2400438 9.3339844 8.7148438 L 9.3339844 9.5722656 L 10.666016 9.5722656 L 10.666016 8.7148438 C 10.666016 8.2400437 10.369 7.8574219 10 7.8574219 z" transform="translate(3 3)"/>
</svg>
