<svg xmlns="http://www.w3.org/2000/svg" width="22" height="22" version="1.1" viewBox="0 0 22 22">
 <defs>
  <style id="current-color-scheme" type="text/css">
   .ColorScheme-Text { color:#e6e6fa; } .ColorScheme-Highlight { color:#5294e2; }
  </style>
 </defs>
 <path style="fill:currentColor" class="ColorScheme-Text" d="M 11,3 9.5,5 8,7 h 2 v 3 H 7 V 8 L 5,9.5 3,11 5,12.5 7,14 v -2 h 3 v 3 H 8 l 1.5,2 1.5,2 1.5,-2 1.5,-2 h -2 v -3 h 3 v 2 L 17,12.5 19,11 17,9.5 15,8 v 2 H 12 V 7 h 2 L 12.5,5 Z"/>
</svg>
