<svg xmlns="http://www.w3.org/2000/svg" width="22" height="22" viewBox="0 0 22 22">
 <defs>
  <style id="current-color-scheme" type="text/css">
   .ColorScheme-Text { color:#e6e6fa; } .ColorScheme-Highlight { color:#5294e2; }
  </style>
 </defs>
 <path style="fill:currentColor" class="ColorScheme-Text" d="M 4 6 L 4 8 L 3 8 L 3 7 L 0 7 L 0 10 L 3 10 L 3 9 L 4 9 L 4 10 L 8 10 L 8 9 L 12 9 L 12 10 L 15 10 L 15 7 L 12 7 L 12 8 L 8 8 L 8 6 L 4 6 z" transform="translate(3 3)"/>
</svg>
