<svg xmlns="http://www.w3.org/2000/svg" width="22" height="22" viewBox="0 0 22 22">
 <defs>
  <style id="current-color-scheme" type="text/css">
   .ColorScheme-Text { color:#e6e6fa; } .ColorScheme-Highlight { color:#5294e2; }
  </style>
 </defs>
 <path style="fill:currentColor" class="ColorScheme-Text" d="m5.2754 2.2715c-0.8308-0.0639-1.637 0.1917-2.2246 0.7793-1.0656 1.0656-1.0254 2.8456 0.0117 4.1914-0.0377 0.2476-0.0625 0.4996-0.0625 0.7578 0 2.761 2.2386 5 5 5 0.2582 0 0.5102-0.025 0.7578-0.062 1.3462 1.037 3.1262 1.077 4.1912 0.011 1.066-1.065 1.026-2.845-0.011-4.1912 0.037-0.2476 0.062-0.4996 0.062-0.7578 0-2.7613-2.239-5-5-5-0.2582 0-0.5102 0.0248-0.7578 0.0625-0.6037-0.4652-1.291-0.739-1.9668-0.791zm2.6289 2.7285h0.0019c1.5168 0.0007 2.3008 0.7815 2.3008 1.2402 0 0.4605-0.227 0.5293-0.5996 0.5293-0.724 0-0.4269-0.8496-1.7832-0.8496-0.4488 0-1.0097 0.1996-1.0097 0.711 0 0.411 0.4965 0.5625 1.373 0.7734 1.3211 0.345 2.3125 0.6883 2.3125 1.8711 0 1.1486-0.9581 1.7246-2.4766 1.7246-1.5181 0-2.4882-0.885-2.4882-1.3438 0-0.4589 0.1781-0.5742 0.5507-0.5742 0.7253 0 0.6282 0.965 1.9844 0.965 0.4504 0 1.1152-0.2001 1.1152-0.713 0-0.4096-0.0358-0.5517-0.998-0.8047-1.0277-0.1361-2.6875-0.4607-2.6875-1.7109 0-1.1477 0.8874-1.8178 2.4043-1.8184z" transform="translate(3 3)"/>
</svg>
