<svg xmlns="http://www.w3.org/2000/svg" width="22" height="22" viewBox="0 0 22 22">
 <defs>
  <style id="current-color-scheme" type="text/css">
   .ColorScheme-Text { color:#e6e6fa; } .ColorScheme-Highlight { color:#5294e2; }
  </style>
 </defs>
 <path style="fill:currentColor" class="ColorScheme-Text" d="M 1 1 L 1 15 L 7 15 L 7 7.0039062 L 15 7.0039062 L 15 1 L 1 1 z M 3 3 L 5 3 L 5 5.0039062 L 3 5.0039062 L 3 3 z M 7 3 L 9 3 L 9 5.0039062 L 7 5.0039062 L 7 3 z M 11 3 L 13 3 L 13 5.0039062 L 11 5.0039062 L 11 3 z M 3 7.0039062 L 5 7.0039062 L 5 9.0039062 L 3 9.0039062 L 3 7.0039062 z M 11 9.0039062 L 11 11.003906 L 9 11.003906 L 9 13.003906 L 11 13.003906 L 11 15.003906 L 13 15.003906 L 13 13.003906 L 15 13.003906 L 15 11.003906 L 13 11.003906 L 13 9.0039062 L 11 9.0039062 z M 3 11.003906 L 5 11.003906 L 5 13 L 3 13 L 3 11.003906 z" transform="translate(3 3)"/>
</svg>
