<svg xmlns="http://www.w3.org/2000/svg" width="22" height="22" viewBox="0 0 22 22">
 <defs>
  <style id="current-color-scheme" type="text/css">
   .ColorScheme-Text { color:#e6e6fa; } .ColorScheme-Highlight { color:#5294e2; }
  </style>
 </defs>
 <path style="fill:currentColor" class="ColorScheme-Text" d="M 8 3 C 5.2408 3 3 5.2407 3 8 C 3 10.7592 5.2408 13 8 13 C 10.7592 13 13 10.7592 13 8 C 13 5.2407 10.7592 3 8 3 z" transform="translate(3 3)"/>
</svg>
