<svg xmlns="http://www.w3.org/2000/svg" width="22" height="22" viewBox="0 0 22 22">
 <defs>
  <style id="current-color-scheme" type="text/css">
   .ColorScheme-Text { color:#e6e6fa; } .ColorScheme-Highlight { color:#5294e2; }
  </style>
 </defs>
 <path style="fill:currentColor" class="ColorScheme-Text" d="M 1 1 L 1 3 L 15 3 L 15 1 L 1 1 z M 1 5.0039062 L 1 11.003906 L 6 8.0039062 L 1 5.0039062 z M 7 5.0039062 L 7 7.0039062 L 15 7.0039062 L 15 5.0039062 L 7 5.0039062 z M 15 9 L 7 9.0039062 L 7 11.003906 L 15 11 L 15 9 z M 1 13 L 1 15 L 15 15 L 15 13 L 1 13 z" transform="translate(3 3)"/>
</svg>
