/* XPM */
static char * top_left_active_xpm[] = {
"2 26 4 1",
" 	c None",
".	c #aa22af",
"+	c #aa22af",
"@	c #4a4a4a",
" .",
".+",
".@",
".@",
".@",
".@",
".@",
".@",
".@",
".@",
".@",
".@",
".@",
".@",
".@",
".@",
".@",
".@",
".@",
".@",
".@",
".@",
".@",
".@",
".@",
".@"};
