{
 "references": {
  "catch2/2.5.0@bincrafters/stable": "conan-center",
  "flatbuffers/1.10.0@google/stable": "conan-center",
  "ncurses/6.1@conan/stable": "conan-community",
  "boost/1.69.0@conan/stable": "conan-community",
  "spdlog/1.3.1@bincrafters/stable": "bincrafters",
  "doctest/2.3.1@bincrafters/stable": "conan-center",
  "jsonformoderncpp/3.6.1@vthiery/stable": "conan-center",
  "boost/1.70.0@conan/stable": "conan-center",
  "imgui/1.66@bincrafters/stable": "bincrafters",
  "fmt/5.3.0@bincrafters/stable": "bincrafters"
 },
 "package_references": {}
}
