{
 "remotes": [
  {
   "name": "conancenter",
   "url": "https://center.conan.io",
   "verify_ssl": true
  },
  {
   "name": "bincrafters",
   "url": "https://bincrafters.jfrog.io/artifactory/api/conan/public-conan",
   "verify_ssl": true
  }
 ]
}