<svg xmlns="http://www.w3.org/2000/svg" width="16" height="16" version="1.1">
<defs>
  <style id="current-color-scheme" type="text/css">
   .ColorScheme-Text { color:#e6e6fa; } .ColorScheme-Highlight { color:#5294e2; }
  </style>
  <linearGradient id="arrongin" x1="0%" x2="0%" y1="0%" y2="100%">
   <stop offset="0%" style="stop-color:#dd9b44; stop-opacity:1"/>
   <stop offset="100%" style="stop-color:#ad6c16; stop-opacity:1"/>
  </linearGradient>
  <linearGradient id="aurora" x1="0%" x2="0%" y1="0%" y2="100%">
   <stop offset="0%" style="stop-color:#09D4DF; stop-opacity:1"/>
   <stop offset="100%" style="stop-color:#9269F4; stop-opacity:1"/>
  </linearGradient>
  <linearGradient id="fitdance" x1="0%" x2="0%" y1="0%" y2="100%">
   <stop offset="0%" style="stop-color:#1AD6AB; stop-opacity:1"/>
   <stop offset="100%" style="stop-color:#329DB6; stop-opacity:1"/>
  </linearGradient>
  <linearGradient id="oomox" x1="0%" x2="0%" y1="0%" y2="100%">
   <stop offset="0%" style="stop-color:#efefe7; stop-opacity:1"/>
   <stop offset="100%" style="stop-color:#8f8f8b; stop-opacity:1"/>
  </linearGradient>
  <linearGradient id="rainblue" x1="0%" x2="0%" y1="0%" y2="100%">
   <stop offset="0%" style="stop-color:#00F260; stop-opacity:1"/>
   <stop offset="100%" style="stop-color:#0575E6; stop-opacity:1"/>
  </linearGradient>
  <linearGradient id="sunrise" x1="0%" x2="0%" y1="0%" y2="100%">
   <stop offset="0%" style="stop-color: #FF8501; stop-opacity:1"/>
   <stop offset="100%" style="stop-color: #FFCB01; stop-opacity:1"/>
  </linearGradient>
  <linearGradient id="telinkrin" x1="0%" x2="0%" y1="0%" y2="100%">
   <stop offset="0%" style="stop-color: #b2ced6; stop-opacity:1"/>
   <stop offset="100%" style="stop-color: #6da5b7; stop-opacity:1"/>
  </linearGradient>
  <linearGradient id="60spsycho" x1="0%" x2="0%" y1="0%" y2="100%">
   <stop offset="0%" style="stop-color: #df5940; stop-opacity:1"/>
   <stop offset="25%" style="stop-color: #d8d15f; stop-opacity:1"/>
   <stop offset="50%" style="stop-color: #e9882a; stop-opacity:1"/>
   <stop offset="100%" style="stop-color: #279362; stop-opacity:1"/>
  </linearGradient>
  <linearGradient id="90ssummer" x1="0%" x2="0%" y1="0%" y2="100%">
   <stop offset="0%" style="stop-color: #f618c7; stop-opacity:1"/>
   <stop offset="20%" style="stop-color: #94ffab; stop-opacity:1"/>
   <stop offset="50%" style="stop-color: #fbfd54; stop-opacity:1"/>
   <stop offset="100%" style="stop-color: #0f83ae; stop-opacity:1"/>
  </linearGradient>
  <linearGradient id="cyberneon" x1="0%" x2="0%" y1="0%" y2="100%">
    <stop offset="0" style="stop-color:#0abdc6; stop-opacity:1"/>
    <stop offset="1" style="stop-color:#ea00d9; stop-opacity:1"/>
  </linearGradient>
 </defs>
 <path style="fill:currentColor" class="ColorScheme-Text" d="M 11.46083,1.2643258 C 10.585444,1.2975628 9.5883062,1.8683009 8.5330952,2.7858102 7.4778842,3.7033196 6.3761576,4.9875616 5.3846577,6.5143256 4.2095453,8.3238536 3.4102483,10.132875 3.0662983,11.627607 c -0.171975,0.747366 -0.231558,1.415841 -0.154297,1.980468 0.07726,0.564627 0.304059,1.045251 0.724609,1.31836 0.399105,0.259186 0.899964,0.284365 1.416016,0.15039 0.5160526,-0.133975 1.0672533,-0.422677 1.6445314,-0.833984 A 0.30575755,0.30575755 0 1 0 6.3436421,13.744794 c -0.5360083,0.381902 -1.0337639,0.633897 -1.4433598,0.740234 -0.409595,0.106337 -0.710375,0.07211 -0.929687,-0.07031 -0.230848,-0.149915 -0.39081,-0.433267 -0.453125,-0.888672 -0.06232,-0.455405 -0.01621,-1.063175 0.144531,-1.761719 C 3.9834833,10.367239 4.7560133,8.6053846 5.8983295,6.8463596 6.8621606,5.3622006 7.934412,4.1190989 8.9354389,3.2487028 9.9364658,2.3783068 10.876449,1.8987339 11.484267,1.875656 c 0.224888,-0.00866 0.400835,0.037227 0.544922,0.1308594 0.216342,0.1404952 0.368643,0.3972742 0.439453,0.8066406 0.07081,0.4093663 0.04811,0.95534 -0.07617,1.5878906 a 0.30575755,0.30575755 0 1 0 0.59961,0.1171875 C 13.126164,3.8358095 13.161672,3.2251818 13.072158,2.7076852 12.982644,2.1901886 12.755562,1.748932 12.361221,1.4928415 12.098508,1.3226633 11.784613,1.2518507 11.46083,1.2643258 Z"/>
 <path style="fill:currentColor" class="ColorScheme-Text" d="m 6.9745014,5.0670606 c -1.8796681,0.0058 -3.5558601,0.264121 -4.7988281,0.71289 -0.621484,0.224385 -1.136919,0.495221 -1.51757804,0.824219 -0.380659,0.328998 -0.632462,0.733607 -0.65625,1.1875 -0.0227,0.432371 0.165564,0.843378 0.480469,1.197266 0.314904,0.353888 0.75899704,0.666104 1.30468704,0.947265 a 0.30575755,0.30575755 0 1 0 0.279297,-0.542969 c -0.499836,-0.257535 -0.884276,-0.537827 -1.12695304,-0.810546 -0.242678,-0.27272 -0.340574,-0.522669 -0.328125,-0.759766 0.01305,-0.249023 0.149368,-0.498391 0.44726604,-0.755859 0.297897,-0.257469 0.750726,-0.505833 1.324218,-0.712891 1.146508,-0.413943 2.768543,-0.66999 4.5917971,-0.675781 0.3791356,0 0.7654016,0.007 1.15625,0.0293 l 0.00195,0.002 c 2.0944986,0.109769 3.9741126,0.520867 5.2929696,1.082031 0.659428,0.280582 1.176138,0.599855 1.507812,0.917969 0.331674,0.318114 0.467533,0.613739 0.453125,0.888672 -0.01246,0.23767 -0.135468,0.474112 -0.40625,0.720703 -0.270782,0.24659 -0.683172,0.48744 -1.208984,0.6914064 a 0.30576365,0.30576365 0 1 0 0.220703,0.570311 c 0.574118,-0.222704 1.049227,-0.488802 1.40039,-0.8085924 0.351164,-0.319791 0.582772,-0.709496 0.605469,-1.142578 0.02624,-0.500771 -0.229382,-0.966951 -0.640622,-1.361379 -0.41124,-0.394427 -0.987815,-0.738858 -1.693359,-1.039062 -1.410608,-0.600203 -3.344281,-1.017769 -5.4980473,-1.130859 h -0.00195 C 7.758789,5.0752906 7.3610489,5.0670606 6.9745046,5.0670606 Z"/>
 <path style="fill:currentColor" class="ColorScheme-Text" d="m 4.9002823,0.92448207 c -0.186536,0.014008 -0.369439,0.062977 -0.537109,0.14843753 -0.446872,0.22769 -0.721275,0.6825103 -0.857422,1.2363281 -0.136146,0.5538179 -0.147204,1.2245149 -0.05469,1.9863281 0.185034,1.5236268 0.789949,3.4094988 1.769531,5.3320318 0.9795541,1.9224974 2.1483538,3.5192774 3.2714842,4.5644524 0.5615653,0.522587 1.1108486,0.90964 1.6386725,1.125 0.527823,0.215359 1.057086,0.258925 1.503906,0.03125 0.429756,-0.218968 0.703322,-0.649994 0.84375,-1.173829 0.140428,-0.523834 0.161394,-1.157691 0.08789,-1.876953 -0.147007,-1.438522 -0.683907,-3.2206814 -1.570312,-5.0624994 a 0.30575755,0.30575755 0 1 0 -0.550782,0.265625 c 0.86118,1.789401 1.376919,3.5211914 1.513672,4.8593744 0.06838,0.669092 0.03969,1.238609 -0.07227,1.65625 -0.11196,0.417641 -0.293521,0.666978 -0.529297,0.78711 -0.245226,0.124954 -0.570293,0.120999 -0.996093,-0.05273 C 9.9354194,14.57692 9.4329821,14.233249 8.9080952,13.744794 7.8583213,12.767884 6.7176831,11.219009 5.7655171,9.3502636 4.8133773,7.4815896 4.2314403,5.6474696 4.0584863,4.2233102 c -0.08648,-0.7120796 -0.06884,-1.3226507 0.04101,-1.7695312 0.109858,-0.4468805 0.297795,-0.7110165 0.542969,-0.8359375 0.09186,-0.046823 0.187285,-0.073361 0.302734,-0.082031 0.4286841,-0.032172 1.0869376,0.2488779 1.808599,0.847656 A 0.30583872,0.30583872 0 1 0 7.1444233,1.9127634 C 6.3609635,1.2627098 5.605741,0.87153867 4.9002823,0.92448207 Z"/>
 <path style="fill:currentColor" class="ColorScheme-Text" d="m 8.9664162,8.3193096 a 0.91718172,0.91718172 0 0 1 -1.8343634,0 0.91718172,0.91718172 0 1 1 1.8343634,0 z"/>
</svg>
