<svg xmlns="http://www.w3.org/2000/svg" style="isolation:isolate" width="16" height="16" viewBox="0 0 16 16">
 <defs>
  <style id="current-color-scheme" type="text/css">
   .ColorScheme-Text { color:#e6e6fa; } .ColorScheme-Highlight { color:#5294e2; }
  </style>
  <linearGradient id="arrongin" x1="0%" x2="0%" y1="0%" y2="100%">
   <stop offset="0%" style="stop-color:#dd9b44; stop-opacity:1"/>
   <stop offset="100%" style="stop-color:#ad6c16; stop-opacity:1"/>
  </linearGradient>
  <linearGradient id="aurora" x1="0%" x2="0%" y1="0%" y2="100%">
   <stop offset="0%" style="stop-color:#09D4DF; stop-opacity:1"/>
   <stop offset="100%" style="stop-color:#9269F4; stop-opacity:1"/>
  </linearGradient>
  <linearGradient id="fitdance" x1="0%" x2="0%" y1="0%" y2="100%">
   <stop offset="0%" style="stop-color:#1AD6AB; stop-opacity:1"/>
   <stop offset="100%" style="stop-color:#329DB6; stop-opacity:1"/>
  </linearGradient>
  <linearGradient id="oomox" x1="0%" x2="0%" y1="0%" y2="100%">
   <stop offset="0%" style="stop-color:#efefe7; stop-opacity:1"/>
   <stop offset="100%" style="stop-color:#8f8f8b; stop-opacity:1"/>
  </linearGradient>
  <linearGradient id="rainblue" x1="0%" x2="0%" y1="0%" y2="100%">
   <stop offset="0%" style="stop-color:#00F260; stop-opacity:1"/>
   <stop offset="100%" style="stop-color:#0575E6; stop-opacity:1"/>
  </linearGradient>
  <linearGradient id="sunrise" x1="0%" x2="0%" y1="0%" y2="100%">
   <stop offset="0%" style="stop-color: #FF8501; stop-opacity:1"/>
   <stop offset="100%" style="stop-color: #FFCB01; stop-opacity:1"/>
  </linearGradient>
  <linearGradient id="telinkrin" x1="0%" x2="0%" y1="0%" y2="100%">
   <stop offset="0%" style="stop-color: #b2ced6; stop-opacity:1"/>
   <stop offset="100%" style="stop-color: #6da5b7; stop-opacity:1"/>
  </linearGradient>
  <linearGradient id="60spsycho" x1="0%" x2="0%" y1="0%" y2="100%">
   <stop offset="0%" style="stop-color: #df5940; stop-opacity:1"/>
   <stop offset="25%" style="stop-color: #d8d15f; stop-opacity:1"/>
   <stop offset="50%" style="stop-color: #e9882a; stop-opacity:1"/>
   <stop offset="100%" style="stop-color: #279362; stop-opacity:1"/>
  </linearGradient>
  <linearGradient id="90ssummer" x1="0%" x2="0%" y1="0%" y2="100%">
   <stop offset="0%" style="stop-color: #f618c7; stop-opacity:1"/>
   <stop offset="20%" style="stop-color: #94ffab; stop-opacity:1"/>
   <stop offset="50%" style="stop-color: #fbfd54; stop-opacity:1"/>
   <stop offset="100%" style="stop-color: #0f83ae; stop-opacity:1"/>
  </linearGradient>
  <linearGradient id="cyberneon" x1="0%" x2="0%" y1="0%" y2="100%">
    <stop offset="0" style="stop-color:#0abdc6; stop-opacity:1"/>
    <stop offset="1" style="stop-color:#ea00d9; stop-opacity:1"/>
  </linearGradient>
 </defs>
 <path style="fill:currentColor" class="ColorScheme-Text" fill-rule="evenodd" d="M 0.963 12.506 C 1.628 12.52 14.536 12.499 15.043 12.477 C 15.043 12.474 15.044 12.471 15.044 12.469 C 15.078 12.29 15.104 12.109 15.124 11.928 C 15.148 11.715 15.165 11.502 15.178 11.288 C 15.191 11.042 15.201 10.795 15.206 10.549 C 15.213 10.268 15.216 9.987 15.216 9.707 C 15.216 9.707 15.216 9.706 15.216 9.706 L 15.216 5.831 C 15.216 5.831 15.216 5.831 15.216 5.831 C 15.216 5.55 15.213 5.269 15.206 4.989 C 15.201 4.742 15.191 4.495 15.178 4.249 C 15.165 4.035 15.148 3.822 15.124 3.61 C 15.104 3.428 15.078 3.248 15.044 3.069 C 15.039 3.04 15.033 3.011 15.027 2.983 C 14.484 2.988 1.586 3.013 0.966 3.017 L 0.966 3.017 C 0.962 3.034 0.959 3.051 0.956 3.069 C 0.922 3.248 0.896 3.428 0.876 3.61 C 0.852 3.822 0.835 4.035 0.823 4.249 C 0.809 4.495 0.799 4.742 0.794 4.989 C 0.788 5.269 0.784 5.55 0.785 5.831 C 0.785 5.831 0.785 5.831 0.785 5.831 L 0.785 9.706 C 0.785 9.706 0.785 9.707 0.785 9.707 C 0.784 9.987 0.788 10.268 0.794 10.549 C 0.799 10.795 0.809 11.042 0.823 11.288 C 0.835 11.502 0.852 11.715 0.876 11.928 C 0.896 12.109 0.922 12.29 0.956 12.469 C 0.958 12.481 0.96 12.493 0.963 12.506 Z M 12.741 10.672 L 3.258 10.672 L 3.258 8.484 L 12.741 8.484 L 12.741 10.672 L 12.741 10.672 L 12.741 10.672 L 12.741 10.672 Z M 7.635 5.566 L 3.258 5.566 L 3.258 7.754 L 7.635 7.754 L 7.635 5.566 L 7.635 5.566 L 7.635 5.566 L 7.635 5.566 Z M 12.741 5.566 L 8.364 5.566 L 8.364 7.754 L 12.741 7.754 L 12.741 5.566 L 12.741 5.566 L 12.741 5.566 Z M 10.465 0.302 C 14.113 0.302 15.406 0.694 15.81 2.981 C 15.958 3.696 16 4.637 16 5.831 L 16 9.706 C 16 10.855 15.961 11.769 15.825 12.473 C 15.438 14.834 14.158 15.235 10.465 15.235 L 5.535 15.235 C 1.859 15.235 0.575 14.838 0.181 12.505 C 0.04 11.797 0 10.872 0 9.706 L 0 5.831 C 0 4.658 0.041 3.728 0.183 3.019 C 0.58 0.698 1.867 0.302 5.535 0.302 L 10.465 0.302 L 10.465 0.302 Z"/>
</svg>
