<svg xmlns="http://www.w3.org/2000/svg" style="isolation:isolate" width="16" height="16" viewBox="0 0 16 16">
 <defs>
  <style id="current-color-scheme" type="text/css">
   .ColorScheme-Text { color:#e6e6fa; } .ColorScheme-Highlight { color:#5294e2; }
  </style>
  <linearGradient id="arrongin" x1="0%" x2="0%" y1="0%" y2="100%">
   <stop offset="0%" style="stop-color:#dd9b44; stop-opacity:1"/>
   <stop offset="100%" style="stop-color:#ad6c16; stop-opacity:1"/>
  </linearGradient>
  <linearGradient id="aurora" x1="0%" x2="0%" y1="0%" y2="100%">
   <stop offset="0%" style="stop-color:#09D4DF; stop-opacity:1"/>
   <stop offset="100%" style="stop-color:#9269F4; stop-opacity:1"/>
  </linearGradient>
  <linearGradient id="fitdance" x1="0%" x2="0%" y1="0%" y2="100%">
   <stop offset="0%" style="stop-color:#1AD6AB; stop-opacity:1"/>
   <stop offset="100%" style="stop-color:#329DB6; stop-opacity:1"/>
  </linearGradient>
  <linearGradient id="oomox" x1="0%" x2="0%" y1="0%" y2="100%">
   <stop offset="0%" style="stop-color:#efefe7; stop-opacity:1"/>
   <stop offset="100%" style="stop-color:#8f8f8b; stop-opacity:1"/>
  </linearGradient>
  <linearGradient id="rainblue" x1="0%" x2="0%" y1="0%" y2="100%">
   <stop offset="0%" style="stop-color:#00F260; stop-opacity:1"/>
   <stop offset="100%" style="stop-color:#0575E6; stop-opacity:1"/>
  </linearGradient>
  <linearGradient id="sunrise" x1="0%" x2="0%" y1="0%" y2="100%">
   <stop offset="0%" style="stop-color: #FF8501; stop-opacity:1"/>
   <stop offset="100%" style="stop-color: #FFCB01; stop-opacity:1"/>
  </linearGradient>
  <linearGradient id="telinkrin" x1="0%" x2="0%" y1="0%" y2="100%">
   <stop offset="0%" style="stop-color: #b2ced6; stop-opacity:1"/>
   <stop offset="100%" style="stop-color: #6da5b7; stop-opacity:1"/>
  </linearGradient>
  <linearGradient id="60spsycho" x1="0%" x2="0%" y1="0%" y2="100%">
   <stop offset="0%" style="stop-color: #df5940; stop-opacity:1"/>
   <stop offset="25%" style="stop-color: #d8d15f; stop-opacity:1"/>
   <stop offset="50%" style="stop-color: #e9882a; stop-opacity:1"/>
   <stop offset="100%" style="stop-color: #279362; stop-opacity:1"/>
  </linearGradient>
  <linearGradient id="90ssummer" x1="0%" x2="0%" y1="0%" y2="100%">
   <stop offset="0%" style="stop-color: #f618c7; stop-opacity:1"/>
   <stop offset="20%" style="stop-color: #94ffab; stop-opacity:1"/>
   <stop offset="50%" style="stop-color: #fbfd54; stop-opacity:1"/>
   <stop offset="100%" style="stop-color: #0f83ae; stop-opacity:1"/>
  </linearGradient>
  <linearGradient id="cyberneon" x1="0%" x2="0%" y1="0%" y2="100%">
    <stop offset="0" style="stop-color:#0abdc6; stop-opacity:1"/>
    <stop offset="1" style="stop-color:#ea00d9; stop-opacity:1"/>
  </linearGradient>
 </defs>
 <path style="fill:currentColor" class="ColorScheme-Text" fill-rule="evenodd" d="M 8.57 14.158 C 8.74 14.035 8.975 13.592 9.127 13.548 C 10.008 13.297 10.989 13.036 11.788 12.58 C 11.964 12.459 13.233 12.499 13.6 12.437 C 13.81 12.401 13.722 11.953 13.816 11.737 C 14.072 11.153 14.536 11.304 14.972 11.055 C 15.128 10.966 15.663 10.378 16 10.21 L 15.988 11.325 Q 16.029 13.916 15.089 14.997 C 14.779 15.233 14.527 15.469 14.132 15.607 C 13.866 15.667 13.493 15.796 13.216 15.838 C 11.186 16.102 9.07 15.95 7.922 15.997 C 7.164 15.96 4.902 16.074 3.124 15.9 C 1.903 15.75 1.486 15.515 1.268 15.385 C 0.981 15.211 0.763 15.01 0.599 14.786 C 0.385 14.496 0.26 14.175 0.174 13.903 C 0.032 13.455 -0.007 13.093 0.001 13.091 C 0.65 13.17 1.118 13.375 1.567 14 C 2.678 14.766 4.635 13.67 5.743 13.67 C 6.035 13.67 6.358 13.77 6.69 13.891 C 6.445 13.673 6.426 13.42 6.586 13.321 C 6.841 13.163 6.695 12.25 6.252 11.222 C 5.817 10.211 5.811 10.18 6.011 9.957 C 6.478 9.435 6.454 9.406 5.622 9.487 C 3.31 9.71 3.229 10.092 2.431 10.424 C 1.381 10.86 0.434 11.011 0.434 10.889 C 0.434 10.838 0.573 10.756 0.743 10.709 L 1.052 10.622 L 0.724 10.556 C 0.398 10.491 0.399 10.489 1.061 10.052 C 3.01 8.072 4.792 5.695 7.342 4.356 C 7.662 4.194 8.027 3.952 8.105 3.781 C 8.179 3.619 8.24 2.782 8.24 2.207 C 8.24 0.987 8.436 0.337 9.174 0.116 C 9.749 0.041 9.653 0.007 10.166 0.326 C 10.508 0.538 10.944 1.177 11.318 1.223 C 12.806 1.408 14.195 1.976 14.429 2.354 C 14.471 2.422 14.358 2.401 14.179 2.309 C 13.208 1.806 11.165 1.464 10.445 1.805 C 9.856 2.085 10.205 2.339 10.414 3.524 C 10.696 5.13 10.497 6.412 9.829 7.288 C 9.669 7.499 9.232 7.896 8.858 8.17 C 8.485 8.445 7.719 8.797 7.638 8.952 C 7.558 9.107 7.395 9.358 7.276 9.509 C 7.089 9.746 7.057 9.983 7.047 11.204 C 7.04 12.099 7.081 12.679 7.16 12.774 C 7.229 12.857 7.254 13.05 7.215 13.202 C 7.137 13.514 7.601 13.977 8.066 13.977 C 8.212 13.977 8.43 14.051 8.55 14.142 C 8.558 14.148 8.566 14.154 8.57 14.158 L 8.57 14.158 Z M 6.688 10.879 C 6.682 10.678 6.713 10.299 6.759 10.037 C 6.851 9.5 6.709 9.401 6.476 9.837 C 6.3 10.165 6.298 10.689 6.47 11.012 C 6.644 11.336 6.7 11.301 6.688 10.879 L 6.688 10.879 L 6.688 10.879 Z"/>
</svg>
