<svg xmlns="http://www.w3.org/2000/svg" width="16" height="16">
 <defs>
  <style id="current-color-scheme" type="text/css">
   .ColorScheme-Text { color:#e6e6fa; } .ColorScheme-Highlight { color:#5294e2; }
  </style>
  <linearGradient id="arrongin" x1="0%" x2="0%" y1="0%" y2="100%">
   <stop offset="0%" style="stop-color:#dd9b44; stop-opacity:1"/>
   <stop offset="100%" style="stop-color:#ad6c16; stop-opacity:1"/>
  </linearGradient>
  <linearGradient id="aurora" x1="0%" x2="0%" y1="0%" y2="100%">
   <stop offset="0%" style="stop-color:#09D4DF; stop-opacity:1"/>
   <stop offset="100%" style="stop-color:#9269F4; stop-opacity:1"/>
  </linearGradient>
  <linearGradient id="fitdance" x1="0%" x2="0%" y1="0%" y2="100%">
   <stop offset="0%" style="stop-color:#1AD6AB; stop-opacity:1"/>
   <stop offset="100%" style="stop-color:#329DB6; stop-opacity:1"/>
  </linearGradient>
  <linearGradient id="oomox" x1="0%" x2="0%" y1="0%" y2="100%">
   <stop offset="0%" style="stop-color:#efefe7; stop-opacity:1"/>
   <stop offset="100%" style="stop-color:#8f8f8b; stop-opacity:1"/>
  </linearGradient>
  <linearGradient id="rainblue" x1="0%" x2="0%" y1="0%" y2="100%">
   <stop offset="0%" style="stop-color:#00F260; stop-opacity:1"/>
   <stop offset="100%" style="stop-color:#0575E6; stop-opacity:1"/>
  </linearGradient>
  <linearGradient id="sunrise" x1="0%" x2="0%" y1="0%" y2="100%">
   <stop offset="0%" style="stop-color: #FF8501; stop-opacity:1"/>
   <stop offset="100%" style="stop-color: #FFCB01; stop-opacity:1"/>
  </linearGradient>
  <linearGradient id="telinkrin" x1="0%" x2="0%" y1="0%" y2="100%">
   <stop offset="0%" style="stop-color: #b2ced6; stop-opacity:1"/>
   <stop offset="100%" style="stop-color: #6da5b7; stop-opacity:1"/>
  </linearGradient>
  <linearGradient id="60spsycho" x1="0%" x2="0%" y1="0%" y2="100%">
   <stop offset="0%" style="stop-color: #df5940; stop-opacity:1"/>
   <stop offset="25%" style="stop-color: #d8d15f; stop-opacity:1"/>
   <stop offset="50%" style="stop-color: #e9882a; stop-opacity:1"/>
   <stop offset="100%" style="stop-color: #279362; stop-opacity:1"/>
  </linearGradient>
  <linearGradient id="90ssummer" x1="0%" x2="0%" y1="0%" y2="100%">
   <stop offset="0%" style="stop-color: #f618c7; stop-opacity:1"/>
   <stop offset="20%" style="stop-color: #94ffab; stop-opacity:1"/>
   <stop offset="50%" style="stop-color: #fbfd54; stop-opacity:1"/>
   <stop offset="100%" style="stop-color: #0f83ae; stop-opacity:1"/>
  </linearGradient>
  <linearGradient id="cyberneon" x1="0%" x2="0%" y1="0%" y2="100%">
    <stop offset="0" style="stop-color:#0abdc6; stop-opacity:1"/>
    <stop offset="1" style="stop-color:#ea00d9; stop-opacity:1"/>
  </linearGradient>
 </defs>
 <g transform="translate(-1173 -81)">
  <path style="fill:currentColor" class="ColorScheme-Text" d="M1180.68 81.002a8.481 8.481 0 0 0-5.683 2.017.5.5 0 1 0 .648.762 7.493 7.493 0 0 1 9.948.212.5.5 0 1 0 .68-.733 8.48 8.48 0 0 0-5.592-2.258zm-.18 1.996a6.5 6.5 0 0 0-6.5 6.47.5.5 0 0 0 0 .025.5.5 0 0 0 0 .005.5.5 0 0 0 0 .003.5.5 0 0 0 0 .003v.01a.5.5 0 0 0 0 .023c0 1.284.237 2.558.699 3.756a.5.5 0 1 0 .933-.36 9.45 9.45 0 0 1-.633-3.426.5.5 0 0 0 0-.009 5.5 5.5 0 0 1 5.5-5.5 5.5 5.5 0 0 1 5.5 5.5 1.5 1.5 0 0 1-1.5 1.5 1.5 1.5 0 0 1-1.5-1.5 2.5 2.5 0 0 0-2.5-2.5 2.5 2.5 0 0 0-2.499 2.47 2.5 2.5 0 0 0 0 .03.5.5 0 0 0 0 .006c-.01 3.556 2.866 6.463 6.424 6.494a.5.5 0 1 0 .01-1 5.471 5.471 0 0 1-5.432-5.491.5.5 0 0 0 0-.009 1.5 1.5 0 0 1 1.5-1.5 1.5 1.5 0 0 1 1.5 1.5 2.5 2.5 0 0 0 2.5 2.5 2.5 2.5 0 0 0 2.5-2.5 6.5 6.5 0 0 0-6.5-6.5zm0 2a4.5 4.5 0 0 0-4.5 4.469.5.5 0 0 0 0 .013 4.5 4.5 0 0 0 0 .018.5.5 0 0 0 0 .006 8.463 8.463 0 0 0 3.529 6.9.5.5 0 0 0 .329.097.5.5 0 0 0 .05-.006.5.5 0 0 0 .204-.903 7.465 7.465 0 0 1-3.112-6.085.5.5 0 0 0 0-.01 3.5 3.5 0 0 1 3.5-3.5 3.5 3.5 0 0 1 3.5 3.5.5.5 0 0 0 .5.5.5.5 0 0 0 .5-.5.5.5 0 0 0 0-.046 4.5 4.5 0 0 0-4.498-4.453zm-.01 3.981a.5.5 0 0 0-.495.506v.007a.5.5 0 0 0 0 .006.5.5 0 0 0 0 .053 4.506 4.506 0 0 0 4.457 4.447.5.5 0 1 0 .01-1 3.492 3.492 0 0 1-3.469-3.5.5.5 0 0 0 0-.01.5.5 0 0 0-.505-.508z"/>
 </g>
</svg>
