<svg xmlns="http://www.w3.org/2000/svg" width="16.001" height="16.005" version="1.1">
<defs>
  <style id="current-color-scheme" type="text/css">
   .ColorScheme-Text { color:#e6e6fa; } .ColorScheme-Highlight { color:#5294e2; }
  </style>
  <linearGradient id="arrongin" x1="0%" x2="0%" y1="0%" y2="100%">
   <stop offset="0%" style="stop-color:#dd9b44; stop-opacity:1"/>
   <stop offset="100%" style="stop-color:#ad6c16; stop-opacity:1"/>
  </linearGradient>
  <linearGradient id="aurora" x1="0%" x2="0%" y1="0%" y2="100%">
   <stop offset="0%" style="stop-color:#09D4DF; stop-opacity:1"/>
   <stop offset="100%" style="stop-color:#9269F4; stop-opacity:1"/>
  </linearGradient>
  <linearGradient id="fitdance" x1="0%" x2="0%" y1="0%" y2="100%">
   <stop offset="0%" style="stop-color:#1AD6AB; stop-opacity:1"/>
   <stop offset="100%" style="stop-color:#329DB6; stop-opacity:1"/>
  </linearGradient>
  <linearGradient id="oomox" x1="0%" x2="0%" y1="0%" y2="100%">
   <stop offset="0%" style="stop-color:#efefe7; stop-opacity:1"/>
   <stop offset="100%" style="stop-color:#8f8f8b; stop-opacity:1"/>
  </linearGradient>
  <linearGradient id="rainblue" x1="0%" x2="0%" y1="0%" y2="100%">
   <stop offset="0%" style="stop-color:#00F260; stop-opacity:1"/>
   <stop offset="100%" style="stop-color:#0575E6; stop-opacity:1"/>
  </linearGradient>
  <linearGradient id="sunrise" x1="0%" x2="0%" y1="0%" y2="100%">
   <stop offset="0%" style="stop-color: #FF8501; stop-opacity:1"/>
   <stop offset="100%" style="stop-color: #FFCB01; stop-opacity:1"/>
  </linearGradient>
  <linearGradient id="telinkrin" x1="0%" x2="0%" y1="0%" y2="100%">
   <stop offset="0%" style="stop-color: #b2ced6; stop-opacity:1"/>
   <stop offset="100%" style="stop-color: #6da5b7; stop-opacity:1"/>
  </linearGradient>
  <linearGradient id="60spsycho" x1="0%" x2="0%" y1="0%" y2="100%">
   <stop offset="0%" style="stop-color: #df5940; stop-opacity:1"/>
   <stop offset="25%" style="stop-color: #d8d15f; stop-opacity:1"/>
   <stop offset="50%" style="stop-color: #e9882a; stop-opacity:1"/>
   <stop offset="100%" style="stop-color: #279362; stop-opacity:1"/>
  </linearGradient>
  <linearGradient id="90ssummer" x1="0%" x2="0%" y1="0%" y2="100%">
   <stop offset="0%" style="stop-color: #f618c7; stop-opacity:1"/>
   <stop offset="20%" style="stop-color: #94ffab; stop-opacity:1"/>
   <stop offset="50%" style="stop-color: #fbfd54; stop-opacity:1"/>
   <stop offset="100%" style="stop-color: #0f83ae; stop-opacity:1"/>
  </linearGradient>
  <linearGradient id="cyberneon" x1="0%" x2="0%" y1="0%" y2="100%">
    <stop offset="0" style="stop-color:#0abdc6; stop-opacity:1"/>
    <stop offset="1" style="stop-color:#ea00d9; stop-opacity:1"/>
  </linearGradient>
 </defs>
 <g transform="translate(-83 -215)">
  <g transform="matrix(1 0 0 .99936 -140 40.122)">
   <path style="fill:currentColor" class="ColorScheme-Text" d="m-6-36h1v1h-1z" transform="translate(241 217)"/>
   <path style="fill:currentColor" class="ColorScheme-Text" d="m-7-35h1v1h-1z" transform="translate(241 217)"/>
   <path style="fill:currentColor" class="ColorScheme-Text" d="m-5-35h1v1h-1z" transform="translate(241 217)"/>
   <path style="fill:currentColor" class="ColorScheme-Text" d="m-6-34h1v1h-1z" transform="translate(241 217)"/>
   <path style="fill:currentColor" class="ColorScheme-Text" d="m-7-33h1v1h-1z" transform="translate(241 217)"/>
   <path style="fill:currentColor" class="ColorScheme-Text" d="m-5-33h1v0.15234l-0.3555 0.848h-0.6445z" transform="translate(241 217)"/>
   <path style="fill:currentColor" class="ColorScheme-Text" d="m-4-36h1v0.73047l-0.1055 0.27h-0.8945z" transform="translate(241 217)"/>
   <path style="fill:currentColor" class="ColorScheme-Text" d="m-6-32h1v1h-1z" transform="translate(241 217)"/>
   <path style="fill:currentColor" class="ColorScheme-Text" d="m-7-31h1v1h-1z" transform="translate(241 217)"/>
   <path style="fill:currentColor" class="ColorScheme-Text" d="m-6-30h0.81641l-0.4102 1h-0.4062z" transform="translate(241 217)"/>
   <path style="fill:currentColor" class="ColorScheme-Text" d="m-7-29h1v0.96094l-0.0117 0.039h-0.9883z" transform="translate(241 217)"/>
   <path style="fill:#bdbdbd;fill-opacity:.36471" d="m-5-31h0.23438l-0.2344 0.559z" transform="translate(241 217)"/>
   <path style="fill:#bdbdbd;fill-opacity:.36471" d="m-4-34h0.47266l-0.41406 1h-0.0586z" transform="translate(241 217)"/>
   <path style="fill:#bdbdbd;fill-opacity:.36471" d="m-3-37h0.72111l-0.42032 1h-0.3008z" transform="translate(241 217)"/>
   <path style="fill:currentColor" class="ColorScheme-Text" d="m-3-39h0.54297c0.21875 0.19271 0.42969 0.57292 0.44922 1h-0.9922z" transform="translate(241 217)"/>
   <path style="fill:currentColor" class="ColorScheme-Text" d="m-4-39.738 1 0.41797v0.32031h-1z" transform="translate(241 217)"/>
   <path style="fill:currentColor" class="ColorScheme-Text" d="m-7-41 1 0.42188v0.57812h-1z" transform="translate(241 217)"/>
   <path style="fill:#bdbdbd;fill-opacity:.36471" d="m-7-27h0.57422c-0.14603 0.37199-0.45127 0.64955-0.58203 0.72266z" transform="translate(241 217)"/>
   <path style="fill:currentColor" class="ColorScheme-Text" d="m-6-40h1v1h-1z" transform="translate(241 217)"/>
   <path style="fill:currentColor" class="ColorScheme-Text" d="m-7-39h1v1h-1z" transform="translate(241 217)"/>
   <path style="fill:currentColor" class="ColorScheme-Text" d="m-5-39h1v1h-1z" transform="translate(241 217)"/>
   <path style="fill:currentColor" class="ColorScheme-Text" d="m-6-38h1v1h-1z" transform="translate(241 217)"/>
   <path style="fill:currentColor" class="ColorScheme-Text" d="m-4-38h1v1h-1z" transform="translate(241 217)"/>
   <path style="fill:currentColor" class="ColorScheme-Text" d="m-5-37h1v1h-1z" transform="translate(241 217)"/>
   <path style="fill:currentColor" class="ColorScheme-Text" d="m-7-37h1v1h-1z" transform="translate(241 217)"/>
  </g>
  <path style="fill:currentColor" class="ColorScheme-Text" d="m84.25 215.01c-0.70756 0.15767-1.25 0.86404-1.25 1.6864v12.586c0 0.93986 0.73509 1.7177 1.5938 1.7177h7.8126c0.85868 0 1.5938-0.7778 1.5938-1.7177v-12.586c0-0.93986-0.73509-1.6864-1.5938-1.6864h-7.8126c-0.10736 0-0.24267-0.0225-0.34376 0zm1.0625 0.99936h0.37501l1.3125 2.9981h-0.59375l-0.40626-0.99936h-1l-0.37501 0.99936h-0.62501l1.3125-2.9981zm0.1875 0.6246-0.40625 0.99936h0.81251l-0.40626-0.99936zm1.25 3.3728c0.96654 0 1.75 0.74236 1.75 1.6864 0-0.94407 0.78349-1.6864 1.75-1.6864 0.96652 0 1.75 0.74236 1.75 1.6864 0 0.44866-0.17924 0.88178-0.46875 1.1867-0.0152 0.0158-0.0156 0.016-0.0312 0.0312l-3 3.0918-2.8438-2.9981c-0.1211-0.0977-0.19074-0.21786-0.28125-0.34353-0.20026-0.27797-0.375-0.60242-0.375-0.96813 0-0.94408 0.7835-1.6864 1.75-1.6864zm3.25 6.9955h0.625l0.37501 0.99936h1l0.40626-0.99936h0.59376l-1.3125 2.9981h-0.37501l-1.3125-2.9981zm1.0938 1.3741 0.40626 0.99937 0.40625-0.99937h-0.81251z"/>
  <path style="fill:currentColor;fill-opacity:0.34328359" d="m96 217.01h0.37501l-0.37501-0.15615-2.5938-1.093 0.12501 14.241-1.0156 0.95251c0.9395 0.15886 1.7235-0.14618 2.0469-0.92128l4.3126-10.4c0.3234-0.7751-0.0449-1.6213-0.78126-1.905l-1.7188-0.71829m-0.37501 0v-0.15615"/>
  <path style="fill:#bdbdbd;fill-opacity:.36471" d="m94 230s0.004-0.12102 0-1.0072c0 0.6664-0.0502 0.76696-0.15625 1.0072z"/>
  <path style="fill:currentColor" class="ColorScheme-Text" d="m93.281 215.41v0.53125l0.03125 13.688-1.0625 0.71875-0.90625 0.59375 1.0625 0.0625s0.23881 0.0108 0.53125 0 0.64694-0.0477 0.9375-0.15625c0.47406-0.17704 0.89926-0.50086 1.0938-1l3.906-10.03c0.34858-0.89466-0.05472-1.8826-0.875-2.25-0.0072-0.003 0.0073-0.0281 0-0.0312h-0.03125l-1.5312-0.6875-0.34375-0.15625-2.3438-1.0625-0.46875-0.21875zm0.6875 1.0625 1.8438 0.84375 0.34375 0.15625 1.5312 0.6875h0.03125c0.47772 0.19713 0.72851 0.81975 0.5 1.4062l-3.875 10.031c-0.046 0.11-0.228 0.17-0.343 0.28v-0.0312l-0.03125-13.375z"/>
 </g>
</svg>
