<svg xmlns="http://www.w3.org/2000/svg" style="isolation:isolate" width="16" height="16" viewBox="0 0 16 16">
 <defs>
  <style id="current-color-scheme" type="text/css">
   .ColorScheme-Text { color:#e6e6fa; } .ColorScheme-Highlight { color:#5294e2; }
  </style>
  <linearGradient id="arrongin" x1="0%" x2="0%" y1="0%" y2="100%">
   <stop offset="0%" style="stop-color:#dd9b44; stop-opacity:1"/>
   <stop offset="100%" style="stop-color:#ad6c16; stop-opacity:1"/>
  </linearGradient>
  <linearGradient id="aurora" x1="0%" x2="0%" y1="0%" y2="100%">
   <stop offset="0%" style="stop-color:#09D4DF; stop-opacity:1"/>
   <stop offset="100%" style="stop-color:#9269F4; stop-opacity:1"/>
  </linearGradient>
  <linearGradient id="fitdance" x1="0%" x2="0%" y1="0%" y2="100%">
   <stop offset="0%" style="stop-color:#1AD6AB; stop-opacity:1"/>
   <stop offset="100%" style="stop-color:#329DB6; stop-opacity:1"/>
  </linearGradient>
  <linearGradient id="oomox" x1="0%" x2="0%" y1="0%" y2="100%">
   <stop offset="0%" style="stop-color:#efefe7; stop-opacity:1"/>
   <stop offset="100%" style="stop-color:#8f8f8b; stop-opacity:1"/>
  </linearGradient>
  <linearGradient id="rainblue" x1="0%" x2="0%" y1="0%" y2="100%">
   <stop offset="0%" style="stop-color:#00F260; stop-opacity:1"/>
   <stop offset="100%" style="stop-color:#0575E6; stop-opacity:1"/>
  </linearGradient>
  <linearGradient id="sunrise" x1="0%" x2="0%" y1="0%" y2="100%">
   <stop offset="0%" style="stop-color: #FF8501; stop-opacity:1"/>
   <stop offset="100%" style="stop-color: #FFCB01; stop-opacity:1"/>
  </linearGradient>
  <linearGradient id="telinkrin" x1="0%" x2="0%" y1="0%" y2="100%">
   <stop offset="0%" style="stop-color: #b2ced6; stop-opacity:1"/>
   <stop offset="100%" style="stop-color: #6da5b7; stop-opacity:1"/>
  </linearGradient>
  <linearGradient id="60spsycho" x1="0%" x2="0%" y1="0%" y2="100%">
   <stop offset="0%" style="stop-color: #df5940; stop-opacity:1"/>
   <stop offset="25%" style="stop-color: #d8d15f; stop-opacity:1"/>
   <stop offset="50%" style="stop-color: #e9882a; stop-opacity:1"/>
   <stop offset="100%" style="stop-color: #279362; stop-opacity:1"/>
  </linearGradient>
  <linearGradient id="90ssummer" x1="0%" x2="0%" y1="0%" y2="100%">
   <stop offset="0%" style="stop-color: #f618c7; stop-opacity:1"/>
   <stop offset="20%" style="stop-color: #94ffab; stop-opacity:1"/>
   <stop offset="50%" style="stop-color: #fbfd54; stop-opacity:1"/>
   <stop offset="100%" style="stop-color: #0f83ae; stop-opacity:1"/>
  </linearGradient>
  <linearGradient id="cyberneon" x1="0%" x2="0%" y1="0%" y2="100%">
    <stop offset="0" style="stop-color:#0abdc6; stop-opacity:1"/>
    <stop offset="1" style="stop-color:#ea00d9; stop-opacity:1"/>
  </linearGradient>
  <clipPath id="_clipPath_qzhCXdN4u199PpfvQExYJNGvjxScNcEd">
   <rect width="16" height="16"/>
  </clipPath>
 </defs>
 <g clip-path="url(#_clipPath_qzhCXdN4u199PpfvQExYJNGvjxScNcEd)">
  <rect style="fill:currentColor" class="ColorScheme-Text" fill-opacity="0" width="16" height="16"/>
  <path style="fill:currentColor" class="ColorScheme-Text" fill-rule="evenodd" d="M 6.683 5.464 L 6.755 5.401 L 6.92 5.029 L 7.161 4.847 L 7.411 4.811 L 7.625 4.715 L 7.794 4.596 L 8.198 4.685 L 8.381 4.496 L 8.695 4.533 L 8.787 4.477 L 8.958 4.573 L 8.822 4.728 L 8.774 4.957 L 9.532 5.079 L 9.601 5.193 L 9.698 5.152 L 9.653 4.943 L 9.787 4.862 L 10.212 4.943 L 10.284 4.88 L 10.833 5.077 L 11.047 5.097 L 11.036 4.823 L 10.953 4.584 L 10.6 4.569 L 10.192 4.615 L 9.773 4.582 L 9.646 4.351 L 10.121 4.019 L 10.478 4.023 L 10.89 3.984 L 10.923 3.864 L 10.67 3.779 L 10.61 3.605 L 10.27 3.618 L 10.013 3.518 L 9.812 3.64 L 9.945 3.713 L 9.94 3.848 L 9.804 4.072 L 9.548 4.113 L 9.449 4.051 L 9.37 3.887 L 9.092 3.897 L 8.929 3.801 L 8.771 3.686 L 8.694 3.786 L 8.852 3.929 L 9.088 4.159 L 9.27 4.18 L 9.409 4.275 L 9.171 4.383 L 9.109 4.439 L 9.011 4.286 L 8.848 4.191 L 8.626 3.992 C 8.626 3.992 8.364 3.853 8.381 3.807 C 8.397 3.76 8.19 3.948 8.19 3.948 L 7.932 3.982 L 7.743 4.157 L 7.619 4.487 L 7.359 4.664 L 7.304 4.618 L 7.144 4.654 L 7.041 4.717 L 6.81 4.645 L 6.869 4.397 C 6.869 4.397 6.892 4.163 6.963 4.084 C 6.999 4.04 7.048 4.01 7.101 4.001 C 7.101 4.001 7.35 3.983 7.465 3.894 L 7.405 3.851 L 7.434 3.684 L 7.331 3.729 L 7.315 3.615 L 7.46 3.527 L 7.589 3.549 L 7.613 3.455 L 7.738 3.343 C 7.738 3.343 7.813 3.431 7.835 3.399 C 7.857 3.368 7.899 3.387 7.899 3.387 L 7.99 3.331 L 8.073 3.317 L 8.078 2.924 L 8.375 2.938 L 8.213 2.667 L 8.08 2.748 L 7.899 2.584 L 7.969 2.304 L 8.696 1.942 C 8.883 2.016 9.267 1.974 9.579 1.927 C 9.582 1.927 9.585 1.927 9.588 1.926 L 9.588 1.926 C 9.602 1.93 9.616 1.933 9.63 1.938 C 9.831 1.991 10.027 2.055 10.216 2.133 C 10.423 2.204 10.622 2.292 10.817 2.387 C 10.979 2.47 11.138 2.559 11.288 2.66 C 11.438 2.744 11.58 2.839 11.712 2.946 C 11.856 3.042 11.99 3.15 12.121 3.26 C 12.343 3.456 12.552 3.666 12.748 3.888 C 12.855 4.015 12.958 4.144 13.05 4.283 C 13.164 4.423 13.265 4.574 13.354 4.732 C 13.679 5.25 13.924 5.822 14.082 6.431 L 14.082 6.431 L 14.082 6.431 L 13.893 6.011 L 13.733 6.037 L 13.53 5.76 L 13.296 5.502 L 12.934 5.387 L 12.693 5.321 L 12.481 5.275 L 12.324 5.097 L 12.102 4.879 L 12.018 5.03 C 12.043 5.119 12.073 5.207 12.107 5.293 C 12.168 5.449 12.225 5.354 12.225 5.354 L 12.387 5.468 L 12.513 5.662 L 12.58 5.509 L 12.628 5.479 L 12.908 5.619 L 13.098 5.722 L 13.162 5.938 L 12.947 6.923 L 12.783 7.023 L 12.724 7.175 L 12.335 6.987 L 12.084 6.726 L 11.938 6.488 L 11.761 6.119 L 11.563 5.949 L 11.378 5.436 L 11.2 5.491 L 11.411 5.963 L 11.535 6.188 L 11.573 6.333 L 11.758 6.653 L 11.929 6.821 C 11.929 6.821 12.097 7.013 12.231 7.026 C 12.364 7.039 12.333 7.158 12.333 7.158 L 12.499 7.435 L 12.481 7.367 L 12.76 7.426 L 12.786 7.297 L 12.962 7.27 L 12.957 7.447 L 12.943 7.889 L 12.694 8.481 L 12.528 8.722 L 12.334 8.856 L 12.296 9.312 C 12.323 9.43 12.355 9.546 12.392 9.66 C 12.421 9.743 12.444 9.83 12.461 9.917 L 12.193 10.759 L 12.048 10.847 L 11.949 11.118 L 11.724 11.299 L 11.685 11.498 L 11.829 11.878 L 11.63 12.034 L 11.384 12.5 L 11.183 12.834 L 10.741 12.925 L 10.485 13.081 L 10.355 13.276 L 10.164 13.32 L 10.135 13.144 L 10.035 12.905 L 10.084 12.568 L 9.946 12.14 L 9.647 11.739 L 9.484 10.683 C 9.484 10.683 9.606 10.434 9.624 10.389 C 9.623 10.373 9.622 10.358 9.62 10.343 C 9.163 10.67 8.603 10.857 8 10.857 C 6.423 10.857 5.143 9.577 5.143 8 C 5.143 6.898 5.768 5.941 6.683 5.464 Z M 2.673 4.692 C 2.561 4.844 2.468 5.009 2.388 5.181 C 1.955 6.027 1.714 6.986 1.714 8 L 1.714 8 C 1.714 8.248 1.729 8.493 1.754 8.734 C 1.773 8.871 1.793 9.008 1.837 9.136 C 1.872 9.436 1.946 9.721 2.04 9.997 C 2.081 10.124 2.127 10.248 2.194 10.36 C 2.286 10.636 2.412 10.894 2.558 11.138 C 2.63 11.271 2.71 11.398 2.81 11.51 C 2.946 11.739 3.109 11.95 3.288 12.149 C 3.464 12.352 3.655 12.543 3.86 12.723 L 3.907 12.384 L 4.114 12.336 L 4.14 12.189 L 4.138 10.89 L 4.377 10.668 L 4.417 10.465 L 4.332 10.336 L 4.009 10.087 L 3.695 10.069 L 3.511 9.686 L 3.079 9.687 L 2.852 9.179 L 2.849 8.971 L 2.707 8.878 L 2.447 8.877 L 2.293 8.685 L 2.141 8.277 L 1.767 8.087 L 1.767 8.087 L 1.72 8.15 C 1.724 8.346 1.738 8.54 1.754 8.734 C 1.777 8.869 1.798 9.006 1.837 9.136 C 1.877 9.431 1.951 9.717 2.04 9.997 C 2.086 10.121 2.132 10.244 2.194 10.36 C 2.29 10.632 2.416 10.889 2.558 11.138 C 2.634 11.267 2.713 11.394 2.673 4.692 L 2.673 4.692 Z M 7.901 1.718 C 7.585 1.722 7.269 1.751 6.957 1.803 L 7.837 1.757 L 7.901 1.718 L 7.901 1.718 L 7.901 1.718 Z M 6.957 1.803 C 6.32 1.91 5.704 2.114 5.13 2.41 L 5.129 2.566 L 5.245 2.861 L 5.453 2.815 L 5.399 2.61 L 5.443 2.449 L 6.201 2.39 L 6.428 2.381 L 6.889 2.044 L 6.957 1.803 L 6.957 1.803 L 6.957 1.803 Z M 7.326 2.719 L 7.197 2.748 L 7.352 3.013 L 7.289 3.309 L 7.306 3.487 L 7.739 3.194 L 7.588 3.026 L 7.464 2.915 L 7.326 2.719 L 7.326 2.719 L 7.326 2.719 Z M 4.447 2.824 C 4.34 2.897 4.236 2.973 4.133 3.051 C 3.976 3.176 3.824 3.307 3.687 3.453 C 3.549 3.568 3.425 3.696 3.309 3.831 C 3.183 3.968 3.066 4.112 2.961 4.266 C 2.853 4.399 2.756 4.541 2.673 4.692 C 2.566 4.848 2.474 5.012 2.388 5.181 C 2.307 5.343 2.232 5.509 2.165 5.679 L 2.228 5.623 L 2.565 5.498 L 2.594 5.373 L 2.581 5.252 L 2.595 5.135 L 2.635 4.981 L 2.716 4.909 L 2.791 4.865 L 2.827 4.793 C 2.879 4.703 2.94 4.62 3.008 4.544 L 3.59 4.121 L 3.644 3.853 C 3.644 3.853 3.927 3.68 3.956 3.741 C 3.986 3.802 4.071 3.762 4.082 3.893 C 4.093 4.025 4.19 3.549 4.19 3.549 L 4.188 3.105 L 4.445 2.921 L 4.447 2.824 L 4.447 2.824 L 4.447 2.824 Z M 13.054 10.168 L 12.902 10.569 L 12.612 10.774 L 12.515 11.012 L 12.537 11.207 L 12.446 11.493 L 12.45 11.49 C 12.47 11.532 12.335 11.617 12.318 11.628 C 12.327 11.633 12.34 11.642 12.375 11.672 L 12.334 11.876 L 12.42 12.054 L 12.756 11.798 L 12.915 11.061 L 13 10.67 L 13.119 10.57 L 13.192 10.297 L 13.054 10.168 L 13.054 10.168 L 13.054 10.168 Z M 12.318 11.628 C 12.309 11.622 12.307 11.62 12.301 11.608 L 12.312 11.632 C 12.312 11.632 12.317 11.628 12.318 11.628 L 12.318 11.628 L 12.318 11.628 L 12.318 11.628 Z M 2.961 4.266 C 3.062 4.108 3.179 3.964 3.309 3.831 C 3.421 3.691 3.546 3.563 3.687 3.453 C 3.821 3.302 3.973 3.171 4.133 3.051 C 5.198 2.212 6.541 1.714 8 1.714 C 8.547 1.714 9.077 1.784 9.579 1.927 C 9.599 1.92 9.616 1.924 9.63 1.938 C 9.834 1.983 10.031 2.046 10.216 2.133 C 10.427 2.197 10.626 2.284 10.817 2.387 C 10.983 2.464 11.142 2.553 11.288 2.66 C 11.442 2.738 11.584 2.834 11.712 2.946 C 11.86 3.037 11.994 3.145 12.121 3.26 C 12.347 3.452 12.557 3.662 12.748 3.888 C 12.859 4.011 12.963 4.141 13.05 4.283 C 13.169 4.42 13.27 4.57 13.354 4.732 C 13.949 5.679 14.286 6.8 14.286 8 C 14.286 11.469 11.469 14.286 8 14.286 C 6.122 14.286 4.436 13.461 3.288 12.149 C 3.108 11.954 2.944 11.743 2.961 4.266 L 2.961 4.266 Z M 7.938 0 L 7.938 0.002 C 3.535 0.035 0 3.589 0 8 C 0 12.432 3.568 16 8 16 C 12.272 16 15.74 12.684 15.985 8.476 L 16 8.462 L 16 1.6 C 16 0.714 15.286 0 14.4 0 L 7.938 0 L 7.938 0 L 7.938 0 L 7.938 0 Z"/>
 </g>
</svg>
