<svg xmlns="http://www.w3.org/2000/svg" style="isolation:isolate" width="16" height="16" viewBox="0 0 16 16">
 <defs>
  <style id="current-color-scheme" type="text/css">
   .ColorScheme-Text { color:#e6e6fa; } .ColorScheme-Highlight { color:#5294e2; }
  </style>
  <linearGradient id="arrongin" x1="0%" x2="0%" y1="0%" y2="100%">
   <stop offset="0%" style="stop-color:#dd9b44; stop-opacity:1"/>
   <stop offset="100%" style="stop-color:#ad6c16; stop-opacity:1"/>
  </linearGradient>
  <linearGradient id="aurora" x1="0%" x2="0%" y1="0%" y2="100%">
   <stop offset="0%" style="stop-color:#09D4DF; stop-opacity:1"/>
   <stop offset="100%" style="stop-color:#9269F4; stop-opacity:1"/>
  </linearGradient>
  <linearGradient id="fitdance" x1="0%" x2="0%" y1="0%" y2="100%">
   <stop offset="0%" style="stop-color:#1AD6AB; stop-opacity:1"/>
   <stop offset="100%" style="stop-color:#329DB6; stop-opacity:1"/>
  </linearGradient>
  <linearGradient id="oomox" x1="0%" x2="0%" y1="0%" y2="100%">
   <stop offset="0%" style="stop-color:#efefe7; stop-opacity:1"/>
   <stop offset="100%" style="stop-color:#8f8f8b; stop-opacity:1"/>
  </linearGradient>
  <linearGradient id="rainblue" x1="0%" x2="0%" y1="0%" y2="100%">
   <stop offset="0%" style="stop-color:#00F260; stop-opacity:1"/>
   <stop offset="100%" style="stop-color:#0575E6; stop-opacity:1"/>
  </linearGradient>
  <linearGradient id="sunrise" x1="0%" x2="0%" y1="0%" y2="100%">
   <stop offset="0%" style="stop-color: #FF8501; stop-opacity:1"/>
   <stop offset="100%" style="stop-color: #FFCB01; stop-opacity:1"/>
  </linearGradient>
  <linearGradient id="telinkrin" x1="0%" x2="0%" y1="0%" y2="100%">
   <stop offset="0%" style="stop-color: #b2ced6; stop-opacity:1"/>
   <stop offset="100%" style="stop-color: #6da5b7; stop-opacity:1"/>
  </linearGradient>
  <linearGradient id="60spsycho" x1="0%" x2="0%" y1="0%" y2="100%">
   <stop offset="0%" style="stop-color: #df5940; stop-opacity:1"/>
   <stop offset="25%" style="stop-color: #d8d15f; stop-opacity:1"/>
   <stop offset="50%" style="stop-color: #e9882a; stop-opacity:1"/>
   <stop offset="100%" style="stop-color: #279362; stop-opacity:1"/>
  </linearGradient>
  <linearGradient id="90ssummer" x1="0%" x2="0%" y1="0%" y2="100%">
   <stop offset="0%" style="stop-color: #f618c7; stop-opacity:1"/>
   <stop offset="20%" style="stop-color: #94ffab; stop-opacity:1"/>
   <stop offset="50%" style="stop-color: #fbfd54; stop-opacity:1"/>
   <stop offset="100%" style="stop-color: #0f83ae; stop-opacity:1"/>
  </linearGradient>
  <linearGradient id="cyberneon" x1="0%" x2="0%" y1="0%" y2="100%">
    <stop offset="0" style="stop-color:#0abdc6; stop-opacity:1"/>
    <stop offset="1" style="stop-color:#ea00d9; stop-opacity:1"/>
  </linearGradient>
 </defs>
 <path style="fill:currentColor" class="ColorScheme-Text" d="M 0 3.6 L 0 5.6 L 0 7.2 L 0 11.6 L 1.6 11.6 L 1.6 7.2 L 2.4 7.2 L 2.4 10 L 4 10 L 4 3.6 L 2.4 3.6 L 2.4 5.6 L 1.6 5.6 L 1.6 3.6 L 0 3.6 Z M 8 3.6 C 7.151 3.6 6.337 3.937 5.737 4.537 C 5.137 5.137 4.8 5.951 4.8 6.8 C 4.8 7.649 5.137 8.463 5.737 9.063 C 6.337 9.663 7.151 10 8 10 C 8.849 10 9.663 9.663 10.263 9.063 C 10.863 8.463 11.2 7.649 11.2 6.8 C 11.2 5.951 10.863 5.137 10.263 4.537 C 9.663 3.937 8.849 3.6 8 3.6 L 8 3.6 Z M 12 3.6 L 12 10 L 13.6 10 L 13.6 6.563 L 14.4 7.949 L 14.4 11.6 L 16 11.6 L 16 3.6 L 14.4 3.6 L 14.4 4.952 L 13.6 3.6 L 12 3.6 Z M 8 5.2 C 8.424 5.2 8.831 5.369 9.131 5.669 C 9.431 5.969 9.6 6.376 9.6 6.8 C 9.6 7.224 9.431 7.631 9.131 7.931 C 8.831 8.231 8.424 8.4 8 8.4 C 7.576 8.4 7.169 8.231 6.869 7.931 C 6.569 7.631 6.4 7.224 6.4 6.8 C 6.4 6.376 6.569 5.969 6.869 5.669 C 7.169 5.369 7.576 5.2 8 5.2 L 8 5.2 Z M 4.8 10.8 L 4.8 12.4 L 11.2 12.4 L 11.2 10.8 L 4.8 10.8 Z"/>
</svg>
