<svg xmlns="http://www.w3.org/2000/svg" style="isolation:isolate" width="16" height="16" viewBox="0 0 16 16">
 <defs>
  <style id="current-color-scheme" type="text/css">
   .ColorScheme-Text { color:#e6e6fa; } .ColorScheme-Highlight { color:#5294e2; }
  </style>
  <linearGradient id="arrongin" x1="0%" x2="0%" y1="0%" y2="100%">
   <stop offset="0%" style="stop-color:#dd9b44; stop-opacity:1"/>
   <stop offset="100%" style="stop-color:#ad6c16; stop-opacity:1"/>
  </linearGradient>
  <linearGradient id="aurora" x1="0%" x2="0%" y1="0%" y2="100%">
   <stop offset="0%" style="stop-color:#09D4DF; stop-opacity:1"/>
   <stop offset="100%" style="stop-color:#9269F4; stop-opacity:1"/>
  </linearGradient>
  <linearGradient id="fitdance" x1="0%" x2="0%" y1="0%" y2="100%">
   <stop offset="0%" style="stop-color:#1AD6AB; stop-opacity:1"/>
   <stop offset="100%" style="stop-color:#329DB6; stop-opacity:1"/>
  </linearGradient>
  <linearGradient id="oomox" x1="0%" x2="0%" y1="0%" y2="100%">
   <stop offset="0%" style="stop-color:#efefe7; stop-opacity:1"/>
   <stop offset="100%" style="stop-color:#8f8f8b; stop-opacity:1"/>
  </linearGradient>
  <linearGradient id="rainblue" x1="0%" x2="0%" y1="0%" y2="100%">
   <stop offset="0%" style="stop-color:#00F260; stop-opacity:1"/>
   <stop offset="100%" style="stop-color:#0575E6; stop-opacity:1"/>
  </linearGradient>
  <linearGradient id="sunrise" x1="0%" x2="0%" y1="0%" y2="100%">
   <stop offset="0%" style="stop-color: #FF8501; stop-opacity:1"/>
   <stop offset="100%" style="stop-color: #FFCB01; stop-opacity:1"/>
  </linearGradient>
  <linearGradient id="telinkrin" x1="0%" x2="0%" y1="0%" y2="100%">
   <stop offset="0%" style="stop-color: #b2ced6; stop-opacity:1"/>
   <stop offset="100%" style="stop-color: #6da5b7; stop-opacity:1"/>
  </linearGradient>
  <linearGradient id="60spsycho" x1="0%" x2="0%" y1="0%" y2="100%">
   <stop offset="0%" style="stop-color: #df5940; stop-opacity:1"/>
   <stop offset="25%" style="stop-color: #d8d15f; stop-opacity:1"/>
   <stop offset="50%" style="stop-color: #e9882a; stop-opacity:1"/>
   <stop offset="100%" style="stop-color: #279362; stop-opacity:1"/>
  </linearGradient>
  <linearGradient id="90ssummer" x1="0%" x2="0%" y1="0%" y2="100%">
   <stop offset="0%" style="stop-color: #f618c7; stop-opacity:1"/>
   <stop offset="20%" style="stop-color: #94ffab; stop-opacity:1"/>
   <stop offset="50%" style="stop-color: #fbfd54; stop-opacity:1"/>
   <stop offset="100%" style="stop-color: #0f83ae; stop-opacity:1"/>
  </linearGradient>
  <linearGradient id="cyberneon" x1="0%" x2="0%" y1="0%" y2="100%">
    <stop offset="0" style="stop-color:#0abdc6; stop-opacity:1"/>
    <stop offset="1" style="stop-color:#ea00d9; stop-opacity:1"/>
  </linearGradient>
 </defs>
 <path style="fill:currentColor" class="ColorScheme-Text" d="M 13.56 0.162 C 13.451 0.172 13.346 0.207 13.253 0.264 L 9.313 2.638 C 9.614 2.696 9.895 2.768 10.162 2.843 L 13.652 0.96 C 13.918 0.815 14.051 0.535 13.939 0.336 C 13.866 0.21 13.725 0.149 13.56 0.162 L 13.56 0.162 Z M 10.162 2.843 L 6.141 5.012 C 6.079 5.045 5.988 5.001 5.936 4.91 C 5.885 4.818 5.887 4.71 5.946 4.674 L 9.313 2.638 C 8.748 2.53 8.125 2.46 7.44 2.433 C 7.593 2.158 7.528 1.813 7.285 1.612 C 7.043 1.411 6.692 1.411 6.449 1.612 C 6.207 1.813 6.142 2.158 6.294 2.433 C 5.147 2.477 4.176 2.653 3.357 2.904 C 3.239 2.805 3.091 2.751 2.937 2.751 C 2.609 2.751 2.34 2.998 2.293 3.314 C 0.727 4.047 0 5.064 0 5.719 C 0 7.489 3.138 8.991 6.857 8.994 C 10.576 8.991 13.724 7.489 13.724 5.719 C 13.724 5.491 13.627 5.22 13.448 4.931 L 7.277 6.783 C 7.219 6.802 7.149 6.738 7.123 6.65 C 7.093 6.56 7.114 6.475 7.174 6.456 L 12.987 4.357 C 12.411 3.781 11.486 3.215 10.162 2.843 L 10.162 2.843 Z M 12.987 4.357 C 13.162 4.53 13.317 4.722 13.448 4.93 L 15.505 4.316 C 15.841 4.217 16.06 3.956 15.986 3.733 C 15.915 3.513 15.578 3.43 15.249 3.549 L 12.987 4.357 Z M 13.734 7.345 C 13.169 8.01 12.262 8.571 11.124 8.973 L 11.124 14.305 C 11.32 14.419 11.452 14.626 11.452 14.868 C 11.452 14.938 11.442 15.008 11.421 15.072 C 13.091 14.36 13.734 13.325 13.734 12.729 L 13.734 7.345 Z M 0 7.356 L 0 12.801 C 0 13.302 0.618 14.335 2.313 15.062 C 2.293 14.999 2.283 14.934 2.283 14.868 C 2.283 14.635 2.408 14.42 2.61 14.305 L 2.61 8.973 C 1.474 8.574 0.569 8.016 0 7.356 L 0 7.356 Z M 3.265 9.178 L 3.265 14.305 C 3.46 14.417 3.584 14.621 3.592 14.846 C 3.6 15.071 3.492 15.284 3.306 15.41 C 4.118 15.64 5.103 15.802 6.294 15.84 C 6.122 15.529 6.231 15.137 6.54 14.959 L 6.54 9.638 C 5.35 9.614 4.241 9.448 3.265 9.177 L 3.265 9.178 Z M 10.47 9.178 C 9.495 9.449 8.384 9.613 7.195 9.638 L 7.195 14.96 C 7.503 15.137 7.612 15.529 7.44 15.84 C 8.629 15.802 9.623 15.64 10.439 15.41 C 10.255 15.29 10.144 15.087 10.142 14.868 C 10.142 14.626 10.274 14.419 10.47 14.305 L 10.47 9.178 Z"/>
</svg>
