<svg xmlns="http://www.w3.org/2000/svg" width="16" height="16" version="1.1">
<defs>
  <style id="current-color-scheme" type="text/css">
   .ColorScheme-Text { color:#e6e6fa; } .ColorScheme-Highlight { color:#5294e2; }
  </style>
  <linearGradient id="arrongin" x1="0%" x2="0%" y1="0%" y2="100%">
   <stop offset="0%" style="stop-color:#dd9b44; stop-opacity:1"/>
   <stop offset="100%" style="stop-color:#ad6c16; stop-opacity:1"/>
  </linearGradient>
  <linearGradient id="aurora" x1="0%" x2="0%" y1="0%" y2="100%">
   <stop offset="0%" style="stop-color:#09D4DF; stop-opacity:1"/>
   <stop offset="100%" style="stop-color:#9269F4; stop-opacity:1"/>
  </linearGradient>
  <linearGradient id="fitdance" x1="0%" x2="0%" y1="0%" y2="100%">
   <stop offset="0%" style="stop-color:#1AD6AB; stop-opacity:1"/>
   <stop offset="100%" style="stop-color:#329DB6; stop-opacity:1"/>
  </linearGradient>
  <linearGradient id="oomox" x1="0%" x2="0%" y1="0%" y2="100%">
   <stop offset="0%" style="stop-color:#efefe7; stop-opacity:1"/>
   <stop offset="100%" style="stop-color:#8f8f8b; stop-opacity:1"/>
  </linearGradient>
  <linearGradient id="rainblue" x1="0%" x2="0%" y1="0%" y2="100%">
   <stop offset="0%" style="stop-color:#00F260; stop-opacity:1"/>
   <stop offset="100%" style="stop-color:#0575E6; stop-opacity:1"/>
  </linearGradient>
  <linearGradient id="sunrise" x1="0%" x2="0%" y1="0%" y2="100%">
   <stop offset="0%" style="stop-color: #FF8501; stop-opacity:1"/>
   <stop offset="100%" style="stop-color: #FFCB01; stop-opacity:1"/>
  </linearGradient>
  <linearGradient id="telinkrin" x1="0%" x2="0%" y1="0%" y2="100%">
   <stop offset="0%" style="stop-color: #b2ced6; stop-opacity:1"/>
   <stop offset="100%" style="stop-color: #6da5b7; stop-opacity:1"/>
  </linearGradient>
  <linearGradient id="60spsycho" x1="0%" x2="0%" y1="0%" y2="100%">
   <stop offset="0%" style="stop-color: #df5940; stop-opacity:1"/>
   <stop offset="25%" style="stop-color: #d8d15f; stop-opacity:1"/>
   <stop offset="50%" style="stop-color: #e9882a; stop-opacity:1"/>
   <stop offset="100%" style="stop-color: #279362; stop-opacity:1"/>
  </linearGradient>
  <linearGradient id="90ssummer" x1="0%" x2="0%" y1="0%" y2="100%">
   <stop offset="0%" style="stop-color: #f618c7; stop-opacity:1"/>
   <stop offset="20%" style="stop-color: #94ffab; stop-opacity:1"/>
   <stop offset="50%" style="stop-color: #fbfd54; stop-opacity:1"/>
   <stop offset="100%" style="stop-color: #0f83ae; stop-opacity:1"/>
  </linearGradient>
  <linearGradient id="cyberneon" x1="0%" x2="0%" y1="0%" y2="100%">
    <stop offset="0" style="stop-color:#0abdc6; stop-opacity:1"/>
    <stop offset="1" style="stop-color:#ea00d9; stop-opacity:1"/>
  </linearGradient>
 </defs>
 <g transform="matrix(0.28346302,0,0,0.28346302,-1.5162576,-66.390791)" style="fill:currentColor" class="ColorScheme-Text">
  <g style="fill:currentColor" class="ColorScheme-Text" transform="matrix(0.18459369,0,0,-0.18459369,10.820365,262.43575)">
   <path style="fill:currentColor" class="ColorScheme-Text" d="M 0,0 C 0,-49.187 28.833,-91.648 70.512,-111.414 L 11.074,51.111 C 3.967,35.54 0,18.232 0,0"/>
  </g>
  <g style="fill:currentColor" class="ColorScheme-Text" transform="matrix(0.18459369,0,0,-0.18459369,26.955055,284.20761)">
   <path style="fill:currentColor" class="ColorScheme-Text" d="m 0,0 c 11.343,-3.444 23.375,-5.304 35.842,-5.304 14.475,0 28.364,2.505 41.266,7.092 L 37.969,108.81 Z"/>
  </g>
  <g style="fill:currentColor" class="ColorScheme-Text" transform="matrix(0.18459369,0,0,-0.18459369,22.816612,250.09028)">
   <path style="fill:currentColor" class="ColorScheme-Text" d="m 0,0 v -7.378 c 0,-0.677 -0.529,-1.23 -1.177,-1.23 h -14.271 c -1.596,0 -2.268,-0.963 -1.708,-2.613 l 44.76,-131.853 27.236,82.229 -18.107,49.513 c -0.657,1.796 -1.437,2.724 -4.223,2.724 H 19.985 c -0.648,0 -1.177,0.554 -1.177,1.23 V 0 c 0,0.676 0.531,1.258 1.177,1.229 23.307,-1.039 46.758,-1.031 70.347,0 C 90.978,1.257 91.509,0.676 91.509,0 v -7.378 c 0,-0.677 -0.529,-1.23 -1.177,-1.23 H 77.876 c -2.47,0 -3.265,-1.142 -2.583,-3.15 l 44.061,-129.79 16.178,49.243 c 19.56,59.536 -16.735,65.836 -15.833,95.435 0.446,14.641 11.179,21.032 21.932,20.747 C 119.686,44.048 90.411,56.369 58.26,56.369 14.912,56.369 -23.211,33.976 -45.182,0.131 -31.181,0.274 -16.151,0.434 -1.178,1.23 -0.531,1.263 0,0.677 0,0"/>
  </g>
  <g style="fill:currentColor" class="ColorScheme-Text" transform="matrix(0.18459369,0,0,-0.18459369,33.571281,287.3212)">
   <path style="fill:currentColor" class="ColorScheme-Text" d="m 320,140.83203 c -98.93375,0 -179.16602,80.23422 -179.16602,179.16797 0,98.93375 80.23227,179.16602 179.16602,179.16602 98.93375,0 179.16602,-80.23227 179.16602,-179.16602 0,-98.93375 -80.23227,-179.16797 -179.16602,-179.16797 z m 0,10.65235 c 93.05125,0 168.51563,75.46312 168.51562,168.51562 0,93.05125 -75.46312,168.51563 -168.51562,168.51562 -93.0525,0 -168.51562,-75.46437 -168.51562,-168.51562 0,-93.0525 75.46437,-168.51563 168.51562,-168.51562 z" transform="matrix(0.8,0,0,-0.8,-256,390.812)"/>
  </g>
  <g style="fill:currentColor" class="ColorScheme-Text" transform="matrix(0.18459369,0,0,-0.18459369,53.581313,251.60265)">
   <path style="fill:currentColor" class="ColorScheme-Text" d="m 0,0 c 0.675,-18.336 -4.852,-41.105 -10.803,-57.957 l -38.445,-108.869 c 38.193,20.94 64.096,61.519 64.096,108.141 C 14.848,-37.441 9.47,-17.45 0,0"/>
  </g>
 </g>
</svg>
