<svg xmlns="http://www.w3.org/2000/svg" width="16" height="16" version="1.1">
 <path style="opacity:0.3;fill:#e6e6fa" d="M 4.5,3 C 2.02,3 0,5.02 0,7.5 0,9.99 2.02,12 4.5,12 6.41,12 8.1,10.8 8.74,9 H 11 V 6 H 8.74 C 8.1,4.21 6.41,3.01 4.5,3 Z M 15,6 V 9 H 16 V 6 Z M 4.5,6.01 C 5.33,6.01 6,6.68 6,7.51 6,8.33 5.33,9.01 4.5,9.01 3.68,9.01 3,8.33 3,7.51 3,6.68 3.68,6.01 4.5,6.01 Z"/>
 <path style="fill:#5294e2" class="warning" d="M 12,6 V 10 L 12.25,12 H 13.75 L 14,10 V 6 Z M 12,13 V 15 H 14 V 13 Z"/>
</svg>
