<svg xmlns="http://www.w3.org/2000/svg" width="22" height="22" version="1.1">
 <defs>
  <style id="current-color-scheme" type="text/css">
   .ColorScheme-Text { color:#e6e6fa; } .ColorScheme-Highlight { color:#5294e2; }
  </style>
 </defs>
 <g transform="translate(-57 -647.36)">
  <path style="fill:currentColor" class="ColorScheme-Text" d="m71.79 658.36c0-1.3-0.72-2.42-1.79-3v6c1.06-0.58 1.79-1.7 1.79-3zm-10.699-2.909v5.818h2.909l4 4.091v-14l-4 4.091z"/>
  <path opacity=".3" style="fill:currentColor" class="ColorScheme-Text" d="m70 651.36v1.5c2.32 0.74 4 2.93 4 5.5s-1.68 4.76-4 5.5v1.5c3.15-0.78 5.5-3.6 5.5-7s-2.35-6.22-5.5-7z"/>
 </g>
</svg>
