<svg xmlns="http://www.w3.org/2000/svg" width="22" height="22" version="1.1">
 <defs>
  <style type="text/css">
   .ColorScheme-Text { color:#e6e6fa; } .ColorScheme-Highlight { color:#5294e2; }
  </style>
 </defs>
 <path style="opacity:.3;fill:currentColor" class="ColorScheme-Text" d="m5 4v9h2v-9zm3 2v12h2v-12zm3 0v12h2v-12zm3 0v7h2v-7z"/>
</svg>
