<svg xmlns="http://www.w3.org/2000/svg" width="22" height="22" version="1.1">
 <defs>
  <style id="current-color-scheme" type="text/css">
   .ColorScheme-Text { color:#e6e6fa; } .ColorScheme-Highlight { color:#5294e2; }
  </style>
 </defs>
 <path style="fill:currentColor" class="ColorScheme-Text" d="m -12.740544,13.369264 1.984479,3.437219 1.9844793,3.437219 -3.9689583,0 -3.968959,0 1.984479,-3.437219 z m -18.521464,22.228938 c 0.006,0.289515 0.10634,0.541479 0.286819,0.730409 0.252691,0.268378 0.661759,0.41354 1.191205,0.41354 l 18.20398,0 c 0.529406,0 0.938541,-0.157536 1.191204,-0.41354 0.37299,-0.390083 0.4073902,-0.999628 0.01032,-1.694442 l -2.767403,-4.932946 -5.984445,-10.674177 c -0.256367,-0.05262 -0.515077,-0.09206 -0.775186,-0.118157 0.260109,0.02611 0.518819,0.06554 0.775186,0.118157 l -0.366922,-0.655219 c -0.649732,-1.170263 -1.707731,-1.170263 -2.369488,0 l -0.369507,0.657906 c -3.637362,0.752833 -6.379791,4.086493 -6.379791,8.088205 0,0.899672 0.140693,1.765686 0.39793,2.575229 l -2.770003,4.941002 c -0.192514,0.347421 -0.279916,0.674518 -0.273899,0.964033 z m 3.3824,-5.029618 c 0.03908,0.0875 0.08211,0.17198 0.12403,0.257791 -0.04188,-0.08576 -0.08498,-0.170337 -0.12403,-0.257791 z m 0.434105,0.835137 c 0.05782,0.09797 0.116703,0.194788 0.178293,0.290015 -0.06161,-0.09533 -0.120456,-0.191939 -0.178293,-0.290015 z m 0.152454,-4.285783 c 0,-3.813396 2.94587,-6.874438 6.61493,-6.874438 0.249053,-3.4e-5 0.494416,0.04611 0.741596,0.07519 l 5.312617,9.481887 c -0.0735,0.176349 -0.132099,0.35953 -0.219637,0.52901 l -0.0155,0.02954 -0.01551,0.03222 c -0.01177,0.02578 -0.0033,0.02106 -0.01296,0.04565 -0.01164,0.01517 -0.04097,0.05381 -0.131783,0.212141 l 0,0.0027 c -0.05832,0.102343 -0.120114,0.204383 -0.183461,0.303442 l -0.0078,0.01074 c -0.07906,0.120495 -0.154611,0.229053 -0.229972,0.330295 l -0.0026,0.0027 c -0.08053,0.107494 -0.163717,0.211902 -0.250479,0.314197 l 0,0.0027 c -0.117755,0.13921 -0.194714,0.234887 -0.240307,0.284649 l -0.0026,0.0027 -0.0026,0.0027 -0.01551,0.01343 -0.01809,0.0188 c -0.15461,0.16353 -0.315855,0.317941 -0.485661,0.464564 -0.05959,0.05148 -0.150936,0.122042 -0.271316,0.214827 l -0.0052,0.0027 -0.0026,0.0027 c -0.111832,0.08775 -0.226535,0.17227 -0.343613,0.252429 l -0.0052,0.0027 c -0.108395,0.07318 -0.211617,0.140727 -0.312667,0.201404 l -0.01032,0.0054 c -0.120313,0.06988 -0.240101,0.134079 -0.364356,0.196023 l -0.0052,0.0027 -0.0052,0.0027 c -0.153464,0.07822 -0.254956,0.134107 -0.310091,0.158443 l -0.0025,0 c -0.222334,0.09633 -0.448612,0.181831 -0.679651,0.252421 l -0.0052,0 -0.0026,0 c -0.04448,0.01383 -0.136099,0.03833 -0.276483,0.07519 -0.172862,0.04535 -0.348721,0.08209 -0.524543,0.112783 -0.125314,0.02181 -0.219695,0.03955 -0.289404,0.04834 l -0.0052,0 -0.0078,0 c -0.262904,0.03586 -0.525534,0.05624 -0.790685,0.05908 -0.154251,-0.0025 -0.30882,-0.01045 -0.462528,-0.02417 l -0.01032,0 -0.0078,-0.0027 c -0.136981,-0.0102 -0.279621,-0.02479 -0.426353,-0.04565 l -0.0026,0 0,-0.0027 c -0.06163,-0.0085 -0.124679,-0.01653 -0.186045,-0.02685 l -0.0052,0 c -0.169628,-0.02949 -0.334986,-0.06597 -0.49612,-0.107413 -0.03208,-0.0088 -0.06366,-0.01758 -0.09561,-0.02685 l -0.0078,-0.0027 -0.0078,-0.0027 c -0.185096,-0.05139 -0.364771,-0.108707 -0.539861,-0.174565 l -0.0026,0 c -0.0018,-6.64e-4 -0.0034,-0.002 -0.0052,-0.0027 -0.01473,-0.0057 -0.02924,-0.01299 -0.04393,-0.0188 l -0.0052,0 -0.0026,-0.0027 c -0.186053,-0.07215 -0.367473,-0.150358 -0.545213,-0.239003 l -0.0078,-0.0054 -0.0026,0 c -0.01514,-0.0078 -0.02885,-0.01625 -0.04393,-0.02417 l -0.0052,-0.0027 -0.0052,-0.0027 c -0.170553,-0.08756 -0.339553,-0.183862 -0.503865,-0.287334 -0.02813,-0.0177 -0.05481,-0.03558 -0.08269,-0.05371 -0.179945,-0.117287 -0.350198,-0.236714 -0.511623,-0.365204 -0.175937,-0.140165 -0.337887,-0.283753 -0.490952,-0.432338 l -0.0052,-0.0054 -0.01293,-0.01343 c -1.28679,-1.25785 -2.09041,-3.022056 -2.09041,-5.002754 z m 0.377257,5.075269 c 0.06405,0.08466 0.126688,0.170459 0.193797,0.252421 -0.06721,-0.0821 -0.129666,-0.167618 -0.193797,-0.252421 z m 5.431479,-13.281629 c 0.264909,-0.02832 0.533953,-0.04296 0.806194,-0.04296 -0.272257,0 -0.540991,0.01515 -0.806194,0.04296 z m 0.806194,16.455686 c 0.167354,-0.0043 0.334533,-0.0142 0.501288,-0.02954 -0.166755,0.01534 -0.333934,0.02519 -0.501288,0.02954 z m 2.273883,-0.351778 c 0.128594,-0.04316 0.256114,-0.08972 0.382425,-0.139637 -0.126305,0.04992 -0.253827,0.09648 -0.382425,0.139637 z m 4.726059,-4.036047 c 0.102994,-0.202579 0.197819,-0.409528 0.284234,-0.620311 -0.08642,0.210783 -0.181241,0.417732 -0.284234,0.620311 z m -6.999942,-7.986163 c 2.191995,0 3.968959,1.846674 3.968959,4.124662 0,2.277989 -1.776964,4.124663 -3.968959,4.124663 -2.191995,0 -3.968958,-1.846674 -3.968958,-4.124663 0,-2.277988 1.776963,-4.124662 3.968958,-4.124662 z" transform="matrix(0,0.75586577,-0.72733217,0,30.723896,26.630141)"/>
</svg>
