<svg xmlns="http://www.w3.org/2000/svg" width="22" height="22" version="1.1">
 <defs>
  <style id="current-color-scheme" type="text/css">
   .ColorScheme-Text { color:#e6e6fa; } .ColorScheme-Highlight { color:#5294e2; }
  </style>
 </defs>
 <g>
  <path style="opacity:0.3;fill:currentColor" class="ColorScheme-Text" d="m 11.532348,3.0038348 c -0.430992,-0.0128 -0.517991,0.0021 -0.641989,0.113298 -0.203996,0.177796 -0.193996,0.560289 0.017,0.722586 0.113998,0.0849 0.200996,0.104598 0.702987,0.132898 1.485973,0.0848 2.621952,0.477391 3.718932,1.283176 1.315975,0.963282 2.14096,2.305358 2.452954,3.986227 0.08,0.428492 0.119998,0.7867852 0.146998,1.3417752 0.016,0.361993 0.028,0.441992 0.076,0.53499 0.150997,0.281995 0.591989,0.322994 0.792986,0.072 0.105998,-0.128998 0.117997,-0.228996 0.099,-0.680988 -0.05,-1.3246752 -0.343994,-2.5286532 -0.858984,-3.5411342 -0.369994,-0.725587 -0.716987,-1.193478 -1.345976,-1.810567 -0.670987,-0.653488 -1.178978,-1.011281 -1.971963,-1.390574 -0.806985,-0.384693 -1.541972,-0.599789 -2.450955,-0.710987 -0.179997,-0.0208 -0.511991,-0.0453 -0.736986,-0.0527 z m -5.6422966,0.265595 c -0.1198978,-0.0109 -0.2362956,-0.0103 -0.3221941,0.0078 l -0.002,0 c -0.2512954,0.0519 -0.5662896,0.234695 -1.247977,0.730486 -0.4095925,0.299795 -0.9714821,0.837785 -1.1035797,1.054681 -0.3064943,0.51399 -0.2891946,0.950582 0.083998,1.955064 0.6399882,1.722568 1.5751709,3.3823372 2.8046483,4.9843082 2.3531566,3.064943 5.3174021,5.293902 9.0293331,6.788874 0.472992,0.190997 0.626989,0.222996 0.997982,0.204997 0.448992,-0.021 0.789985,-0.156997 1.270976,-0.513991 0.531991,-0.393993 1.292977,-1.318975 1.488973,-1.811966 0.184997,-0.467992 0.135997,-0.891984 -0.138997,-1.222978 -0.155998,-0.182996 -1.308976,-1.102979 -1.847966,-1.471973 -0.408993,-0.278995 -1.042981,-0.662987 -1.333976,-0.810985 -0.382993,-0.190996 -0.764986,-0.223996 -1.137979,-0.1 -0.293994,0.099 -0.389993,0.182997 -0.818985,0.708987 -0.221996,0.268995 -0.426992,0.512991 -0.452991,0.53599 -0.029,0.023 -0.121998,0.074 -0.208997,0.112998 -0.345993,0.157997 -0.819984,0.063 -1.59397,-0.314994 C 10.753361,13.815733 10.219371,13.44674 9.6145817,12.90375 9.0992917,12.444759 8.5795007,11.84377 8.2885066,11.376778 7.9132135,10.774789 7.6271188,9.9941038 7.6244188,9.5623118 c 0,-0.185897 0.076899,-0.449892 0.1718968,-0.58399 0.036999,-0.0539 0.272095,-0.258295 0.5233904,-0.456991 0.6264877,-0.493191 0.7666857,-0.646988 0.8515837,-0.941383 0.0822,-0.273495 -0.0062,-0.644088 -0.267595,-1.142579 -0.457391,-0.873084 -1.8548653,-2.619851 -2.357356,-2.945245 -0.082198,-0.0519 -0.2260958,-0.123298 -0.3183941,-0.154298 -0.095298,-0.0337 -0.217996,-0.0574 -0.3378938,-0.0684 z m 5.8882916,1.62307 c -0.148997,0.0229 -0.235996,0.0831 -0.303994,0.187496 l -0.002,0 c -0.126998,0.188597 -0.111998,0.416193 0.039,0.58399 0.097,0.111098 0.239996,0.162697 0.499991,0.183596 0.716987,0.0565 1.501972,0.285795 2.034962,0.595689 0.617989,0.358994 1.12598,0.874784 1.473973,1.499973 0.306994,0.547689 0.484991,1.252876 0.484991,1.921764 0,0.4337922 0.06,0.5927892 0.263995,0.6937872 0.120998,0.062 0.341994,0.067 0.444992,0.015 0.095,-0.049 0.205996,-0.165997 0.239996,-0.253995 0.037,-0.093 0.036,-0.6533882 0.002,-0.9605832 -0.098,-0.839384 -0.381993,-1.62277 -0.839985,-2.289057 -0.813985,-1.182979 -2.056962,-1.910165 -3.661932,-2.140561 -0.315995,-0.0465 -0.526991,-0.06 -0.675988,-0.0371 z m 0.56099,1.931564 c -0.051,0.0058 -0.086,0.0187 -0.136998,0.043 -0.266995,0.134098 -0.340993,0.498291 -0.147997,0.722587 0.104998,0.121298 0.203996,0.156997 0.52899,0.195396 0.692987,0.0828 1.10098,0.335794 1.333976,0.824185 0.107998,0.229696 0.172996,0.478291 0.206996,0.831985 0.029,0.266095 0.069,0.364093 0.194996,0.456991 0.174997,0.1315982 0.461992,0.1255982 0.617989,-0.0136 0.165997,-0.149597 0.195996,-0.329594 0.123998,-0.789086 -0.104999,-0.704687 -0.344994,-1.196678 -0.784986,-1.60157 -0.340994,-0.312494 -0.740986,-0.506691 -1.260977,-0.615189 -0.107998,-0.0228 -0.309994,-0.0452 -0.447991,-0.0527 l -0.002,0 c -0.108998,-0.0063 -0.175997,-0.0077 -0.225996,-0.002 z"/>
 </g>
</svg>
