<svg xmlns="http://www.w3.org/2000/svg" width="22" height="22" version="1.1">
 <defs>
  <style id="current-color-scheme" type="text/css">
   .ColorScheme-Text { color:#e6e6fa; } .ColorScheme-Highlight { color:#5294e2; }
  </style>
 </defs>
 <path style="fill:currentColor" class="ColorScheme-Text" d="m17.928 7.0002a8 8 0 0 0 -10.928 -2.9282 8 8 0 0 0 -2.9282 10.928 8 8 0 0 0 10.928 2.928 8 8 0 0 0 2.928 -10.928zm-1.7321 1a6 6 0 0 1 0.49082 4.897 1.5 1.5 0 0 1 0.15213 0.21663 1.5 1.5 0 0 1 -0.54904 2.049 1.5 1.5 0 0 1 -1.1285 0.15086 6 6 0 0 1 -1.161 0.882 6 6 0 0 1 -3.664 0.76 1.5 1.5 0 0 1 -0.517 0.499 1.5 1.5 0 0 1 -2.0486 -0.549 1.5 1.5 0 0 1 -0.1822 -0.98 6 6 0 0 1 -1.7844 -1.926 6 6 0 0 1 0.0041 -5.9969 1.5 1.5 0 0 1 -0.031 -0.0497 1.5 1.5 0 0 1 0.5491 -2.0491 1.5 1.5 0 0 1 1.5064 0.0076 6 6 0 0 1 0.16762 -0.10809 6 6 0 0 1 8.1962 2.1961zm-0.866 0.5a5 5 0 0 0 -6.83 -1.8301 5 5 0 0 0 -0.0186 0.0107 1.5 1.5 0 0 1 -0.1274 1.3027l2.2091 2.7209a1.5 1.5 0 0 1 1.8029 0.66182 1.5 1.5 0 0 1 0.1993 0.79832l1.8405 0.71906a1.5 1.5 0 0 1 0.384 -0.318 1.5 1.5 0 0 1 1.011 -0.178 5 5 0 0 0 -0.471 -3.887zm-1.288 5.315-1.841-0.719a1.5 1.5 0 0 1 -0.38425 0.31883 1.5 1.5 0 0 1 -0.92846 0.18873l-0.74429 1.5077a1.5 1.5 0 0 1 0.22419 0.29455 1.5 1.5 0 0 1 0.19005 0.57136 5 5 0 0 0 2.942 -0.648 5 5 0 0 0 0.819 -0.597 1.5 1.5 0 0 1 -0.078 -0.119 1.5 1.5 0 0 1 -0.199 -0.799zm-4.253-2.479-2.2108-2.7198a1.5 1.5 0 0 1 -0.97335 0.00942 5 5 0 0 0 0.06507 4.8744 5 5 0 0 0 1.3972 1.5411 1.5 1.5 0 0 1 0.25234 -0.18403 1.5 1.5 0 0 1 0.92846 -0.18873l0.744-1.507a1.5 1.5 0 0 1 -0.22418 -0.29456 1.5 1.5 0 0 1 0.02105 -1.53z"/>
</svg>
