<svg xmlns="http://www.w3.org/2000/svg" style="isolation:isolate" width="16" height="16" viewBox="0 0 16 16">
 <defs>
  <clipPath id="_clipPath_L32hPx2VfMpddMY7rEaP9u3h3JzBHsua">
   <rect width="16" height="16"/>
  </clipPath>
 </defs>
 <g clip-path="url(#_clipPath_L32hPx2VfMpddMY7rEaP9u3h3JzBHsua)">
  <path fill="#e6e6fa" d="M 10.625 1 C 9.905 1 9.167 1.995 9.167 3.917 C 9.167 5.667 9.75 6.833 9.75 6.833 C 9.75 6.833 14.417 6.25 14.417 3.917 C 14.417 2.167 12.774 0.745 12.083 2.167 C 11.823 1.385 11.322 1 10.625 1 Z M 3.917 1.583 C 2.167 1.583 0.745 3.226 2.167 3.917 C 1.385 4.177 1 4.678 1 5.375 C 1 6.095 1.995 6.833 3.917 6.833 C 5.667 6.833 6.833 6.25 6.833 6.25 C 6.833 6.25 6.25 1.583 3.917 1.583 Z M 6.25 9.167 C 6.25 9.167 1.583 9.75 1.583 12.083 C 1.583 13.833 3.226 15.255 3.917 13.833 C 4.177 14.615 4.678 15 5.375 15 C 6.095 15 6.833 14.005 6.833 12.083 C 6.833 10.333 6.25 9.167 6.25 9.167 Z M 12.083 9.167 C 10.333 9.167 9.167 9.75 9.167 9.75 C 9.167 9.75 9.75 14.417 12.083 14.417 C 13.833 14.417 15.255 12.774 13.833 12.083 C 14.615 11.823 15 11.322 15 10.625 C 15 9.905 14.005 9.167 12.083 9.167 Z"/>
  <rect fill="#e6e6fa" width="4.625" height="3.594" x="18.19" y="-.16" transform="matrix(1,0,0,1,0,0)"/>
 </g>
</svg>
