<svg xmlns="http://www.w3.org/2000/svg" style="enable-background:new" width="16" height="16" version="1.1">
 <g transform="translate(-484.00023,-565.99664)" style="fill:#e6e6fa">
  <path d="m 492,576 0,1 -7,0 0,2 7,0 0,1 2,0 0,-1 0,-2 0,-1 z m 3,1 0,2 4,0 0,-2 z" style="fill:#e6e6fa"/>
  <path d="m 488,572 0,1 -3,0 0,2 3,0 0,1 2,0 0,-1 0,-2 0,-1 z m 3,1 0,2 8,0 0,-2 z" style="fill:#e6e6fa"/>
  <path d="m 494,568 0,1 -9,0 0,2 9,0 0,1 2,0 0,-1 0,-2 0,-1 z m 3,1 0,2 2,0 0,-2 z" style="fill:#e6e6fa"/>
 </g>
</svg>
