<svg xmlns="http://www.w3.org/2000/svg" style="isolation:isolate" width="16" height="16" viewBox="0 0 16 16">
 <path fill="#e6e6fa" d="M 8.956 0.165 C 7.194 0.646 6.656 1.2 6.179 3 C 5.763 4.517 5.567 4.8 4.515 5.318 C 3.647 5.75 3.61 5.786 3.61 6.193 C 3.61 6.428 3.659 6.662 3.732 6.699 C 3.806 6.748 3.744 6.921 3.586 7.143 L 3.316 7.5 L 3.059 7.254 C 2.913 7.118 2.717 7.007 2.619 7.007 C 2.313 7.007 1.812 7.636 1.42 8.487 C 1.212 8.98 0.906 9.399 0.674 9.571 C 0.356 9.818 0.295 9.929 0.368 10.188 C 0.49 10.73 1.09 11.199 1.653 11.199 C 2.117 11.199 2.631 11.519 2.631 11.803 C 2.631 11.877 2.79 12.025 2.986 12.136 C 3.182 12.259 3.439 12.555 3.561 12.814 C 3.806 13.381 4.723 14.318 5.286 14.589 C 5.506 14.7 6.093 14.873 6.583 14.971 C 7.06 15.07 7.83 15.317 8.283 15.526 C 9.176 15.933 9.971 16.118 9.971 15.921 C 9.971 15.736 9.727 15.563 9.213 15.403 C 8.65 15.218 8.381 14.922 8.638 14.774 C 8.736 14.712 9.054 14.626 9.36 14.589 C 10.681 14.404 12.1 13.788 11.831 13.516 C 11.745 13.43 11.5 13.467 11.036 13.64 L 10.363 13.899 L 10.289 13.516 C 10.192 12.999 9.421 12.296 8.675 12.025 C 8.332 11.901 7.928 11.717 7.782 11.618 L 7.512 11.421 L 8.075 10.915 C 8.773 10.299 9.115 9.769 9.482 8.733 C 9.641 8.289 9.812 7.882 9.873 7.821 C 10.02 7.636 10.632 8.289 10.95 8.98 C 11.109 9.325 11.195 9.633 11.146 9.682 C 11.097 9.744 10.693 9.806 10.265 9.843 C 9.837 9.88 9.482 9.954 9.482 10.028 C 9.482 10.102 9.984 10.188 10.62 10.225 C 11.244 10.274 11.703 10.305 12.144 10.308 C 13.558 10.254 13.942 9.907 14.49 9.862 C 15.713 9.76 15.732 9.448 15.613 9.25 C 15.323 8.765 14.872 9.426 14.644 9.487 C 14.398 9.553 13.176 9.629 13.135 9.531 C 13.056 9.34 13.303 8.682 13.728 8.407 C 14.431 7.95 14.701 7.299 14.077 7.238 C 13.804 7.211 13.446 7.638 13.409 8.085 C 13.377 8.485 12.632 9.263 12.388 9.213 C 12.254 9.185 12.136 9.074 12.002 8.943 C 11.452 8.413 11.231 7.858 10.987 6.428 C 10.877 5.836 10.901 5.75 11.28 5.133 C 12.235 3.58 11.99 0.646 10.852 0.115 C 10.485 -0.057 9.69 -0.033 8.956 0.165 L 8.956 0.165 L 8.956 0.165 Z"/>
</svg>
