<svg xmlns="http://www.w3.org/2000/svg" style="isolation:isolate" width="16" height="16" viewBox="0 0 16 16">
 <path fill="#e6e6fa" d="M 0 3.469 L 0 9.133 L 0 12.531 L 2.265 12.531 L 2.265 12.331 C 2.629 12.462 3.012 12.529 3.398 12.531 C 5.275 12.531 6.796 11.009 6.796 9.133 C 6.796 8.232 6.438 7.367 5.801 6.73 C 5.163 6.093 4.299 5.735 3.398 5.735 C 3.012 5.736 2.629 5.804 2.265 5.934 L 2.265 3.469 L 0 3.469 Z M 12.082 3.469 C 10.88 3.469 9.728 3.947 8.878 4.796 C 8.028 5.646 7.551 6.798 7.551 8 C 7.551 9.202 8.028 10.354 8.878 11.204 C 9.728 12.053 10.88 12.531 12.082 12.531 C 13.698 12.528 15.19 11.665 15.999 10.265 L 12.082 10.265 C 10.83 10.265 9.816 9.251 9.816 8 C 9.816 6.749 10.83 5.735 12.082 5.735 L 16 5.735 C 15.192 4.335 13.698 3.471 12.082 3.469 Z M 3.398 8 C 3.698 8 3.986 8.119 4.199 8.332 C 4.411 8.544 4.531 8.832 4.531 9.133 C 4.531 9.433 4.411 9.721 4.199 9.934 C 3.986 10.146 3.698 10.265 3.398 10.265 C 2.772 10.265 2.265 9.758 2.265 9.133 C 2.265 8.507 2.772 8 3.398 8 L 3.398 8 Z"/>
</svg>
