<svg xmlns="http://www.w3.org/2000/svg" style="isolation:isolate" width="16" height="16" viewBox="0 0 16 16">
 <path fill="#e6e6fa" fill-rule="evenodd" d="M 12.341 8.089 C 12.336 8.088 12.331 8.087 12.326 8.086 C 12.068 8.032 11.817 7.954 11.577 7.854 C 11.334 7.752 11.099 7.633 10.878 7.496 C 10.649 7.357 10.429 7.203 10.222 7.039 C 10.004 6.868 9.797 6.689 9.599 6.502 C 9.393 6.309 9.193 6.111 9 5.908 C 8.803 5.699 8.609 5.488 8.42 5.275 C 8.228 5.059 8.037 4.842 7.848 4.625 C 7.66 4.408 7.469 4.192 7.279 3.978 C 7.09 3.767 6.9 3.558 6.705 3.353 C 6.517 3.155 6.322 2.961 6.121 2.772 C 5.93 2.593 5.731 2.421 5.522 2.256 C 5.326 2.102 5.119 1.957 4.903 1.824 C 4.698 1.699 4.484 1.589 4.258 1.495 C 4.065 1.414 3.865 1.35 3.659 1.303 L 3.659 1.303 L 3.659 1.303 L 3.659 2.087 L 1.301 2.087 L 0.107 1.044 L 1.282 0.019 L 1.301 0 L 3.659 0 L 3.659 0.954 C 3.664 0.955 3.669 0.956 3.674 0.957 C 3.932 1.011 4.183 1.089 4.423 1.189 C 4.666 1.291 4.901 1.41 5.122 1.547 C 5.351 1.687 5.571 1.84 5.778 2.005 C 5.996 2.175 6.203 2.354 6.401 2.541 C 6.607 2.734 6.807 2.932 7 3.137 C 7.197 3.344 7.391 3.555 7.58 3.769 C 7.772 3.984 7.963 4.201 8.152 4.418 C 8.34 4.636 8.531 4.851 8.721 5.067 C 8.91 5.278 9.1 5.485 9.295 5.69 C 9.483 5.889 9.678 6.083 9.879 6.271 C 10.07 6.45 10.269 6.623 10.478 6.787 C 10.674 6.943 10.881 7.087 11.097 7.219 C 11.302 7.344 11.516 7.455 11.742 7.548 C 11.935 7.629 12.135 7.693 12.341 7.741 L 12.341 6.957 L 14.695 6.957 L 14.722 6.957 L 15.893 8 L 14.722 9.043 L 12.341 9.043 L 12.341 8.089 Z M 12.341 14.697 C 12.135 14.649 11.935 14.585 11.742 14.504 C 11.516 14.411 11.302 14.3 11.097 14.175 C 10.881 14.043 10.674 13.899 10.478 13.743 C 10.269 13.579 10.07 13.407 9.879 13.227 C 9.678 13.039 9.483 12.845 9.295 12.646 C 9.1 12.441 8.91 12.234 8.721 12.023 C 8.531 11.808 8.34 11.592 8.152 11.376 C 7.963 11.158 7.772 10.941 7.58 10.725 C 7.391 10.511 7.197 10.3 7 10.093 C 6.807 9.89 6.607 9.691 6.401 9.498 C 6.203 9.311 5.996 9.132 5.778 8.961 C 5.571 8.796 5.351 8.644 5.122 8.503 C 4.901 8.368 4.666 8.248 4.423 8.146 C 4.183 8.047 3.932 7.968 3.674 7.913 C 3.669 7.912 3.664 7.911 3.659 7.91 L 3.659 7.91 L 3.659 6.957 L 1.301 6.957 L 1.282 6.976 L 0.107 8 L 1.301 9.043 L 3.659 9.043 L 3.659 8.259 L 3.659 8.259 C 3.865 8.307 4.065 8.372 4.258 8.451 C 4.484 8.546 4.698 8.655 4.903 8.78 C 5.119 8.914 5.326 9.058 5.522 9.213 C 5.731 9.377 5.93 9.549 6.121 9.729 C 6.322 9.918 6.517 10.111 6.705 10.309 C 6.9 10.514 7.09 10.723 7.279 10.934 C 7.469 11.149 7.66 11.365 7.848 11.581 C 8.037 11.799 8.228 12.015 8.42 12.232 C 8.609 12.445 8.803 12.655 9 12.864 C 9.193 13.067 9.393 13.265 9.599 13.458 C 9.797 13.645 10.004 13.825 10.222 13.996 C 10.429 14.159 10.649 14.313 10.878 14.454 C 11.099 14.589 11.334 14.709 11.577 14.81 C 11.817 14.91 12.068 14.988 12.326 15.043 C 12.331 15.044 12.336 15.045 12.341 15.046 L 12.341 16 L 14.722 16 L 15.893 14.957 L 14.722 13.913 L 14.695 13.913 L 12.341 13.913 L 12.341 14.697 L 12.341 14.697 L 12.341 14.697 Z"/>
</svg>
