<svg xmlns="http://www.w3.org/2000/svg" width="16" height="16" version="1.1">
 <g style="fill:#e6e6fa" transform="matrix(0.18559771,0,0,0.18559771,-6.0911001,11.556975)">
  <path d="M 4.3222656 1.1992188 C 1.9431181 1.1992188 0 2.9864674 0 5.1992188 C 0 6.3508574 0.52113678 7.4019484 1.3574219 8.1328125 L 7.8925781 14 L 14.642578 8.1328125 C 15.479364 7.4032285 16 6.3511935 16 5.1992188 C 16 2.9864666 14.056884 1.2011719 11.677734 1.2011719 C 10.11137 1.2011719 8.7535833 1.9696382 8 3.1328125 C 7.2464163 1.9696382 5.8886309 1.2011719 4.3222656 1.2011719 L 4.3222656 1.1992188 z M 4.8476562 2.1152344 C 6.1899215 2.1152344 7.3542316 2.7747256 8 3.7714844 C 8.6457681 2.7747256 9.8100795 2.1152344 11.152344 2.1152344 C 13.191108 2.1152344 14.855469 3.6467952 14.855469 5.5429688 C 14.855469 6.5301304 14.410426 7.4314382 13.693359 8.0566406 L 7.9082031 13.083984 L 2.3066406 8.0566406 C 1.5900029 7.4303413 1.1445312 6.5298423 1.1445312 5.5429688 C 1.1445313 3.6467959 2.8088936 2.1152344 4.8476562 2.1152344 z" transform="matrix(5.3879975,0,0,5.3879975,32.818832,-62.268953)" style="fill:#e6e6fa"/>
 </g>
</svg>
