<svg xmlns="http://www.w3.org/2000/svg" style="isolation:isolate" width="16" height="16" viewBox="0 0 16 16">
 <path fill="#e6e6fa" d="M 8.079 1.501 C 7.902 1.499 7.725 1.504 7.549 1.516 L 7.549 1.516 C 5.437 1.664 3.473 2.842 2.371 4.751 L 3.237 5.251 C 4.481 3.094 7.019 2.042 9.423 2.688 C 11.206 3.165 12.63 4.504 13.216 6.254 L 11.334 6.979 C 11.935 7.548 12.576 8.116 13.255 8.684 C 13.918 9.233 14.594 9.765 15.284 10.279 C 15.459 9.434 15.608 8.584 15.731 7.73 C 15.854 6.854 15.944 6.004 16 5.183 L 14.149 5.895 C 13.461 3.89 11.815 2.294 9.682 1.722 C 9.159 1.582 8.62 1.507 8.079 1.501 L 8.079 1.501 Z M 0.716 5.721 C 0.541 6.566 0.392 7.416 0.269 8.27 C 0.146 9.147 0.056 9.996 0 10.817 L 1.85 10.105 C 2.538 12.11 4.185 13.707 6.318 14.278 C 7.012 14.465 7.733 14.534 8.451 14.484 C 10.562 14.336 12.527 13.159 13.629 11.249 L 12.763 10.75 C 11.519 12.907 8.981 13.958 6.577 13.312 C 4.794 12.836 3.369 11.496 2.784 9.746 L 4.666 9.021 C 4.043 8.433 3.402 7.865 2.745 7.316 C 2.082 6.767 1.406 6.235 0.716 5.721 L 0.716 5.721 Z"/>
</svg>
