<svg xmlns="http://www.w3.org/2000/svg" style="isolation:isolate" width="16" height="16" viewBox="0 0 16 16">
 <path fill="#e6e6fa" fill-rule="evenodd" d="M 10.07 11.896 C 9.455 11.772 8.91 11.405 8.571 10.857 L 8.571 10.857 L 8.571 10.857 L 10.016 10.079 C 10.31 10.679 10.362 11.319 10.07 11.896 Z M 10.097 11.902 C 10.687 12.071 11.342 12.004 11.918 11.693 C 13.089 11.062 13.491 9.665 12.814 8.571 L 10.826 9.643 L 10.826 9.643 L 10.826 9.714 C 10.948 10.338 10.711 11.083 10.097 11.902 Z M 5.93 11.896 C 6.544 11.772 7.09 11.405 7.428 10.857 L 7.428 10.857 L 7.428 10.857 L 7.428 10.857 L 5.984 10.079 C 5.69 10.679 5.637 11.319 5.93 11.896 L 5.93 11.896 Z M 5.903 11.902 C 5.313 12.071 4.658 12.004 4.082 11.693 C 2.911 11.062 2.509 9.665 3.186 8.571 L 5.174 9.643 L 5.174 9.643 L 5.174 9.714 C 5.052 10.338 5.289 11.083 5.903 11.902 L 5.903 11.902 Z M 13.631 0 C 13.416 1.324 12.764 2.532 11.786 3.422 C 10.702 2.705 9.402 2.286 8 2.286 C 6.597 2.286 5.296 2.705 4.212 3.423 C 3.241 2.542 2.591 1.348 2.369 0.038 C 2.316 0.354 2.288 0.675 2.286 0.996 C 2.287 2.14 2.615 3.26 3.23 4.215 C 1.944 5.461 1.143 7.203 1.143 9.143 C 1.143 12.942 4.201 16 8 16 C 11.799 16 14.857 12.942 14.857 9.143 C 14.857 7.203 14.057 5.462 12.771 4.217 C 13.386 3.26 13.713 2.141 13.714 0.996 C 13.714 0.662 13.686 0.329 13.631 0 L 13.631 0 L 13.631 0 L 13.631 0 L 13.631 0 L 13.631 0 Z"/>
</svg>
