<svg xmlns="http://www.w3.org/2000/svg" width="16" height="16" version="1.1">
 <g transform="translate(-31.97559,-220.36218)">
  <path d="m 8.0244098,6.00002 a 3,3 0 0 1 -3,3 3,3 0 0 1 -3,-3 3,3 0 0 1 3,-3 3,3 0 0 1 3,3 z" transform="matrix(0.49737385,-0.91547058,0.91547058,0.49737385,35.89359,232.91345)" style="opacity:0.99999999;fill:#e6e6fa"/>
  <path style="opacity:0.99999999;fill:#888888" d="m 8.0244098,6.00002 a 3,3 0 0 1 -3,3 3,3 0 0 1 -3,-3 3,3 0 0 1 3,-3 3,3 0 0 1 3,3 z" transform="matrix(0.49737385,-0.91547058,0.91547058,0.49737385,28.176238,232.91607)"/>
  <path style="opacity:0.99999999;fill:#9c9c9c" d="m 8.0244098,6.00002 a 3,3 0 0 1 -3,3 3,3 0 0 1 -3,-3 3,3 0 0 1 3,-3 3,3 0 0 1 3,3 z" transform="matrix(0.49737385,-0.91547058,0.91547058,0.49737385,32.094699,226.09141)"/>
 </g>
</svg>
