<svg xmlns="http://www.w3.org/2000/svg" style="isolation:isolate" width="16" height="16" viewBox="0 0 16 16">
 <defs>
  <clipPath id="_clipPath_JDtyoYq2kukrfR9PfnqkJZP1O7JzhzT9">
   <rect width="16" height="16"/>
  </clipPath>
 </defs>
 <g clip-path="url(#_clipPath_JDtyoYq2kukrfR9PfnqkJZP1O7JzhzT9)">
  <rect style="fill:#e6e6fa" fill-opacity="0" width="16" height="16"/>
  <path fill="#e6e6fa" fill-rule="evenodd" d="M 6.329 5.667 L 9.671 5.667 C 10.037 5.667 10.333 5.963 10.333 6.329 L 10.333 9.671 C 10.333 10.037 10.037 10.333 9.671 10.333 L 6.329 10.333 C 5.963 10.333 5.667 10.037 5.667 9.671 L 5.667 6.329 C 5.667 5.963 5.963 5.667 6.329 5.667 L 6.329 5.667 L 6.329 5.667 L 6.329 5.667 L 6.329 5.667 L 6.329 5.667 Z M 0.662 5.667 L 4.005 5.667 C 4.37 5.667 4.667 5.963 4.667 6.329 L 4.667 9.671 C 4.667 10.037 4.37 10.333 4.005 10.333 L 0.662 10.333 C 0.297 10.333 0 10.037 0 9.671 L 0 6.329 C 0 5.963 0.297 5.667 0.662 5.667 L 0.662 5.667 L 0.662 5.667 L 0.662 5.667 L 0.662 5.667 L 0.662 5.667 Z M 11.995 5.667 L 15.338 5.667 C 15.703 5.667 16 5.963 16 6.329 L 16 9.671 C 16 10.037 15.703 10.333 15.338 10.333 L 11.995 10.333 C 11.63 10.333 11.333 10.037 11.333 9.671 L 11.333 6.329 C 11.333 5.963 11.63 5.667 11.995 5.667 L 11.995 5.667 L 11.995 5.667 L 11.995 5.667 L 11.995 5.667 Z M 6.329 11.333 L 9.671 11.333 C 10.037 11.333 10.333 11.63 10.333 11.995 L 10.333 15.338 C 10.333 15.703 10.037 16 9.671 16 L 6.329 16 C 5.963 16 5.667 15.703 5.667 15.338 L 5.667 11.995 C 5.667 11.63 5.963 11.333 6.329 11.333 L 6.329 11.333 L 6.329 11.333 L 6.329 11.333 Z M 0.662 11.333 L 4.005 11.333 C 4.37 11.333 4.667 11.63 4.667 11.995 L 4.667 15.338 C 4.667 15.703 4.37 16 4.005 16 L 0.662 16 C 0.297 16 0 15.703 0 15.338 L 0 11.995 C 0 11.63 0.297 11.333 0.662 11.333 L 0.662 11.333 L 0.662 11.333 Z M 11.995 11.333 L 15.338 11.333 C 15.703 11.333 16 11.63 16 11.995 L 16 15.338 C 16 15.703 15.703 16 15.338 16 L 11.995 16 C 11.63 16 11.333 15.703 11.333 15.338 L 11.333 11.995 C 11.333 11.63 11.63 11.333 11.995 11.333 L 11.995 11.333 Z M 0.662 0 L 4.005 0 C 4.37 0 4.667 0.297 4.667 0.662 L 4.667 4.005 C 4.667 4.37 4.37 4.667 4.005 4.667 L 0.662 4.667 C 0.297 4.667 0 4.37 0 4.005 L 0 0.662 C 0 0.297 0.297 0 0.662 0 Z"/>
 </g>
</svg>
