<svg xmlns="http://www.w3.org/2000/svg" style="isolation:isolate" width="16" height="16" viewBox="0 0 16 16">
 <defs>
  <clipPath id="_clipPath_do78v96y0tbWV3frvQut4hIJhO5mPHn2">
   <rect width="16" height="16"/>
  </clipPath>
 </defs>
 <g clip-path="url(#_clipPath_do78v96y0tbWV3frvQut4hIJhO5mPHn2)">
  <rect style="fill:#e6e6fa" fill-opacity="0" width="16" height="16"/>
  <path fill="#e6e6fa" d="M 1.965 0 L 1.965 9.263 L 0 9.263 L 0 10.947 L 5.614 10.947 L 5.614 14.316 L 0 14.316 L 0 15.2 C 0 15.643 0.357 16 0.8 16 L 12.912 16 L 14.596 16 L 14.596 6.737 L 16 6.737 L 16 5.053 L 12.912 5.053 L 12.912 6.737 L 12.912 14.316 L 7.298 14.316 L 7.298 10.947 L 7.298 9.263 L 3.649 9.263 L 3.649 0 L 1.965 0 Z M 5.614 0 L 5.614 7.298 L 7.298 7.298 L 9.263 7.298 L 9.263 12.4 L 10.947 12.4 L 10.947 3.088 L 16 3.088 L 16 1.404 L 9.263 1.404 L 9.263 3.088 L 9.263 5.614 L 7.298 5.614 L 7.298 0 L 5.614 0 Z"/>
 </g>
</svg>
