<svg xmlns="http://www.w3.org/2000/svg" style="isolation:isolate" width="16" height="16" viewBox="0 0 16 16">
 <path fill="#e6e6fa" d="M 0 0 L 0 1.333 L 8 1.333 L 8 4 L 6.667 4 L 6.667 10.667 L 0 10.667 L 0 12 L 6.667 12 L 6.667 16 L 16 16 L 16 14.667 L 8 14.667 L 8 5.333 L 16 5.333 L 16 4 L 9.333 4 L 9.333 0 L 0 0 Z M 3.479 3.187 L 2.52 4.147 L 3.709 5.333 L 0 5.333 L 0 6.667 L 3.709 6.667 L 2.52 7.854 L 3.48 8.813 L 5.813 6.48 L 6.271 6.001 L 5.813 5.521 L 3.479 3.187 Z M 12.52 7.333 L 9.729 10.125 L 10.187 10.604 L 12.52 12.937 L 13.48 12 L 12.167 10.667 L 16 10.667 L 16 9.333 L 12.417 9.333 L 13.479 8.271 L 12.52 7.333 Z"/>
</svg>
