<svg xmlns="http://www.w3.org/2000/svg" style="isolation:isolate" width="16" height="16" viewBox="0 0 16 16">
 <g>
  <g opacity=".6">
   <path fill="#e6e6fa" fill-rule="evenodd" d="M 12.52 2.822 C 12.52 4.07 11.49 5.081 10.22 5.081 C 9.892 5.081 9.58 5.013 9.298 4.892 C 8.487 4.543 8.922 3.921 8.922 2.996 C 8.922 2.562 8.044 1.984 8.26 1.64 C 8.665 0.994 9.391 0.563 10.22 0.563 C 11.49 0.563 12.52 1.575 12.52 2.822 Z M 12.517 0.846 C 12.517 0.378 12.897 -0.001 13.364 -0.001 C 13.832 -0.001 14.211 0.378 14.211 0.846 C 14.211 1.313 13.832 1.693 13.364 1.693 C 12.897 1.693 12.517 1.313 12.517 0.846 Z"/>
  </g>
  <path fill="#e6e6fa" fill-rule="evenodd" d="M 16 12.028 C 15.81 15.464 14.761 16 10.488 16 L 5.548 16 C 0.694 16 0 15.308 0 10.458 L 0 9.252 C 6.291 9.504 11.625 10.43 16 12.028 Z M 3.765 1.975 L 5.911 1.975 C 7.435 1.975 8.282 2.745 8.282 4.234 C 8.282 5.722 7.435 6.492 5.911 6.492 L 3.765 6.492 L 3.765 1.975 L 3.765 1.975 Z M 2.174 -0.001 C 1.96 -0.001 1.789 0.17 1.789 0.384 L 1.789 8.084 C 1.789 8.297 1.96 8.469 2.174 8.469 L 2.834 8.469 L 2.944 8.469 L 6.133 8.469 C 6.142 8.469 6.149 8.463 6.158 8.462 C 8.441 8.39 10.256 6.519 10.259 4.234 C 10.257 1.945 8.437 0.071 6.149 0.003 C 6.144 0.003 6.139 -0.001 6.133 -0.001 L 2.944 -0.001 L 2.834 -0.001 L 2.174 -0.001 L 2.174 -0.001 Z"/>
 </g>
</svg>
