<svg xmlns="http://www.w3.org/2000/svg" style="isolation:isolate" width="16" height="16" viewBox="0 0 16 16">
 <path fill="#e6e6fa" fill-rule="evenodd" d="M 11.667 9.394 C 11.667 10.281 10.1 11 8.167 11 C 6.234 11 4.667 10.281 4.667 9.394 C 4.667 8.507 6.234 9.394 8.167 9.394 C 10.1 9.394 11.667 8.507 11.667 9.394 L 11.667 9.394 L 11.667 9.394 Z M 2.333 6.5 C 2.333 6.224 2.557 6 2.833 6 C 3.109 6 3.333 6.224 3.333 6.5 C 3.333 6.776 3.109 7 2.833 7 C 2.557 7 2.333 6.776 2.333 6.5 L 2.333 6.5 L 2.333 6.5 Z M 0 7 C 0 5.896 0.896 5 2 5 C 3.104 5 4 5.896 4 7 C 4 8.104 3.104 9 2 9 C 0.896 9 0 8.104 0 7 L 0 7 L 0 7 Z M 14.333 6.5 C 14.333 6.224 14.557 6 14.833 6 C 15.109 6 15.333 6.224 15.333 6.5 C 15.333 6.776 15.109 7 14.833 7 C 14.557 7 14.333 6.776 14.333 6.5 L 14.333 6.5 Z M 12 7 C 12 5.896 12.896 5 14 5 C 15.104 5 16 5.896 16 7 C 16 8.104 15.104 9 14 9 C 12.896 9 12 8.104 12 7 L 12 7 Z"/>
</svg>
