<svg xmlns="http://www.w3.org/2000/svg" style="isolation:isolate" width="16" height="16" viewBox="0 0 16 16">
 <g opacity=".6">
  <ellipse fill="#e6e6fa" cx="8" cy="8.875" rx="5.887" ry="3.774" vector-effect="non-scaling-stroke"/>
 </g>
 <path fill="#e6e6fa" fill-rule="evenodd" d="M 4.83 7.879 L 5.736 7.879 L 5.736 8.785 L 4.83 8.785 L 4.83 7.879 L 4.83 7.879 L 4.83 7.879 Z M 9.962 7.879 L 10.868 7.879 L 10.868 8.785 L 9.962 8.785 L 9.962 7.879 L 9.962 7.879 L 9.962 7.879 Z M 5.132 9.992 L 10.566 9.992 L 10.566 10.898 L 5.132 10.898 L 5.132 9.992 L 5.132 9.992 Z M 0.843 3.351 C 0.039 3.352 -0.307 4.376 0.332 4.867 L 2.172 8.296 C 2.172 8.296 3.19 6.682 3.965 6.442 C 5.258 6.043 6.629 7.275 8 7.275 C 9.371 7.275 10.742 6.043 12.035 6.442 C 12.81 6.682 13.828 8.296 13.828 8.296 L 15.668 4.867 C 16.307 4.376 15.961 3.352 15.157 3.351 L 8 3.351 L 0.843 3.351 Z"/>
</svg>
