<svg xmlns="http://www.w3.org/2000/svg" style="isolation:isolate" width="16" height="16" viewBox="0 0 16 16">
 <path fill="#e6e6fa" d="M 13.223 0 C 13.061 0.004 12.905 0.064 12.784 0.17 L 2.304 8.459 C 1.869 8.837 2.086 9.538 2.663 9.619 L 6.726 10.189 L 4.822 13.47 C 4.396 14.204 4.648 15.136 5.386 15.559 L 5.794 15.794 C 6.531 16.218 7.468 15.967 7.893 15.233 L 9.871 11.826 L 12.769 14.163 C 13.215 14.524 13.891 14.215 13.891 13.65 L 13.926 0.67 C 13.927 0.293 13.609 -0.009 13.223 0 Z"/>
</svg>
