<svg xmlns="http://www.w3.org/2000/svg" style="isolation:isolate" width="16" height="16" viewBox="0 0 16 16">
 <path fill="#e6e6fa" fill-rule="evenodd" d="M 8.09 4.393 L 6.419 8.034 L 8.142 8.034 L 7.456 9.394 L 6.744 9.035 L 6.892 11.607 L 7.094 11.474 L 9.046 10.195 L 8.333 9.836 L 9.736 7.052 L 7.949 7.052 L 8.982 4.802 L 8.09 4.393 L 8.09 4.393 Z M 11.981 5.743 C 12.092 5.745 12.186 5.837 12.186 5.949 L 12.186 6.725 L 15.796 6.725 C 15.909 6.725 16 6.817 16 6.931 L 16 8.482 C 16 8.596 15.909 8.688 15.796 8.688 L 12.186 8.688 L 12.186 9.463 C 12.186 9.647 11.962 9.739 11.833 9.609 L 10.282 7.852 C 10.203 7.771 10.203 7.641 10.282 7.56 L 11.833 5.803 C 11.872 5.764 11.925 5.742 11.981 5.743 L 11.981 5.743 Z M 4.019 5.743 C 3.908 5.745 3.814 5.837 3.814 5.949 L 3.814 6.725 L 0.204 6.725 C 0.091 6.725 0 6.817 0 6.931 L 0 8.482 C 0 8.596 0.091 8.688 0.204 8.688 L 3.814 8.688 L 3.814 9.463 C 3.814 9.647 4.038 9.739 4.167 9.609 L 5.718 7.852 C 5.797 7.771 5.797 7.641 5.718 7.56 L 4.167 5.803 C 4.128 5.764 4.075 5.742 4.019 5.743 Z"/>
</svg>
