<svg xmlns="http://www.w3.org/2000/svg" width="16" height="16" version="1.1">
 <path style="fill:#e6e6fa" d="m 2,12 0,3 C 2,15 6.6009267,15.872996 8.6684248,10 8.8004634,10 12,10 12,10 L 12,7 9.6006993,7 C 9.6006993,7 10.556957,4 13,4 l -1.4e-5,-2.9583414 c 0,0 -3.8018057,-0.88884044 -6.2444463,5.5447954 C 4.6429853,12.887464 2.0000001,12 2,12 z"/>
</svg>
