<svg xmlns="http://www.w3.org/2000/svg" style="isolation:isolate" width="16" height="16" viewBox="0 0 16 16">
 <path fill="#e6e6fa" fill-rule="evenodd" d="M 8 0 C 4.365 0 1.326 2.406 0.346 5.714 L 15.654 5.714 C 14.674 2.406 11.635 0 8 0 L 8 0 L 8 0 L 8 0 Z M 0.346 10.286 C 1.327 13.594 4.365 16 8 16 C 11.635 16 14.674 13.594 15.654 10.286 L 0.346 10.286 L 0.346 10.286 L 0.346 10.286 L 0.346 10.286 L 0.346 10.286 Z M 6.286 8 C 6.286 7.054 7.054 6.286 8 6.286 C 8.946 6.286 9.714 7.054 9.714 8 C 9.714 8.946 8.946 9.714 8 9.714 C 7.054 9.714 6.286 8.946 6.286 8 L 6.286 8 L 6.286 8 Z M 10.286 8 C 10.286 7.054 11.054 6.286 12 6.286 C 12.946 6.286 13.714 7.054 13.714 8 C 13.714 8.946 12.946 9.714 12 9.714 C 11.054 9.714 10.286 8.946 10.286 8 L 10.286 8 Z M 2.285 8 C 2.285 7.054 3.053 6.286 3.999 6.286 C 4.946 6.286 5.714 7.054 5.714 8 C 5.714 8.946 4.946 9.714 3.999 9.714 C 3.053 9.714 2.285 8.946 2.285 8 Z"/>
</svg>
