<svg xmlns="http://www.w3.org/2000/svg" style="isolation:isolate" width="16" height="16" viewBox="0 0 16 16">
 <path fill="#e6e6fa" fill-rule="evenodd" d="M 5.934 2.958 C 3.752 3.808 2.315 5.908 2.312 8.25 C 2.312 11.391 4.859 13.938 8 13.938 C 11.141 13.938 13.688 11.391 13.688 8.25 C 13.685 5.976 12.328 3.922 10.238 3.027 L 9.625 4.529 C 11.105 5.175 12.062 6.635 12.062 8.25 C 12.062 10.494 10.244 12.312 8 12.312 C 5.756 12.312 3.937 10.494 3.937 8.25 C 3.939 6.616 4.92 5.141 6.427 4.508 L 5.934 2.958 L 5.934 2.958 L 5.934 2.958 L 5.934 2.958 Z M 0 8 C 0 3.585 3.585 0 8 0 C 12.415 0 16 3.585 16 8 C 16 12.415 12.415 16 8 16 C 3.585 16 0 12.415 0 8 L 0 8 L 0 8 Z M 7.187 0.938 L 7.187 5.813 L 8.813 5.813 L 8.813 0.938 L 7.187 0.938 Z"/>
</svg>
