<svg xmlns="http://www.w3.org/2000/svg" width="16" height="16" version="1.1">
 <g transform="translate(-632,-99.999939)">
  <path d="m 642.79308,104.01934 c -0.0576,-0.004 -0.12526,0.001 -0.20507,0.008 l -3.60449,0.5625 c -0.40667,0.0414 -0.45089,0.23123 -0.44727,0.46778 v 4.75976 c -0.20669,-0.13578 -0.42789,-0.23242 -0.72265,-0.23242 -0.37956,0 -0.60615,0.14549 -0.74317,0.33692 -0.13701,0.19142 -0.18262,0.43261 -0.18262,0.61913 0,0.22492 0.0776,0.46454 0.24415,0.64746 0.16659,0.18293 0.42275,0.31152 0.79101,0.31153 0.41585,0 0.70769,-0.11599 0.87305,-0.34278 0.13019,-0.17855 0.20282,-0.41767 0.22851,-0.71191 0.004,-0.0357 0.006,-0.0726 0.008,-0.11035 0.002,-0.03 0.002,-0.0509 0.002,-0.0859 h 0.002 v -3.85156 c 0.0111,-0.30969 0.29199,-0.35547 0.29199,-0.35547 l 2.92676,-0.45703 c 0.28096,-0.0859 0.28125,0.26172 0.28125,0.26172 v 3.4707 c -0.20669,-0.13578 -0.42789,-0.23242 -0.72265,-0.23243 -0.37956,0 -0.60615,0.14549 -0.74317,0.33692 -0.13701,0.19142 -0.18262,0.43262 -0.18262,0.61914 0,0.22491 0.0776,0.46453 0.24415,0.64746 0.16659,0.18293 0.42275,0.31152 0.79101,0.31152 0.41585,0 0.70769,-0.11598 0.87305,-0.34277 0.13019,-0.17855 0.20282,-0.41767 0.22851,-0.71191 0.004,-0.0357 0.006,-0.0726 0.008,-0.11036 0.002,-0.03 0.002,-0.0509 0.002,-0.0859 h 0.002 v -5.28418 c 0.006,-0.34282 -0.0702,-0.4331 -0.24317,-0.44531 z" style="solid-color:#e6e6fa;fill:#e6e6fa;fill-rule:evenodd"/>
  <path d="m 636.9943,101.00018 c -1.25819,0.0145 -2.17883,-0.0301 -2.93164,0.38525 -0.37641,0.20768 -0.67421,0.55894 -0.83887,0.99756 -0.16465,0.43862 -0.22412,0.95911 -0.22412,1.6167 v 8 c 0,0.65759 0.0595,1.17856 0.22412,1.61719 0.16466,0.43862 0.46246,0.78939 0.83887,0.99707 0.75281,0.41535 1.67345,0.3712 2.93164,0.38574 h 0.003 6.00537 0.003 c 1.25819,-0.0145 2.17883,0.0296 2.93164,-0.38574 0.37641,-0.20768 0.67422,-0.55845 0.83887,-0.99707 0.16465,-0.43863 0.22412,-0.9596 0.22412,-1.61719 v -8 c 0,-0.65759 -0.0595,-1.17808 -0.22412,-1.6167 -0.16465,-0.43862 -0.46246,-0.78988 -0.83887,-0.99756 -0.75281,-0.41535 -1.67345,-0.37071 -2.93164,-0.38525 h -0.003 -6.00537 z m 0.0112,0.99951 h 5.99414 c 1.25957,0.0147 2.08803,0.0592 2.4541,0.26123 0.18338,0.10118 0.28817,0.2132 0.38575,0.47315 0.0976,0.25994 0.16015,0.67321 0.16015,1.26562 v 8 c 0,0.59241 -0.0626,1.00568 -0.16015,1.26563 -0.0976,0.25994 -0.20237,0.37196 -0.38575,0.47314 -0.36607,0.20198 -1.19453,0.24654 -2.4541,0.26123 h -0.006 -5.98828 -0.005 c -1.2599,-0.0147 -2.08797,-0.0592 -2.4541,-0.26123 -0.18338,-0.10118 -0.28817,-0.2132 -0.38574,-0.47314 -0.0976,-0.25995 -0.16016,-0.67322 -0.16016,-1.26563 v -8 c 0,-0.59241 0.0626,-1.00568 0.16016,-1.26562 0.0976,-0.25995 0.20236,-0.37197 0.38574,-0.47315 0.36676,-0.20236 1.19593,-0.24661 2.45947,-0.26123 z" style="solid-color:#e6e6fa;fill:#e6e6fa"/>
 </g>
</svg>
