<svg xmlns="http://www.w3.org/2000/svg" width="16" height="16">
 <g color="#000" transform="translate(-552 -32)">
  <path fill="#e6e6fa" d="M563.5 35a1.5 1.5 0 1 0 0 3 1.5 1.5 0 0 0 0-3z" overflow="visible"/>
  <path fill="#e6e6fa" d="M553 33v14h14V33zm1 1h12v10h-12z" overflow="visible"/>
  <path fill="#e6e6fa" d="M558 37.5l-3 5.5h8l-2.5-4.5-1 1.5z" overflow="visible"/>
 </g>
</svg>
