<svg xmlns="http://www.w3.org/2000/svg" style="isolation:isolate" width="16" height="16" viewBox="0 0 16 16">
 <path fill="#e6e6fa" fill-rule="evenodd" d="M 2.666 9.067 C 2.666 8.772 2.905 8.533 3.2 8.533 C 3.494 8.533 3.733 8.772 3.733 9.067 C 3.733 9.361 3.494 9.6 3.2 9.6 C 2.905 9.6 2.666 9.361 2.666 9.067 L 2.666 9.067 Z M 12.266 9.067 C 12.266 8.772 12.505 8.533 12.8 8.533 C 13.094 8.533 13.333 8.772 13.333 9.067 C 13.333 9.361 13.094 9.6 12.8 9.6 C 12.505 9.6 12.266 9.361 12.266 9.067 L 12.266 9.067 Z M 0.533 9.333 C 0.533 7.714 1.848 6.4 3.467 6.4 C 5.085 6.4 6.4 7.714 6.4 9.333 C 6.4 10.952 5.085 12.267 3.467 12.267 C 1.848 12.267 0.533 10.952 0.533 9.333 L 0.533 9.333 L 0.533 9.333 L 0.533 9.333 L 0.533 9.333 L 0.533 9.333 Z M 9.6 9.333 C 9.6 7.714 10.914 6.4 12.533 6.4 C 14.152 6.4 15.466 7.714 15.466 9.333 C 15.466 10.952 14.152 12.267 12.533 12.267 C 10.914 12.267 9.6 10.952 9.6 9.333 L 9.6 9.333 L 9.6 9.333 L 9.6 9.333 Z M 9.322 13.666 C 9.814 13.446 10.023 13.144 9.735 13.071 C 9.638 13.047 9.385 13.123 9.172 13.241 C 8.696 13.505 8.037 13.524 7.456 13.29 C 6.727 12.997 6.376 13.158 6.959 13.519 C 7.603 13.918 8.619 13.982 9.322 13.666 L 9.322 13.666 L 9.322 13.666 Z M 10.303 1.07 C 7.87 1.109 2.613 1.482 1.652 3.02 C 1.484 3.463 1.184 5.021 1.037 6.212 C 1.003 6.487 0.971 6.837 0.938 7.16 C 0.337 7.774 0 8.599 0 9.46 C 0 10.132 0.207 10.788 0.591 11.34 C 0.585 11.433 0.556 11.831 0.556 11.831 C 0.512 13.355 0.547 13.409 1.995 14.012 C 3.152 14.494 4.404 14.745 6.307 14.875 C 7.934 14.987 9.581 14.935 10.836 14.734 C 13.042 14.381 14.957 13.658 15.169 13.099 C 15.228 12.946 15.316 12.319 15.365 11.706 C 15.375 11.582 15.381 11.477 15.389 11.363 C 15.785 10.808 15.998 10.143 16 9.46 C 15.999 8.647 15.696 7.863 15.152 7.26 C 15.056 6.639 14.94 5.932 14.786 5.01 C 14.513 3.579 14.188 2.209 14.064 1.964 C 13.7 1.251 13.254 1.114 11.152 1.072 C 10.94 1.066 10.651 1.065 10.304 1.071 L 10.303 1.07 L 10.303 1.07 L 10.303 1.07 L 10.303 1.07 L 10.303 1.07 L 10.303 1.07 Z"/>
</svg>
