<svg xmlns="http://www.w3.org/2000/svg" style="enable-background:new" width="16" height="16" version="1.1">
 <g transform="matrix(0.23112481,0,0,0.23112481,-3.3956087,-3.1055472)" style="fill:#e6e6fa">
  <path class="st0" d="m 48,80.5 c -15.4,0 -27.9,-4.2 -27.9,-9.3 v -9.3 c 0,-0.8 0.4,-1.6 1,-2.3 3.1,4 13.9,7 26.9,7 13,0 23.8,-3 26.9,-7 0.6,0.7 1,1.5 1,2.3 v 9.3 c 0,5.1 -12.5,9.3 -27.9,9.3 z m 0,-18.6 c -15.4,0 -27.9,-4.2 -27.9,-9.3 v -9.3 c 0,-0.5 0.2,-1 0.4,-1.4 L 21.1,41 c 3.1,4 13.9,7 26.9,7 13,0 23.8,-3 26.9,-7 l 0.6,0.9 c 0.2,0.5 0.4,1 0.4,1.4 v 9.3 c 0,5.2 -12.5,9.3 -27.9,9.3 z m 0,-18.5 c -15.4,0 -27.9,-4.2 -27.9,-9.3 v -4.6 -4.6 c 0,-5.1 12.5,-9.3 27.9,-9.3 15.4,0 27.9,4.2 27.9,9.3 v 4.6 4.6 c 0,5.1 -12.5,9.3 -27.9,9.3 z m 0,-23.3 c -10.3,0 -18.6,2.1 -18.6,4.6 0,2.5 8.3,4.6 18.6,4.6 10.3,0 18.6,-2.1 18.6,-4.6 0,-2.5 -8.3,-4.6 -18.6,-4.6 z" style="fill:#e6e6fa"/>
 </g>
</svg>
