<svg xmlns="http://www.w3.org/2000/svg" width="16" height="16" version="1.1">
 <g transform="translate(-271.99997,-319.99994)">
  <path d="m 284.66664,322.69993 -9.33334,2.80003 v 4.2 l 9.33334,2.79998 v -6.99998 z m -11.66667,2.80003 v 4.2 h 1.86667 v -4.2 z m 12.13333,0.46665 v 3.26669 h 1.86667 v -3.26669 z m -10.73333,4.2 v 2.33333 h 1.4 v -2.33333 z" style="fill:#e6e6fa"/>
 </g>
</svg>
