<svg xmlns="http://www.w3.org/2000/svg" style="isolation:isolate" width="16" height="16" viewBox="0 0 16 16">
 <path fill="#e6e6fa" d="M 11.989 6.225 C 11.009 5.118 10.125 4.402 8.817 6.267 C 8.038 7.377 3.366 13.732 2.509 14.745 C 2.26 15.039 2.114 15.243 1.923 15.362 C 1.923 14.959 5.15 9.849 6.053 8.368 C 7.138 6.589 7.103 6.693 6.973 6.694 C 6.79 6.694 6.416 6.966 5.848 7.572 C 4.81 8.678 1.736 12.798 1.524 12.734 C 1.598 12.435 4.002 8.748 5.094 7.223 C 6.035 5.908 5.675 5.808 5.136 5.936 C 2.838 6.484 0.089 7.809 0 7.762 C 0.033 7.693 9.257 1.207 10.49 1.083 C 10.633 1.068 10.936 0.812 11.475 0.599 C 12.061 0.368 12.455 0.18 12.552 0.239 C 12.125 0.838 11.9 0.959 11.896 1.152 C 11.89 1.468 11.777 1.98 11.654 2.144 C 14.038 3.732 14.968 9.146 15.649 13.501 C 15.811 14.534 15.962 15.311 16 15.772 C 15.799 15.254 13.893 8.374 11.989 6.225 L 11.989 6.225 Z"/>
</svg>
