<svg xmlns="http://www.w3.org/2000/svg" width="16" height="16">
 <g color="#000" transform="translate(-332 -192)">
  <path fill="#e6e6fa" d="M335 195v1h10v-1zm0 4v1h10v-1zm0 4v1h10v-1z" overflow="visible"/>
 </g>
</svg>
