<svg xmlns="http://www.w3.org/2000/svg" style="isolation:isolate" width="16" height="16" viewBox="0 0 16 16">
 <path fill="#e6e6fa" d="M 3.992 4 C 3.926 4 3.861 4.008 3.797 4.023 C 1.687 4.13 0 5.863 0 8 C 0 10.207 1.793 12 4 12 L 4.008 12 C 5.395 12 6.512 11.297 7.328 10.516 C 6.944 10.062 6.604 9.573 6.312 9.055 C 6.277 9.001 6.246 8.945 6.219 8.887 C 6.204 8.866 6.191 8.843 6.179 8.82 C 5.614 9.434 4.86 10 4.009 10 L 4 10 C 2.895 10 2 9.105 2 8 C 2 6.895 2.895 6 4 6 L 4.008 6 C 5.766 6 7.109 8.438 7.109 8.438 C 7.16 8.539 7.227 8.633 7.305 8.711 C 7.418 8.921 7.675 9.445 8.344 10.171 C 9.133 11.036 10.359 12 12 12 C 12.079 12.001 12.157 11.992 12.234 11.973 C 14.324 11.848 15.996 10.125 16 8.008 C 16.007 6.943 15.585 5.921 14.828 5.172 C 14.083 4.419 13.067 3.996 12.008 4 L 12 4 C 10.602 4 9.496 4.68 8.687 5.445 C 9.081 5.913 9.427 6.42 9.72 6.957 C 9.743 6.992 9.763 7.027 9.782 7.063 L 9.822 7.141 C 10.358 6.559 11.1 6 12 6 C 13.104 6 14 6.895 14 8 C 14 9.105 13.104 10 12 10 C 11.172 10 10.406 9.46 9.816 8.82 C 9.226 8.18 8.902 7.54 8.902 7.54 C 8.856 7.451 8.799 7.369 8.73 7.297 L 8.727 7.297 C 8.512 6.84 7.09 4 4.007 4 L 3.992 4 Z"/>
</svg>
