<svg xmlns="http://www.w3.org/2000/svg" style="isolation:isolate" width="16" height="16" viewBox="0 0 16 16">
 <path fill="#e6e6fa" class="ColorScheme-Text" d="M 1.999998 6 L 2.000001 6 L 2.000001 13 C 2.000001 15 2.000004 15.999599 3.500001 15.9998 C 5.000001 16.000006 5.000001 15.00001 5.000001 13 C 4.999998 15 4.999998 16 6.500001 15.9998 C 8.000001 15.999594 8.000001 15.00001 8.000001 13 C 7.999998 15 8.000003 15.999599 9.500001 15.9998 C 11.000001 16.000006 11.000001 15.00001 11.000001 13 C 10.999998 15 11.000003 15.999599 12.500002 15.9998 C 14.000002 16.000006 14.000002 15.00001 14.000002 13 L 14.000002 6 L 13.998001 6 C 14.000002 3.0002 13.000002 0.0002 8.000001 0 C 3.000001 -0.0002 2.000001 3.0002 2.000001 6 L 1.999998 6 Z M 5.499998 4.9998 C 6.330998 4.9998 6.999998 5.6688 6.999998 6.4998 C 6.999998 7.3308 6.330998 7.9998 5.499998 7.9998 C 4.668998 7.9998 3.999998 7.3308 3.999998 6.4998 C 3.999998 5.6688 4.668998 4.9998 5.499998 4.9998 Z M 11.499998 4.9998 C 12.330997 4.9998 12.999998 5.6688 12.999998 6.4998 C 12.999998 7.3308 12.330997 7.9998 11.499998 7.9998 C 10.668998 7.9998 9.999998 7.3308 9.999998 6.4998 C 9.999998 5.6688 10.668998 4.9998 11.499998 4.9998 Z"/>
</svg>
