<svg xmlns="http://www.w3.org/2000/svg" style="isolation:isolate" width="16" height="16" viewBox="0 0 16 16">
 <g opacity=".2">
  <path fill="#e6e6fa" d="M 3.93 3.926 C 0.827 7.034 -0.562 11.463 0.209 15.788 C 4.532 16.565 8.961 15.179 12.071 12.074 C 15.173 8.966 16.562 4.537 15.791 0.212 C 11.468 -0.565 7.039 0.821 3.929 3.926 L 3.93 3.926 Z"/>
 </g>
 <path fill="#e6e6fa" fill-rule="evenodd" d="M 5.714 8 C 5.714 6.738 6.739 5.714 8 5.714 C 9.262 5.714 10.286 6.738 10.286 8 C 10.286 9.261 9.262 10.286 8 10.286 C 6.739 10.286 5.714 9.261 5.714 8 L 5.714 8 Z M 11.428 3.429 C 11.428 2.798 11.94 2.286 12.571 2.286 C 13.202 2.286 13.714 2.798 13.714 3.429 C 13.714 4.06 13.202 4.572 12.571 4.572 C 11.94 4.572 11.428 4.06 11.428 3.429 L 11.428 3.429 Z M 2.286 12.571 C 2.286 11.941 2.798 11.429 3.429 11.429 C 4.059 11.429 4.572 11.941 4.572 12.571 C 4.572 13.202 4.059 13.714 3.429 13.714 C 2.798 13.714 2.286 13.202 2.286 12.571 Z"/>
</svg>
