<svg xmlns="http://www.w3.org/2000/svg" style="isolation:isolate" width="16" height="16" viewBox="0 0 16 16">
 <path fill="#e6e6fa" fill-rule="evenodd" d="M 0.571 0 C 12.549 0.398 17.168 6.849 14.849 12.607 C 14.192 14.209 13.494 15.086 12.026 16 C 12.086 15.769 12.148 15.537 12.194 15.301 C 13.063 10.809 12.049 5.272 4 2.286 C 10.404 5.707 12.633 12.571 9.37 15.853 C 4.286 16.57 0.571 12.674 0.571 8.186 L 0.571 0 Z"/>
</svg>
