<svg xmlns="http://www.w3.org/2000/svg" width="16" height="16" version="1.1">
 <path style="fill:#e6e6fa" d="m 9.8748959,1.37286 v 1.778e-4 a 4.9999488,4.9999488 0 0 0 -4.6239654,3.1029906 2.4999742,2.4999742 0 0 0 -1.625921,-0.6031233 2.4999742,2.4999742 0 0 0 -2.499885,2.5000891 2.4999742,2.4999742 0 0 0 0.516284,1.518569 2.1874774,2.1874774 0 0 0 -1.14142596,1.918843 2.1874774,2.1874774 0 0 0 2.18748696,2.1875008 2.1874774,2.1874774 0 0 0 0.312589,-0.02223 v 0.649411 c 0,1.038747 0.836174,1.874912 1.874916,1.874912 H 11.12503 c 1.038738,0 1.874916,-0.836165 1.874916,-1.874912 v -0.02668 a 2.1874774,2.1874774 0 0 0 0.312589,0.02668 2.1874774,2.1874774 0 0 0 2.187483,-2.187503 2.1874774,2.1874774 0 0 0 -1.119376,-1.9078598 4.9999488,4.9999488 0 0 0 0.494233,-2.154507 4.9999488,4.9999488 0 0 0 -4.9999436,-5.000135 z M 4.5625545,6.9979502 a 1.2499871,1.2499871 0 0 1 1.249943,1.249956 1.2499871,1.2499871 0 0 1 -1.249943,1.249956 1.2499871,1.2499871 0 0 1 -1.249942,-1.249956 1.2499871,1.2499871 0 0 1 1.249942,-1.249956 z m 6.8748605,0 a 1.2499871,1.2499871 0 0 1 1.249942,1.249956 1.2499871,1.2499871 0 0 1 -1.249942,1.249956 1.2499871,1.2499871 0 0 1 -1.249943,-1.249956 1.2499871,1.2499871 0 0 1 1.249943,-1.249956 z m -5.3123465,2.500045 h 3.7498274 c 0,1.0355458 -0.8393882,1.8749118 -1.8749116,1.8749118 -1.0355233,0 -1.8749158,-0.839366 -1.8749158,-1.8749118 z"/>
</svg>
