<svg xmlns="http://www.w3.org/2000/svg" style="isolation:isolate" width="16" height="16" viewBox="0 0 16 16">
 <path fill="#e6e6fa" fill-rule="evenodd" d="M 4.716 0 C 4.319 0.006 4 0.33 4 0.727 L 4 2.857 L 2.182 2.857 C 1.674 2.857 1.322 3.336 1.501 3.812 L 2.439 6.393 L 0.18 8.975 C -0.15 9.352 -0.008 9.943 0.458 10.129 L 2 10.673 L 2 12.193 C 2 12.594 2.344 12.913 2.746 12.913 L 3.714 12.913 L 3.714 14.993 C 3.714 15.567 4.27 15.915 4.754 15.606 L 8.432 13.18 L 14.989 15.941 C 15.584 16.191 16.186 15.6 15.946 15.001 L 13.998 9.85 L 15.921 5.836 C 16.163 5.353 15.811 4.856 15.271 4.856 L 12.857 4.856 L 12.857 3.272 C 12.857 3.115 12.84 2.962 12.746 2.836 L 10.944 0.609 C 10.685 0.263 10.182 0.218 9.866 0.513 L 7.653 2.625 L 5.241 0.213 C 5.102 0.074 4.913 -0.003 4.716 0 Z M 11.25 8.612 L 8.792 8.612 L 8.792 11.07 L 7.154 11.07 L 7.154 8.612 L 4.696 8.612 L 4.696 6.973 L 7.154 6.973 L 7.154 4.516 L 8.792 4.516 L 8.792 6.973 L 11.25 6.973 L 11.25 8.612 Z"/>
</svg>
