<svg xmlns="http://www.w3.org/2000/svg" width="16" height="16" version="1.1">
 <path d="M 5.970916,1.1121173 0.5,15 H 2.572784 L 4.548373,9.9849305 h 5.700723 L 12.224682,15 h 2.072786 L 12.01748,9.2133825 H 13.9569 L 13.571126,11.142253 15.499999,8.0560585 13.571126,4.9698619 13.9569,6.8987355 H 11.105785 L 8.825798,1.1121173 Z M 7.398734,2.7478921 9.489602,8.0560585 H 5.307867 Z" style="fill:#e6e6fa;fill-rule:evenodd"/>
</svg>
