<svg xmlns="http://www.w3.org/2000/svg" width="16" height="16" version="1.1">
 <g transform="translate(-271.99997,-319.99994)">
  <path d="m 275.99414,321 c -1.2582,0.0145 -2.17889,-0.0306 -2.93164,0.38477 -0.37637,0.20766 -0.67323,0.55938 -0.83789,0.99804 C 272.05994,322.82148 272,323.34239 272,324 v 8 c 0,0.65761 0.0599,1.17853 0.22461,1.61719 0.16467,0.43866 0.46152,0.79039 0.83789,0.99804 0.75275,0.41532 1.67345,0.3702 2.93164,0.38477 h 0.004 8.0039 0.004 c 1.25819,-0.0145 2.17889,0.0306 2.93164,-0.38477 0.37637,-0.20766 0.67322,-0.55938 0.83789,-0.99804 C 287.94006,333.17852 288,332.65761 288,332 v -8 c 0,-0.65761 -0.0599,-1.17852 -0.22461,-1.61719 -0.16466,-0.43866 -0.46152,-0.79038 -0.83789,-0.99804 -0.75275,-0.41534 -1.67344,-0.37025 -2.93164,-0.38477 h -0.004 -8.0039 z m 0.006,1 h 8 c 1.25852,0.0147 2.08717,0.0598 2.45312,0.26172 0.18341,0.1012 0.28916,0.21274 0.38672,0.47266 C 286.93741,322.99429 287,323.40761 287,324 v 8 c 0,0.59239 -0.0626,1.00572 -0.16016,1.26562 -0.0976,0.25991 -0.20331,0.37147 -0.38672,0.47266 C 286.08717,333.94019 285.25852,333.98529 284,334 H 276.00586 276 c -1.25853,-0.0147 -2.08912,-0.0598 -2.45508,-0.26172 -0.18341,-0.10119 -0.2872,-0.21275 -0.38476,-0.47266 C 273.06259,333.00572 273,332.59239 273,332 v -8 c 0,-0.59239 0.0626,-1.00572 0.16016,-1.26562 0.0976,-0.25991 0.20135,-0.37147 0.38476,-0.47266 C 273.91088,322.05981 274.74147,322.01471 276,322 Z" style="solid-color:#e6e6fa;fill:#e6e6fa"/>
  <path d="m 274.57625,323.2796 v 1.36804 h 10.94431 v -1.36804 z m 0,2.73608 v 1.36804 h 10.94431 v -1.36804 z m 0,2.73607 v 1.36804 h 10.94431 v -1.36804 z m 0,2.73608 v 1.36804 h 4.10412 v -1.36804 z" overflow="visible" style="fill:#e6e6fa"/>
 </g>
</svg>
