<svg xmlns="http://www.w3.org/2000/svg" width="16" height="16">
 <g color="#000" transform="translate(-572 -180)">
  <path fill="#e6e6fa" d="M575.994 181c-1.258.015-2.179-.03-2.932.385a1.88 1.88 0 0 0-.837.998c-.165.438-.225.96-.225 1.617v3c0 .658.06 1.179.225 1.617.164.439.461.79.837.998.753.416 1.674.37 2.932.385h.964c-.097.75-.414.946-.958.982V192h1v-3h-1c-1.259-.015-2.09-.06-2.455-.262-.183-.1-.287-.212-.385-.472-.097-.26-.16-.674-.16-1.266v-3c0-.592.063-1.006.16-1.266.098-.26.202-.371.385-.472.366-.202 1.196-.247 2.455-.262h4c1.259.015 2.087.06 2.453.262.184.1.29.212.387.472.097.26.16.674.16 1.266h1c0-.658-.06-1.179-.225-1.617a1.88 1.88 0 0 0-.837-.998c-.753-.416-1.674-.37-2.932-.385H575.998z" font-family="sans-serif" font-weight="400" overflow="visible"/>
  <path fill="#e6e6fa" d="M580 185v2.027c-.386.027-.724.084-1.035.215a1.488 1.488 0 0 0-.756.7c-.158.32-.209.687-.209 1.12v1.875c0 .434.051.8.209 1.122.158.321.44.566.756.699.01.005.024.005.035.01V189.062c0-.347.049-.564.106-.68.056-.114.103-.16.246-.22.285-.12.98-.153 2.011-.162h3.274c1.03.009 1.726.042 2.011.162.144.06.19.106.247.22.056.116.105.333.105.68v3.706c.011-.005.024-.005.035-.01.315-.133.598-.378.756-.7.158-.32.209-.687.209-1.12v-1.875c0-.434-.051-.8-.209-1.122a1.488 1.488 0 0 0-.756-.699c-.311-.131-.649-.188-1.035-.215V185zm1 1h4v1.006c-.127 0-.222-.005-.36-.006H581.36c-.137 0-.232.005-.36.006zm4.5 3a.5.5 0 0 0-.5.5.5.5 0 0 0 .5.5.5.5 0 0 0 .5-.5.5.5 0 0 0-.5-.5zm-5.5 2v4h6v-4h-1v3h-4v-3z" font-family="sans-serif" font-weight="400" overflow="visible"/>
 </g>
</svg>
