<svg xmlns="http://www.w3.org/2000/svg" style="isolation:isolate" width="16" height="16" viewBox="0 0 16 16">
 <path fill="#e6e6fa" fill-rule="evenodd" d="M 9.454 4.413 L 9.154 5.357 L 10.286 5.913 L 8.826 6.112 L 8.499 7.143 L 7.971 5.992 L 6.286 5.794 L 7.544 5.199 L 7.166 4.286 L 8.344 4.89 L 9.454 4.413 L 9.454 4.413 L 9.454 4.413 L 9.454 4.413 L 9.454 4.413 L 9.454 4.413 L 9.454 4.413 Z M 8.107 11.714 L 5.714 10.221 L 9.143 9.429 L 8.107 11.714 L 8.107 11.714 L 8.107 11.714 L 8.107 11.714 L 8.107 11.714 Z M 2.286 7.714 C 2.286 7.084 3.182 6.571 4.286 6.571 C 5.39 6.571 6.286 7.084 6.286 7.714 C 6.286 8.345 5.39 8.857 4.286 8.857 C 3.182 8.857 2.286 8.345 2.286 7.714 L 2.286 7.714 L 2.286 7.714 Z M 8 3.143 C 7.47 3.143 6.939 3.262 6.546 3.501 L 0.589 7.117 C -0.197 7.594 -0.196 8.406 0.589 8.883 L 6.546 12.5 C 7.332 12.976 8.669 12.976 9.454 12.5 L 15.411 8.883 C 16.197 8.406 16.196 7.594 15.411 7.117 L 9.454 3.501 C 9.062 3.262 8.531 3.143 8 3.143 L 8 3.143 L 8 3.143 L 8 3.143 L 8 3.143 L 8 3.143 L 8 3.143 Z M 11.429 9.429 L 9.143 8.074 L 11.429 6.571 L 13.714 7.928 L 11.429 9.429 Z"/>
</svg>
