<svg xmlns="http://www.w3.org/2000/svg" style="isolation:isolate" width="16" height="16" viewBox="0 0 16 16">
 <path fill="#e6e6fa" d="M 1.914 15.175 C -0.016 11.009 -0.546 6.341 0.597 3.574 C 0.807 3.066 0.722 3.106 2.844 2.518 C 2.963 2.484 3.424 2.123 3.869 1.715 C 6.385 -0.595 9.754 -0.569 12.395 1.78 C 13.139 2.442 13.356 2.561 14.212 2.78 C 15.096 3.005 15.205 3.068 15.401 3.463 C 15.52 3.702 15.715 4.368 15.834 4.944 C 16.118 6.316 16.026 9.23 15.649 10.808 C 15.121 13.022 13.884 16.072 13.554 15.975 C 13.464 15.948 13.189 15.547 12.942 15.084 C 12.514 14.169 11.758 13.35 10.989 13.069 C 9.679 12.592 6.513 12.766 5.187 13.052 C 3.667 13.379 3.631 14.032 3.144 15.067 C 2.865 15.662 2.631 16 2.501 16 C 2.372 16 2.154 15.694 1.914 15.175 L 1.914 15.175 Z"/>
</svg>
