<svg xmlns="http://www.w3.org/2000/svg" width="16" height="16" version="1.1" style="enable-background:new">
 <g transform="translate(-618.99999,-286)">
  <path d="m 625.52204,286.6043 -2.78833,1.13854 0.65591,1.56103 c -0.449,0.336 -0.84107,0.72944 -1.17147,1.16432 l -1.57103,-0.65163 -1.14713,2.76684 1.54668,0.65163 c -0.0741,0.5342 -0.0555,1.08257 0.0216,1.62973 l -1.56817,0.65163 1.14713,2.77115 1.57103,-0.65163 c 0.33831,0.44583 0.73354,0.83482 1.17147,1.16288 l -0.65591,1.55815 2.78833,1.14138 0.65878,-1.5352 c 0.538,0.0737 1.08583,0.0522 1.63691,-0.0227 l 0.65734,1.55958 2.78977,-1.14138 -0.65591,-1.55815 c 0.44899,-0.336 0.84106,-0.72805 1.17147,-1.16288 l 1.57246,0.65159 1.14713,-2.77115 -1.54669,-0.65159 c 0.0742,-0.53424 0.0541,-1.08257 -0.0231,-1.62977 l 1.5696,-0.65159 -1.14713,-2.76688 -1.57246,0.65163 c -0.33831,-0.44583 -0.73354,-0.83622 -1.17148,-1.16432 l 0.65592,-1.56098 -2.78977,-1.13855 -0.65734,1.53668 c -0.53801,-0.0737 -1.08584,-0.0552 -1.63691,0.0227 z m 1.47795,3.72351 c 2.07111,0 3.74928,1.667 3.74928,3.72352 0,2.05652 -1.67817,3.72351 -3.74928,3.72351 -2.07111,0 -3.75072,-1.66699 -3.75072,-3.72351 0,-2.05652 1.67961,-3.72352 3.75072,-3.72352 z" style="fill:#e6e6fa"/>
 </g>
</svg>
