<svg xmlns="http://www.w3.org/2000/svg" style="isolation:isolate" width="16" height="16" viewBox="0 0 16 16">
 <path fill="#e6e6fa" d="M 5.921 0 L 5.672 0.007 C 5.672 0.007 6.174 0.664 6.529 0.943 L 6.477 1.163 C 6.449 1.408 6.416 1.67 6.406 1.746 L 6.389 1.884 L 6.253 1.788 L 6.006 1.692 L 6.103 1.852 L 6.201 2.012 L 5.953 2.012 L 5.704 2.012 L 5.704 1.855 L 5.704 1.698 L 5.467 1.791 L 5.228 1.884 L 5.31 2.018 L 5.391 2.151 L 5.071 2.459 L 4.752 2.688 L 4.87 2.82 L 4.988 2.953 L 4.779 2.83 L 4.569 2.708 L 4.843 2.4 L 5.117 2.093 L 4.972 2.079 C 4.893 2.071 4.682 2.048 4.502 2.027 L 4.175 1.989 L 4.153 2.282 L 4.133 2.575 L 3.745 2.941 L 3.359 3.305 L 2.999 4.761 C 2.802 5.561 2.569 6.445 2.529 6.628 L 2.456 6.96 C 2.816 7.111 3.136 7.182 3.478 7.202 C 3.568 7.145 3.691 6.9 3.752 6.656 C 3.812 6.412 3.944 6.136 4.001 6.136 L 4.104 6.136 L 4.118 6.661 C 4.126 6.95 4.251 7.608 4.397 8.124 C 4.542 8.64 4.617 9.24 4.66 9.448 L 4.74 9.836 L 4.578 9.937 L 4.416 10.039 L 4.675 10.188 L 4.766 10.337 L 4.537 10.247 L 4.31 10.158 L 3.949 10.914 L 3.589 11.669 L 2.808 12.177 L 2.306 12.687 L 2.432 13.251 L 2.556 13.817 L 2.53 14.718 L 2.505 15.62 L 2.62 15.81 L 2.736 16 L 3.026 16 L 3.595 16 L 3.952 15.813 L 4.174 15.519 L 3.876 15.234 C 3.813 15.078 3.727 14.493 3.684 13.936 L 3.606 12.924 L 4.042 12.169 L 4.478 11.413 L 5.144 10.756 L 5.81 10.097 L 5.91 9.243 L 6.009 8.389 L 5.817 8.499 L 5.625 8.608 L 5.807 8.408 L 5.989 8.208 L 6.365 8.405 C 6.571 8.513 6.973 8.778 7.257 8.993 L 7.775 9.386 L 7.775 9.793 L 7.775 10.199 L 8.169 11.074 C 8.386 11.555 8.61 11.751 8.668 11.998 C 8.726 12.245 8.84 12.532 8.92 12.635 L 9.065 12.823 L 9.513 12.693 C 9.759 12.621 10.118 12.478 10.31 12.374 C 10.502 12.269 11.312 12.388 12.11 12.149 L 13.562 11.715 L 13.628 11.512 L 13.694 11.23 L 13.143 11.23 C 12.84 11.23 12.369 11.276 12.097 11.331 L 11.603 11.432 L 11.688 11.572 L 11.773 11.712 L 11.525 11.615 L 11.278 11.519 L 10.638 11.779 C 10.286 11.922 9.858 11.996 9.7 12.039 L 9.402 12.039 L 9.147 11.472 L 8.892 10.825 L 8.791 9.944 L 8.688 9.061 L 8.059 8.205 C 7.713 7.734 7.203 7.145 6.926 6.896 L 6.414 6.4 C 6.601 6.402 6.62 6.422 6.807 6.395 L 6.692 6.338 L 6.652 6.136 L 6.851 6.176 L 7.05 6.216 L 7.008 5.952 L 6.965 5.927 L 7.207 5.833 C 7.293 5.799 7.365 5.668 7.408 5.6 L 7.209 5.6 L 6.97 5.6 L 6.97 5.194 C 6.97 5.061 7.016 4.951 7.072 4.951 C 7.313 5.115 7.524 5.148 7.756 5.246 C 7.981 5.077 8.482 4.99 8.741 4.888 L 8.846 4.145 C 8.904 3.736 8.825 3.332 8.878 3.246 L 8.974 3.089 L 8.736 2.848 C 8.605 2.715 8.168 2.575 8.057 2.537 L 7.855 2.468 L 8.06 2.217 L 8.103 1.996 L 8.122 1.497 C 8.08 1.258 8.02 1.128 7.91 0.994 C 7.622 0.826 7.523 0.79 7.21 0.82 L 6.717 0.813 L 5.921 0 Z M 7.294 2.901 L 7.444 2.901 C 7.526 2.901 7.834 2.978 7.834 3.072 L 7.834 3.244 L 7.981 3.151 L 8.13 3.058 L 8.245 3.247 L 8.361 3.436 L 8.177 3.321 L 8.122 3.325 L 8.101 3.663 L 8.101 4.01 L 7.834 4.02 L 7.834 4.021 L 7.286 4.008 C 7.276 3.941 7.32 3.612 7.292 3.367 L 7.294 2.901 Z"/>
</svg>
