<svg xmlns="http://www.w3.org/2000/svg" style="isolation:isolate" width="16" height="16" viewBox="0 0 16 16">
 <path fill="#e6e6fa" fill-rule="evenodd" d="M 0.571 12 L 0.571 12 L 0.571 12 L 0.571 12 L 0.571 12 L 0.571 12 L 0.571 12 Z M 8 8.571 C 8 7.941 8.512 7.429 9.143 7.429 C 9.774 7.429 10.286 7.941 10.286 8.571 C 10.286 9.202 9.774 9.714 9.143 9.714 C 8.512 9.714 8 9.202 8 8.571 L 8 8.571 L 8 8.571 L 8 8.571 L 8 8.571 L 8 8.571 Z M 10.857 8.571 C 10.857 7.941 11.369 7.429 12 7.429 C 12.631 7.429 13.143 7.941 13.143 8.571 C 13.143 9.202 12.631 9.714 12 9.714 C 11.369 9.714 10.857 9.202 10.857 8.571 L 10.857 8.571 L 10.857 8.571 L 10.857 8.571 Z M 3.456 7.091 C 3.445 7.11 3.437 7.127 3.429 7.143 C 3.029 6.352 0.571 6 0.571 6 L 0.571 6.045 L 0.571 6.045 L 0.571 6.045 L 0.571 8 L 0 8 L 0 8.045 L 0 10.286 L 0 10.331 L 0.571 10.331 L 0.571 12 L 0.571 12 L 0.571 12.045 C 0.556 12.045 3.029 11.694 3.429 10.902 L 3.429 10.857 L 3.429 10.857 C 3.829 11.648 6 13.143 9.2 13.143 C 12.4 13.143 16 11.413 16 8.791 C 15.996 6.928 14.432 5.338 12 4.571 L 12 3.648 C 12 3.21 11.643 2.857 11.2 2.857 L 7.2 2.857 C 6.757 2.857 6.286 3.21 6.286 3.648 L 6.286 4.572 C 5.605 4.787 5.031 5.18 4.571 5.618 L 4.571 3.393 C 4.571 3.097 4.331 2.857 4.036 2.857 L 3.964 2.857 C 3.669 2.857 3.429 3.097 3.429 3.393 L 3.429 6.893 C 3.429 6.961 3.441 7.026 3.456 7.091 L 3.456 7.091 L 3.456 7.091 L 3.456 7.091 L 3.456 7.091 L 3.456 7.091 L 3.456 7.091 Z M 5.143 8.571 C 5.143 7.941 5.655 7.429 6.286 7.429 C 6.916 7.429 7.429 7.941 7.429 8.571 C 7.429 9.202 6.916 9.714 6.286 9.714 C 5.655 9.714 5.143 9.202 5.143 8.571 Z"/>
</svg>
