<svg xmlns="http://www.w3.org/2000/svg" style="isolation:isolate" width="16" height="16" viewBox="0 0 16 16">
 <path fill="#e6e6fa" d="M 0 4.8 L 0 8 L 3.2 8 L 3.2 4.8 L 0 4.8 Z M 3.2 8 L 3.2 11.2 L 6.4 11.2 L 6.4 8 L 3.2 8 Z M 6.4 8 L 9.6 8 L 9.6 4.8 L 6.4 4.8 L 6.4 8 Z M 9.6 8 L 9.6 11.2 L 12.8 11.2 L 12.8 8 L 9.6 8 Z M 12.8 8 L 16 8 L 16 4.8 L 12.8 4.8 L 12.8 8 Z"/>
</svg>
