<svg xmlns="http://www.w3.org/2000/svg" style="isolation:isolate" width="16" height="16" viewBox="0 0 16 16">
 <path fill="#e6e6fa" d="M 8.63 0.025 C 5.327 -0.235 2.206 1.568 0.779 4.559 L 5.157 5.732 C 5.729 5.017 6.55 4.544 7.456 4.407 L 8.63 0.025 L 8.63 0.025 Z M 11.441 0.779 L 10.268 5.157 C 10.983 5.73 11.457 6.55 11.593 7.456 L 15.975 8.63 C 16.235 5.327 14.432 2.205 11.441 0.778 L 11.441 0.779 Z M 0.025 7.37 C -0.235 10.673 1.568 13.794 4.559 15.221 L 5.732 10.843 C 5.016 10.271 4.543 9.449 4.406 8.543 L 0.024 7.37 L 0.025 7.37 Z M 10.843 10.268 C 10.27 10.984 9.449 11.457 8.544 11.593 L 7.37 15.975 C 10.673 16.235 13.794 14.432 15.221 11.442 L 10.843 10.268 L 10.843 10.268 Z"/>
</svg>
