<svg xmlns="http://www.w3.org/2000/svg" style="isolation:isolate" width="16" height="16" viewBox="0 0 16 16">
 <defs>
  <clipPath id="_clipPath_UykAzugbcTZFfdB18HZpty1U43LRtmfX">
   <rect width="16" height="16"/>
  </clipPath>
 </defs>
 <g clip-path="url(#_clipPath_UykAzugbcTZFfdB18HZpty1U43LRtmfX)">
  <rect style="fill:#000000" fill-opacity="0" width="16" height="16"/>
  <path fill="#e6e6fa" d="M 6.682 6.295 C 5.325 6.405 4.328 6.331 3.626 6.202 Q 0.328 5.328 1.158 3.013 C 1.616 2.467 2.05 2.135 2.796 2.271 C 5.806 2.816 8.582 3.846 10.986 3.865 C 12.916 3.88 14.622 3.053 15.901 2.249 C 16.148 1.746 15.93 1.433 15.289 1.353 C 14.328 1.938 13.44 2.258 12.668 2.358 C 9.348 2.686 5.111 0.283 2.621 0.763 Q 0.131 1.244 0 4.127 C 0.235 6.331 2.851 7.319 6.107 7.225 Q 6.1 7.238 6.094 7.25 C 5.264 8.277 4.958 9.653 4.893 11.138 C 4.837 12.404 5.494 13.504 6.4 14.436 Q 8.169 15.725 10.025 15.092 Q 13.127 14.087 13.804 10.745 Q 13.717 8.736 11.904 8.452 Q 9.457 8.517 7.972 11.75 C 8.067 12.369 8.307 12.514 8.824 12.274 C 9.536 10.508 11.03 9.02 12.013 9.435 C 12.996 9.85 12.515 12.798 9.785 14.24 Q 8.06 14.764 7.208 13.628 Q 5.627 11.299 8.102 7.043 C 9.097 6.893 10.116 6.656 11.117 6.333 C 11.492 6.045 11.773 6.137 11.581 5.683 C 11.39 5.23 11.238 5.47 10.746 5.481 Q 9.646 5.843 8.738 6.019 Q 9.315 5.143 10.047 4.193 Q 9.536 3.981 9.239 3.974 Q 8.802 4.214 7.95 4.498 Q 7.158 5.584 6.682 6.295 Z"/>
 </g>
</svg>
