<svg xmlns="http://www.w3.org/2000/svg" style="isolation:isolate" width="16" height="16" viewBox="0 0 16 16">
 <path fill="#e6e6fa" d="M 11.692 0.615 C 9.313 0.615 7.385 2.544 7.385 4.923 C 7.385 7.302 9.313 9.231 11.692 9.231 C 14.071 9.231 16 7.302 16 4.923 C 16 2.544 14.071 0.615 11.692 0.615 Z M 4.308 6.769 C 1.929 6.769 0 8.698 0 11.077 C 0 13.456 1.929 15.385 4.308 15.385 C 6.687 15.385 8.615 13.456 8.615 11.077 C 8.615 8.698 6.687 6.769 4.308 6.769 Z"/>
</svg>
