<svg xmlns="http://www.w3.org/2000/svg" style="isolation:isolate" width="16" height="16" viewBox="0 0 16 16">
 <path fill="#e6e6fa" fill-rule="evenodd" d="M 8 2.667 C 5.929 2.667 4.165 3.896 3.406 5.636 C 1.478 5.914 0 7.508 0 9.454 C 0 11.597 1.791 13.333 4 13.333 L 12.5 13.333 C 14.433 13.333 16 11.814 16 9.939 C 16 8.197 14.649 6.77 12.906 6.576 C 12.452 4.352 10.427 2.667 8 2.667 L 8 2.667 Z M 6.933 6.933 L 6.933 8.533 L 9.067 8.533 L 9.067 6.933 L 6.933 6.933 L 6.933 6.933 L 6.933 6.933 Z M 6.933 5.867 L 9.067 5.867 C 10.133 5.867 10.133 6.933 10.133 6.933 L 10.133 11.2 L 9.067 11.2 L 9.067 9.6 L 6.933 9.6 L 6.933 11.2 L 5.867 11.2 L 5.867 6.933 C 5.867 5.867 6.933 5.867 6.933 5.867 L 6.933 5.867 L 6.933 5.867 Z"/>
</svg>
