<svg xmlns="http://www.w3.org/2000/svg" style="isolation:isolate" width="16" height="16" viewBox="0 0 16 16">
 <g opacity=".6">
  <path fill="#e6e6fa" d="M 7 10.667 L 7 13 L 1.333 13 L 1.333 15 L 14.667 15 L 14.667 13 L 9 13 L 9 10.667 L 7 10.667 Z"/>
 </g>
 <path fill="#e6e6fa" fill-rule="evenodd" d="M 5.333 2.667 L 10.667 2.667 L 10.667 8 L 5.333 8 L 5.333 2.667 L 5.333 2.667 Z M 3.78 0 C 3.163 0 2.667 0.497 2.667 1.113 L 2.667 9.553 C 2.667 10.17 3.163 10.667 3.78 10.667 L 12.22 10.667 C 12.837 10.667 13.334 10.17 13.334 9.553 L 13.334 1.113 C 13.334 0.497 12.837 0 12.22 0 L 3.78 0 L 3.78 0 L 3.78 0 Z M 0 14 C 0 12.896 0.896 12 2 12 C 3.104 12 4 12.896 4 14 C 4 15.104 3.104 16 2 16 C 0.896 16 0 15.104 0 14 L 0 14 L 0 14 Z M 6 14 C 6 12.896 6.896 12 8 12 C 9.104 12 10 12.896 10 14 C 10 15.104 9.104 16 8 16 C 6.896 16 6 15.104 6 14 L 6 14 L 6 14 Z M 12 14 C 12 12.896 12.896 12 14 12 C 15.104 12 16 12.896 16 14 C 16 15.104 15.104 16 14 16 C 12.896 16 12 15.104 12 14 L 12 14 Z"/>
</svg>
