<svg xmlns="http://www.w3.org/2000/svg" style="isolation:isolate" width="16" height="16" viewBox="0 0 16 16">
 <g>
  <path fill="#e6e6fa" d="M 3.994 10 C 2.736 9.985 1.815 10.031 1.063 9.615 C 0.686 9.408 0.389 9.056 0.225 8.617 C 0.06 8.179 0 7.658 0 7 L 0 5 C 0 4.342 0.06 3.821 0.225 3.383 C 0.389 2.944 0.686 2.592 1.063 2.385 C 1.815 1.969 2.736 2.015 3.994 2 L 3.998 2 L 6.002 2 L 6.006 2 C 7.264 2.015 8.185 1.969 8.938 2.385 C 9.314 2.592 9.611 2.944 9.776 3.383 C 9.94 3.821 10 4.342 10 5 L 10 7 C 10 7.658 9.94 8.179 9.775 8.617 C 9.611 9.056 9.314 9.408 8.938 9.615 C 8.185 10.031 7.264 9.985 6.006 10 L 6.002 10 L 3.998 10 L 3.994 10 Z M 4 9 L 4.006 9 L 6 9 C 7.259 8.985 8.087 8.94 8.453 8.738 C 8.637 8.637 8.742 8.526 8.84 8.266 C 8.937 8.006 9 7.592 9 7 L 9 5 C 9 4.408 8.937 3.994 8.84 3.734 C 8.742 3.474 8.638 3.363 8.455 3.262 C 8.089 3.06 7.259 3.015 6 3 L 4.006 3 L 4 3 C 2.741 3.015 1.911 3.06 1.545 3.262 C 1.362 3.363 1.258 3.474 1.16 3.734 C 1.063 3.994 1 4.408 1 5 L 1 7 C 1 7.592 1.063 8.006 1.16 8.266 C 1.258 8.526 1.362 8.637 1.545 8.738 C 1.911 8.94 2.741 8.985 4 9 L 4 9 Z"/>
  <g opacity=".5">
   <path fill="#e6e6fa" d="M 6.994 15 C 5.736 14.985 4.815 15.031 4.063 14.615 C 3.686 14.408 3.389 14.056 3.225 13.617 C 3.06 13.179 3 12.658 3 12 L 3 11 L 4 11 L 4 12 C 4 12.592 4.063 13.006 4.16 13.266 C 4.258 13.526 4.362 13.637 4.545 13.738 C 4.911 13.94 5.741 13.985 7 14 L 10.5 14 L 12 14 C 13.259 13.985 14.087 13.94 14.453 13.738 C 14.637 13.637 14.742 13.526 14.84 13.266 C 14.937 13.006 15 12.592 15 12 L 15 8 C 15 7.408 14.937 6.994 14.84 6.734 C 14.742 6.474 14.638 6.363 14.455 6.262 C 14.088 6.059 13.258 6.015 11.994 6 L 11 6 L 11 5 L 12.002 5 L 12.006 5 C 13.264 5.015 14.185 4.969 14.938 5.385 C 15.314 5.592 15.611 5.944 15.775 6.383 C 15.94 6.821 16 7.342 16 8 L 16 12 C 16 12.658 15.94 13.179 15.775 13.617 C 15.611 14.056 15.314 14.408 14.938 14.615 C 14.185 15.031 13.264 14.985 12.006 15 L 12.002 15 L 10.5 15 L 6.998 15 L 6.994 15 Z"/>
  </g>
 </g>
</svg>
