<svg xmlns="http://www.w3.org/2000/svg" style="isolation:isolate" width="16" height="16" viewBox="0 0 16 16">
 <path fill="#e6e6fa" fill-rule="evenodd" d="M -0.031 12.5 L 15.969 12.5 L 15.969 14.5 L -0.031 14.5 L -0.031 12.5 Z"/>
 <path fill="#e6e6fa" fill-rule="evenodd" d="M 5.021 10.33 L 3.503 10.33 L 3.503 6.835 L 0.288 1.4 L 2.023 1.4 L 4.269 5.265 L 6.514 1.4 L 8.249 1.4 L 5.021 6.835 L 5.021 10.33 Z M 15.712 2.867 L 13.173 2.867 L 13.173 10.33 L 11.642 10.33 L 11.642 2.867 L 9.103 2.867 L 9.103 1.4 L 15.712 1.4 L 15.712 2.867 Z"/>
</svg>
