<svg xmlns="http://www.w3.org/2000/svg" width="16" height="16" version="1.1">
 <path style="fill:#e6e6fa" d="M 7.6105435,0.5024166 2.30195,7.6742912 2.3,7.6782012 l 0.00976,0.00781 5.292969,7.7929688 0.011719,0.02148 0.00195,-0.002 5.320312,-7.8164058 0.0059,-0.00391 -0.002,-0.00195 v -0.00195 L 7.6144498,0.5043697 7.6124966,1.0727291 Z"/>
</svg>
