<svg xmlns="http://www.w3.org/2000/svg" style="isolation:isolate" width="16" height="16" viewBox="0 0 16 16">
 <defs>
  <clipPath id="_clipPath_Exl5QkIKtQrQTo1nfSg4u7bOUVGNs9mW">
   <rect width="16" height="16"/>
  </clipPath>
 </defs>
 <g clip-path="url(#_clipPath_Exl5QkIKtQrQTo1nfSg4u7bOUVGNs9mW)">
  <rect style="fill:#e6e6fa" fill-opacity="0" width="16" height="16"/>
  <path fill="#e6e6fa" d="M 13.305 0 L 0.8 0 L 2.695 3.733 L 9.499 3.733 L 0.8 12.267 L 2.695 16 L 15.2 3.733 L 13.305 0 Z"/>
  <path fill="#e6e6fa" d="M 0.8 12.267 L 13.305 12.267 L 15.2 16 L 2.695 16 L 0.8 12.267 Z"/>
 </g>
</svg>
