<svg xmlns="http://www.w3.org/2000/svg" width="16" height="16" viewBox="0 0 16 16">
 <defs>
  <style id="current-color-scheme" type="text/css">
   .ColorScheme-Text { color:#e6e6fa; } .ColorScheme-Highlight { color:#5294e2; }
  </style>
 </defs>
 <path style="fill:currentColor" class="ColorScheme-Text" d="M 0.99609375 0.00390625 L 0.99609375 2.0039062 L 2.9960938 2.0039062 L 2.9960938 7.0039062 L 6.9960938 7.0039062 L 6.9960938 2.0039062 L 8.9960938 2.0039062 L 8.9960938 7.0039062 L 12.996094 7.0039062 L 12.996094 2.0039062 L 14.996094 2.0039062 L 14.996094 0.00390625 L 0.99609375 0.00390625 z M 0.99609375 9.0039062 L 0.99609375 11.003906 L 2.9960938 11.003906 L 2.9960938 16.003906 L 6.9960938 16.003906 L 6.9960938 11.003906 L 8.9960938 11.003906 L 8.9960938 16.003906 L 12.996094 16.003906 L 12.996094 11.003906 L 14.996094 11.003906 L 14.996094 9.0039062 L 0.99609375 9.0039062 z"/>
</svg>
