<svg xmlns="http://www.w3.org/2000/svg" width="16" height="16" viewBox="0 0 16 16">
 <defs>
  <style id="current-color-scheme" type="text/css">
   .ColorScheme-Text { color:#e6e6fa; } .ColorScheme-Highlight { color:#5294e2; }
  </style>
 </defs>
 <path style="fill:currentColor" class="ColorScheme-Text" d="M 7 2 L 2 5 L 7 8 L 7 6 L 10 6 C 11.6793 6 13 7.3207 13 9 C 13 10.6793 11.6793 12 10 12 L 5 12 L 5 14 L 10 14 C 12.7527 14 15 11.7527 15 9 C 15 6.2473 12.7527 4 10 4 L 7 4 L 7 2 z"/>
</svg>
