<svg xmlns="http://www.w3.org/2000/svg" width="16" height="16" viewBox="0 0 16 16">
 <defs>
  <style id="current-color-scheme" type="text/css">
   .ColorScheme-Text { color:#e6e6fa; } .ColorScheme-Highlight { color:#5294e2; }
  </style>
 </defs>
 <path style="fill:currentColor" class="ColorScheme-Text" d="M 3 0.00390625 C 2 0.00390625 2 1.0039062 2 1.0039062 L 2 9 C 2.00003 10 3 10 3 10 L 13 10 C 13 10 14 10 14 9 L 14 1.0039062 C 13.99997 0.0039063 13 0.00390625 13 0.00390625 L 3 0.00390625 z M 6 3.5 L 9 6.5 L 10.5 5 L 12 6.5 L 12 8 L 4 8 L 4 5.5 L 6 3.5 z M 5 12 L 8 16 L 11 12 L 5 12 z"/>
</svg>
