<svg xmlns="http://www.w3.org/2000/svg" width="16" height="16" viewBox="0 0 16 16">
 <defs>
  <style id="current-color-scheme" type="text/css">
   .ColorScheme-Text { color:#e6e6fa; } .ColorScheme-Highlight { color:#5294e2; }
  </style>
 </defs>
 <path style="fill:currentColor" class="ColorScheme-Text" d="M 5 0 L 5 1.9726562 L 0.52148438 1.9726562 A 0.50005 0.50005 0 1 0 0.52148438 2.9726562 L 5 2.9726562 L 5 5 L 10 5 L 10 2.9726562 L 14.498047 2.9726562 A 0.50005 0.50005 0 1 0 14.498047 1.9726562 L 10 1.9726562 L 10 0 L 5 0 z M 7 5.0273438 L 7 7.0273438 L 5 7.0273438 L 7.5 10.027344 L 10 7.0273438 L 8 7.0273438 L 8 5.0273438 L 7 5.0273438 z M 1 11 L 1 13 L 0.50390625 13 A 0.499025 0.499025 0 1 0 0.50390625 13.998047 L 1 13.998047 L 1 16 L 5 16 L 5 11 L 1 11 z M 10 11 L 10 16 L 14 16 L 14 14 L 14.507812 14 A 0.50005 0.50005 0 1 0 14.507812 13 L 14 13 L 14 11 L 10 11 z"/>
</svg>
