<svg xmlns="http://www.w3.org/2000/svg" width="16" height="16" viewBox="0 0 16 16">
 <defs>
  <style id="current-color-scheme" type="text/css">
   .ColorScheme-Text { color:#e6e6fa; } .ColorScheme-Highlight { color:#5294e2; }
  </style>
 </defs>
 <path style="fill:currentColor" class="ColorScheme-Text" d="M 13 1 L 3 1.0039062 L 3 15.003906 L 13 15 L 13 13.003906 L 5 13.003906 L 5 3.0039062 L 13 3.0019531 L 13 1 z M 10 5.0039062 L 6 8.0039062 L 10 11.003906 L 10 9.0039062 L 14 9.0039062 L 14 7.0039062 L 10 7.0039062 L 10 5.0039062 z"/>
</svg>
