<svg xmlns="http://www.w3.org/2000/svg" width="16" height="16" viewBox="0 0 16 16">
 <defs>
  <style id="current-color-scheme" type="text/css">
   .ColorScheme-Text { color:#e6e6fa; } .ColorScheme-Highlight { color:#5294e2; }
  </style>
 </defs>
 <path style="fill:currentColor" class="ColorScheme-Text" d="M 8 3.0039062 C 6.4492 3.0190063 4.8879094 3.3732319 3.5371094 4.1386719 C 2.9987094 4.4892919 2.3523344 4.9421175 1.8652344 5.3984375 C 1.0987444 6.1488575 0.4427 7.0244062 0 8.0039062 C 1.2149 10.683506 3.8859187 12.6474 6.8242188 12.9375 C 8.7516188 13.15561 10.768591 12.822631 12.462891 11.869141 C 13.001291 11.518521 13.647666 11.065695 14.134766 10.609375 C 14.901256 9.858955 15.5573 8.9834063 16 8.0039062 C 14.785 5.3245062 12.114181 3.3601125 9.1757812 3.0703125 C 8.7859013 3.0248425 8.39251 3.0038963 8 3.0039062 z M 8 5.0019531 L 8 5.0039062 C 9.607 4.9683062 11.0303 6.4057062 11 8.0039062 C 11.0515 9.7703063 9.2909813 11.294844 7.5507812 10.964844 C 5.7931812 10.758504 4.5587188 8.7851344 5.1367188 7.1152344 C 5.5058788 5.8858344 6.7125 4.9866531 8 5.0019531 z M 8 7.0039062 A 1 1 0 0 0 7 8.0039062 A 1 1 0 0 0 8 9.0039062 A 1 1 0 0 0 9 8.0039062 A 1 1 0 0 0 8 7.0039062 z"/>
</svg>
