<?xml version="1.0" encoding="UTF-8" standalone="no"?>
<svg
   xmlns:dc="http://purl.org/dc/elements/1.1/"
   xmlns:cc="http://creativecommons.org/ns#"
   xmlns:rdf="http://www.w3.org/1999/02/22-rdf-syntax-ns#"
   xmlns:svg="http://www.w3.org/2000/svg"
   xmlns="http://www.w3.org/2000/svg"
   xmlns:sodipodi="http://sodipodi.sourceforge.net/DTD/sodipodi-0.dtd"
   xmlns:inkscape="http://www.inkscape.org/namespaces/inkscape"
   width="24"
   height="24"
   version="1.1"
   id="svg11"
   sodipodi:docname="megasynching.svg"
   inkscape:version="0.92.2 2405546, 2018-03-11">
  <metadata
     id="metadata15">
    <rdf:RDF>
      <cc:Work
         rdf:about="">
        <dc:format>image/svg+xml</dc:format>
        <dc:type
           rdf:resource="http://purl.org/dc/dcmitype/StillImage" />
      </cc:Work>
    </rdf:RDF>
  </metadata>
  <sodipodi:namedview
     pagecolor="#ffffff"
     bordercolor="#666666"
     borderopacity="1"
     objecttolerance="10"
     gridtolerance="10"
     guidetolerance="10"
     inkscape:pageopacity="0"
     inkscape:pageshadow="2"
     inkscape:window-width="640"
     inkscape:window-height="480"
     id="namedview13"
     showgrid="false"
     inkscape:zoom="5.9220193"
     inkscape:cx="29.015834"
     inkscape:cy="34.795301"
     inkscape:current-layer="svg11" />
  <defs
     id="defs3">
    <style
       id="current-color-scheme"
       type="text/css">
   .ColorScheme-Text { color:#e6e6fa; } .ColorScheme-Highlight { color:#5294e2; }
  </style>
  </defs>
  <path
     style="fill:#e6e6fa;fill-opacity:1;stroke-width:0.0798673"
     d="m 11.607699,3.7774608 c -0.182409,0 -0.338661,0.08282 -0.565313,0.299503 -0.172301,0.164725 -1.8620161,2.024637 -3.754856,4.133134 -3.8469102,4.2852032 -3.8664518,4.3122352 -4.1198738,5.7028662 -0.1154065,0.633296 -0.122391,0.844524 -0.044293,1.346826 0.1440192,0.926376 0.5346195,1.598679 1.2551026,2.160006 0.2991023,0.233025 0.9012802,0.435081 4.5624201,1.531046 2.3198121,0.694438 4.3138651,1.266423 4.4310711,1.271015 0.117212,0.0044 0.268696,-0.01293 0.33663,-0.03898 0.139764,-0.0536 6.898106,-8.1629 7.067165,-8.479819 0.09038,-0.169427 0.09183,-0.277918 0.0087,-0.624275 -0.09455,-0.394142 -0.08437,-0.704858 0.04617,-1.4073492 0.04834,-0.260151 0.02571,-0.325116 -0.188281,-0.539105 -0.679195,-0.679195 -1.365256,0.169652 -1.274913,1.5773822 l 0.03823,0.595412 -1.966265,2.365917 c -1.081477,1.301327 -2.482848,2.988075 -3.114045,3.748303 -0.631196,0.760229 -1.187862,1.367123 -1.23701,1.348537 -0.04917,-0.01862 -1.812125,-0.544677 -3.9178611,-1.168996 -2.5215185,-0.747577 -3.9013486,-1.194253 -4.0415694,-1.308448 -0.4969919,-0.40475 -0.7717672,-1.125296 -0.690571,-1.8109 0.080765,-0.681938 0.3810545,-1.038115 0.8752664,-1.038115 0.095721,0 1.8307669,0.472821 3.855625,1.050597 2.5971671,0.74108 3.7433671,1.034897 3.8915031,0.99772 0.268185,-0.06732 0.206861,6.8e-5 4.321724,-4.745867 1.9148,-2.2084602 3.503982,-4.1050172 3.531475,-4.2145572 0.06103,-0.242999 -0.07915,-0.606367 -0.282926,-0.733631 -0.190049,-0.118686 -8.682665,-2.01821 -9.023287,-2.01821 z m 1.002236,1.979832 0.895545,0.243508 -0.712724,3.538181 -0.754993,-0.205131 0.142889,-0.641117 -1.174457,-0.319162 -0.511804,0.540823 -0.7549931,-0.205131 z m 0.02874,0.882757 -1.112839,1.182409 0.79805,0.216825 z m 1.844592,0.633789 c 0.171982,8.2e-5 0.338954,0.0105 0.50104,0.03118 0.162886,0.0193 0.319894,0.04948 0.470779,0.09047 0.394123,0.10711 0.630215,0.271208 0.708513,0.492463 0.0804,0.220155 0.01306,0.525098 -0.202163,0.914886 l -0.766851,1.3889452 -0.704302,-0.191405 0.199201,-0.3608072 c -0.175255,0.122348 -0.340134,0.201601 -0.494799,0.237885 -0.153871,0.03486 -0.314845,0.02955 -0.482635,-0.01605 -0.226334,-0.06154 -0.369872,-0.18482 -0.430852,-0.369703 -0.05885,-0.185976 -0.02355,-0.396242 0.106073,-0.630978 0.157607,-0.285458 0.361038,-0.470991 0.610237,-0.556579 0.250504,-0.08523 0.56435,-0.07662 0.941563,0.02586 l 0.41166,0.111845 0.03355,-0.06085 c 0.068,-0.123166 0.07404,-0.224766 0.01812,-0.304963 -0.05516,-0.08165 -0.175012,-0.147599 -0.359714,-0.197796 -0.149585,-0.04067 -0.298028,-0.06179 -0.445202,-0.06349 -0.147167,-0.0019 -0.294404,0.01581 -0.441765,0.05242 z m 0.04585,1.500941 c -0.06256,-0.0013 -0.119942,0.0071 -0.172213,0.02449 -0.103243,0.03524 -0.184458,0.106479 -0.243657,0.213708 -0.05441,0.09853 -0.06805,0.184027 -0.04073,0.256446 0.02942,0.07132 0.0968,0.121273 0.202163,0.14991 0.131375,0.03567 0.270858,0.01362 0.418207,-0.0663 0.148155,-0.08139 0.265811,-0.201151 0.353011,-0.359095 l 0.0491,-0.08907 -0.362831,-0.09859 c -0.07284,-0.0198 -0.140545,-0.03036 -0.2031,-0.03149 z"
     id="path836"
     inkscape:connector-curvature="0" />
  <g
     aria-label="Aa"
     transform="matrix(1.2507716,0.33992636,-0.76928279,1.3933653,9.2680357,272.90819)"
     style="font-style:normal;font-variant:normal;font-weight:bold;font-stretch:normal;font-size:40.00019455px;line-height:1.25;font-family:sans-serif;-inkscape-font-specification:'sans-serif, Bold';font-variant-ligatures:normal;font-variant-caps:normal;font-variant-numeric:normal;font-feature-settings:normal;text-align:start;letter-spacing:0px;word-spacing:0px;writing-mode:lr-tb;text-anchor:start;fill:#000000;fill-opacity:1;stroke:none"
     id="flowRoot838" />
</svg>
