<svg xmlns="http://www.w3.org/2000/svg" width="16" height="16" version="1.1">
 <defs>
  <style id="current-color-scheme" type="text/css">
   .ColorScheme-Text { color:#e6e6fa; } .ColorScheme-Highlight { color:#5294e2; }
  </style>
 </defs>
 <path style="opacity:0.3;fill:currentColor" class="ColorScheme-Text" d="M 8 1 A 7 7 0 0 0 1.7871094 4.7871094 A 7 7 0 0 1 5 4 A 7 7 0 0 1 6.2597656 4.1171875 A 7 7 0 0 1 8.1074219 1.0058594 A 7 7 0 0 0 8 1 z M 9.4726562 1.1601562 A 6 6 0 0 0 7.2304688 4.375 A 7 7 0 0 1 12 11 A 7 7 0 0 1 11.933594 11.900391 A 6 6 0 0 0 13 12 A 6 6 0 0 0 13.785156 11.941406 A 7 7 0 0 0 15 8 A 7 7 0 0 0 9.4726562 1.1601562 z M 5 5 A 6 6 0 0 0 1.203125 6.359375 A 7 7 0 0 0 1 8 A 7 7 0 0 0 8 15 A 7 7 0 0 0 9.6367188 14.796875 A 6 6 0 0 0 10.769531 12.625 A 7 7 0 0 1 6 6 A 7 7 0 0 1 6.0664062 5.0996094 A 6 6 0 0 0 5 5 z M 7.0351562 5.3632812 A 6 6 0 0 0 7 6 A 6 6 0 0 0 10.964844 11.636719 A 6 6 0 0 0 11 11 A 6 6 0 0 0 7.0351562 5.3632812 z M 11.740234 12.882812 A 7 7 0 0 1 11.212891 14.216797 A 7 7 0 0 0 12.900391 12.996094 A 7 7 0 0 1 11.740234 12.882812 z"/>
</svg>
