<svg xmlns="http://www.w3.org/2000/svg" width="16" height="16" version="1.1">
 <defs>
  <style id="style2" type="text/css">
   .ColorScheme-Text { color:#e6e6fa; } .ColorScheme-Highlight { color:#5294e2; }
  </style>
 </defs>
 <circle style="fill: currentColor" class="ColorScheme-Text" cx="12.5" cy="9.5" r="1.5"/>
 <rect style="fill:currentColor" class="ColorScheme-Text" width="3" height="4" x="11" y="12"/>
 <path style="opacity: 0.3; fill: none; stroke:currentColor; stroke-width: 2" class="ColorScheme-Text" d="M 4,11 A 10,10 0 0 1 14,1"/>
 <path style="fill: none; stroke:currentColor; stroke-width: 2" class="ColorScheme-Text" d="M 8,11 A 6,6 0 0 1 14,5"/>
</svg>
