<svg xmlns="http://www.w3.org/2000/svg" width="16" height="16" version="1.1">
 <defs>
  <style id="current-color-scheme" type="text/css">
   .ColorScheme-Text { color:#e6e6fa; } .ColorScheme-Highlight { color:#5294e2; }
  </style>
 </defs>
 <path style="fill:currentColor" class="ColorScheme-Text" d="M 15 1.0097656 L 1 15.009766 L 15 15.009766 L 15 1.0097656 z M 13 5.8378906 L 13 13.009766 L 5.828125 13.009766 L 13 5.8378906 z"/>
</svg>
