<svg xmlns="http://www.w3.org/2000/svg" width="16" height="16" version="1">
 <defs>
  <style id="current-color-scheme" type="text/css">
   .ColorScheme-Text { color:#e6e6fa; } .ColorScheme-Highlight { color:#5294e2; }
  </style>
 </defs>
 <path style="fill:currentColor" class="ColorScheme-Text" d="M 4.5,1 C 2.5670034,1 1,2.5670034 1,4.5 1.0013473,5.4560274 1.3937103,6.3698943 2.0859375,7.0292969 2.0310192,7.3499992 2.0022786,7.6746374 2,8 c 0,3.313708 2.6862915,6 6,6 0.3252563,-9.88e-4 0.6498937,-0.02842 0.9707031,-0.08203 C 9.6307721,14.608757 10.544553,14.999672 11.5,15 13.432997,15 15,13.432997 15,11.5 14.998653,10.543972 14.606289,9.6301056 13.914062,8.9707031 13.96898,8.6500008 13.997721,8.3253626 14,8 14,4.6862915 11.313708,2 8,2 7.6747437,2.0009878 7.3501063,2.0284219 7.0292969,2.0820312 6.369228,1.391243 5.4554471,1.0003283 4.5,1 Z M 4,7 12,7 12,9 4,9 Z"/>
 <path style="fill:currentColor" class="ColorScheme-Text" d="M -25.069,-9.0812"/>
 <circle style="fill:currentColor" class="ColorScheme-Highlight" cx="14.5" cy="2.5" r="1.5"/>
</svg>
