<svg xmlns="http://www.w3.org/2000/svg" width="24" height="24" version="1.1">
 <defs>
  <style id="current-color-scheme" type="text/css">
   .ColorScheme-Text { color:#e6e6fa; } .ColorScheme-Highlight { color:#5294e2; }
  </style>
 </defs>
 <path style="fill:currentColor" class="ColorScheme-Text" d="m 12,4 c -4.432,0 -8,3.568 -8,8 0,4.432 3.568,8 8,8 4.432,0 8,-3.568 8,-8 C 20,7.568 16.432,4 12,4 Z M 10.398438,9.003906 C 11.186168,9.11063 15,11.552156 15,12 c 0,0.47767 -4.339297,3.223175 -4.716797,2.984375 -0.3773499,-0.23884 -0.3773499,-5.73015 0,-5.96875 0.02359,-0.01492 0.06272,-0.018834 0.115235,-0.01172 z"/>
</svg>
