<svg xmlns="http://www.w3.org/2000/svg" width="24" height="24" version="1">
 <defs>
  <style id="current-color-scheme" type="text/css">
   .ColorScheme-Text { color:#e6e6fa; } .ColorScheme-Highlight { color:#5294e2; }
  </style>
 </defs>
 <path style="fill:currentColor" class="ColorScheme-Text" d="m8 4a4 4 0 0 0 -4 4 4 4 0 0 0 1.1152 2.77 7 7 0 0 0 -0.1152 1.23 7 7 0 0 0 7 7 7 7 0 0 0 1.238 -0.113 4 4 0 0 0 2.762 1.113 4 4 0 0 0 4 -4 4 4 0 0 0 -1.115 -2.77 7 7 0 0 0 0.115 -1.23 7 7 0 0 0 -7 -7 7 7 0 0 0 -1.238 0.1133 4 4 0 0 0 -2.762 -1.1133zm4 3.0898a1 1 0 0 1 1 1 1 1 0 0 1 -1 1 3 3 0 0 0 -3 3h1l-2 3-2-3h1a5 5 0 0 1 4.906 -4.9962 1 1 0 0 1 0.094 -0.004zm4 2 2 3h-1a5 5 0 0 1 -4.9062 4.9961 1 1 0 0 1 -0.09375 0.0039 1 1 0 0 1 -1 -1 1 1 0 0 1 1 -1 3 3 0 0 0 3 -3h-1l2-3z"/>
 <path style="fill:currentColor" class="ColorScheme-Text" d="m-22.069-4.0812"/>
</svg>
