<svg xmlns="http://www.w3.org/2000/svg" width="24" height="24" version="1.1">
 <defs>
  <style id="current-color-scheme" type="text/css">
   .ColorScheme-Text { color:#e6e6fa; } .ColorScheme-Highlight { color:#5294e2; }
  </style>
 </defs>
 <g transform="translate(-624 -500)">
  <path style="fill:currentColor" class="ColorScheme-Highlight" d="m636 504c-4.4183 0-8 3.5817-8 8s3.5817 8 8 8 8-3.5817 8-8-3.5817-8-8-8zm-1 3h2v7h-2v-7zm0 8h2v2h-2v-2z"/>
 </g>
</svg>
