<svg xmlns="http://www.w3.org/2000/svg" width="24" height="24" version="1.1">
 <defs>
  <style id="current-color-scheme" type="text/css">
   .ColorScheme-Text { color:#e6e6fa; } .ColorScheme-Highlight { color:#5294e2; }
  </style>
 </defs>
 <path style="fill:currentColor" class="ColorScheme-Text" d="M 6,4 C 5.446,4 5,4.446 5,5 V 19 C 5,19.554 5.446,20 6,20 H 18 C 18.554,20 19,19.554 19,19 V 5 C 19,4.446 18.554,4 18,4 Z M 8,6 H 16 C 16.554,6 17,6.446 17,7 V 17 C 17,17.554 16.554,18 16,18 H 8 C 7.446,18 7,17.554 7,17 V 7 C 7,6.446 7.446,6 8,6 Z M 12,7 9,10 H 11 V 14 H 9 L 12,17 15,14 H 13 V 10 H 15 Z"/>
</svg>
