<svg xmlns="http://www.w3.org/2000/svg" width="24" height="24" version="1.1">
 <defs>
  <style id="current-color-scheme" type="text/css">
   .ColorScheme-Text { color:#e6e6fa; } .ColorScheme-Highlight { color:#5294e2; }
  </style>
 </defs>
 <g transform="translate(-128.00001,-680.28999)">
  <path style="fill:currentColor" class="ColorScheme-Text" d="m 11,3.0039062 c -2.07107,0 -3.83471,1.2679201 -4.59375,3.0625 C 4.47842,6.3530063 3,7.9963263 3,10.003906 c 0,2.20914 1.79086,4 4,4 l 8.5,0 c 1.933,0 3.5,-1.567 3.5,-3.5 C 19,8.7073662 17.64921,7.2352063 15.90625,7.0351562 15.45168,4.7417662 13.42687,3.0039062 11,3.0039062 Z M 5.9785156,14.994141 a 0.50005,0.50005 0 0 0 -0.4257812,0.283203 l -1,2 a 0.50006306,0.50006306 0 1 0 0.8945312,0.447265 l 1,-2 a 0.50005,0.50005 0 0 0 -0.46875,-0.730468 z m 2.5,0 a 0.50005,0.50005 0 0 0 -0.4257812,0.283203 l -1,2 a 0.50006306,0.50006306 0 1 0 0.8945312,0.447265 l 1,-2 a 0.50005,0.50005 0 0 0 -0.46875,-0.730468 z m 2.5000004,0 a 0.50005,0.50005 0 0 0 -0.425782,0.283203 l -0.9999996,2 a 0.50006306,0.50006306 0 1 0 0.8945316,0.447265 l 1,-2 a 0.50005,0.50005 0 0 0 -0.46875,-0.730468 z m 2.5,0 a 0.50005,0.50005 0 0 0 -0.425782,0.283203 l -1,2 a 0.50006306,0.50006306 0 1 0 0.894532,0.447265 l 1,-2 a 0.50005,0.50005 0 0 0 -0.46875,-0.730468 z m 2.5,0 a 0.50005,0.50005 0 0 0 -0.425782,0.283203 l -1,2 a 0.50006306,0.50006306 0 1 0 0.894532,0.447265 l 1,-2 a 0.50005,0.50005 0 0 0 -0.46875,-0.730468 z" transform="translate(129.00001,681.28994)"/>
 </g>
</svg>
