<svg xmlns="http://www.w3.org/2000/svg" width="16" height="16" version="1.1">
 <g transform="translate(-351.99997,-139.99994)">
  <path d="m 355.99414,140 c -1.2582,0.0145 -2.17889,-0.0306 -2.93164,0.38477 -0.37637,0.20766 -0.67323,0.55938 -0.83789,0.99804 C 352.05994,141.82148 352,142.34239 352,143 v 7 c 0,0.65761 0.0599,1.17853 0.22461,1.61719 0.16467,0.43866 0.46152,0.79039 0.83789,0.99804 0.28228,0.15575 0.59904,0.23344 0.9375,0.28711 V 151.875 c -0.18708,-0.0355 -0.34745,-0.0773 -0.45508,-0.13672 -0.18341,-0.10119 -0.2872,-0.21275 -0.38476,-0.47266 C 353.06259,151.00572 353,150.59239 353,150 v -1 h 14 v 1 c 0,0.59239 -0.0626,1.00572 -0.16016,1.26562 -0.0976,0.25991 -0.20329,0.37147 -0.38672,0.47266 -0.10732,0.0592 -0.26707,0.10129 -0.45312,0.13672 v 1.02734 c 0.33884,-0.0537 0.65495,-0.1312 0.9375,-0.28711 0.37637,-0.20766 0.67322,-0.55938 0.83789,-0.99804 C 367.9397,151.17852 368,150.65761 368,150 v -7 c 0,-0.65761 -0.0599,-1.17852 -0.22461,-1.61719 -0.16466,-0.43866 -0.46152,-0.79038 -0.83789,-0.99804 -0.75275,-0.41534 -1.67344,-0.37025 -2.93164,-0.38477 h -0.004 -8.0039 z m 0.006,1 h 8 c 1.25852,0.0147 2.08718,0.0598 2.45312,0.26172 0.18341,0.1012 0.28916,0.21274 0.38672,0.47266 C 366.93699,141.99429 367,142.40761 367,143 v 5 h -14 v -5 c 0,-0.59239 0.0626,-1.00572 0.16016,-1.26562 0.0976,-0.25991 0.20135,-0.37147 0.38476,-0.47266 C 353.91088,141.05981 354.74147,141.01471 356,141 Z m -2,9 c 0,3.31371 2.68629,6 6,6 3.31371,0 6,-2.68629 6,-6 h -1 c 0,2.76142 -2.23858,5 -5,5 -2.76142,0 -5,-2.23858 -5,-5 z m 4,0 c 0,1.10457 0.89543,2 2,2 1.10457,0 2,-0.89543 2,-2 h -1 c 0,0.55228 -0.44772,1 -1,1 -0.55228,0 -1,-0.44772 -1,-1 z" style="solid-color:#e6e6fa;fill:#e6e6fa"/>
 </g>
</svg>
