<svg xmlns="http://www.w3.org/2000/svg" style="isolation:isolate" width="16" height="16" viewBox="0 0 16 16">
 <defs>
  <clipPath id="_clipPath_w66aAJemzE7s1QXY0P5RQqO9TktECmgR">
   <rect width="16" height="16"/>
  </clipPath>
 </defs>
 <g clip-path="url(#_clipPath_w66aAJemzE7s1QXY0P5RQqO9TktECmgR)">
  <rect style="fill:#000000" fill-opacity="0" width="16" height="16"/>
  <path fill="#e6e6fa" class="ColorScheme-Text" d="M 8 0.5 C 5.923 0.5 4.25 2.172 4.25 4.25 L 4.25 8 L 2.375 8 C 2.375 10.5 2.375 13 2.375 15.5 C 6.125 15.5 9.875 15.5 13.625 15.5 L 13.625 8 C 13 8 12.375 8 11.75 8 L 11.75 4.25 C 11.75 2.172 10.077 0.5 8 0.5 Z M 8 1.438 C 9.558 1.438 10.813 2.901 10.813 4.719 L 10.813 8 L 5.188 8 L 5.188 4.719 C 5.188 2.901 6.442 1.438 8 1.438 Z"/>
 </g>
</svg>
