<svg xmlns="http://www.w3.org/2000/svg" style="isolation:isolate" width="16" height="16" viewBox="0 0 16 16">
  <defs>
   <style id="current-color-scheme" type="text/css">
   .ColorScheme-Text { color:#e6e6fa; } .ColorScheme-Highlight { color:#5294e2; }
  </style>
  <linearGradient id="arrongin" x1="0%" x2="0%" y1="0%" y2="100%">
   <stop offset="0%" style="stop-color:#dd9b44; stop-opacity:1"/>
   <stop offset="100%" style="stop-color:#ad6c16; stop-opacity:1"/>
  </linearGradient>
  <linearGradient id="aurora" x1="0%" x2="0%" y1="0%" y2="100%">
   <stop offset="0%" style="stop-color:#09D4DF; stop-opacity:1"/>
   <stop offset="100%" style="stop-color:#9269F4; stop-opacity:1"/>
  </linearGradient>
  <linearGradient id="fitdance" x1="0%" x2="0%" y1="0%" y2="100%">
   <stop offset="0%" style="stop-color:#1AD6AB; stop-opacity:1"/>
   <stop offset="100%" style="stop-color:#329DB6; stop-opacity:1"/>
  </linearGradient>
  <linearGradient id="oomox" x1="0%" x2="0%" y1="0%" y2="100%">
   <stop offset="0%" style="stop-color:#efefe7; stop-opacity:1"/>
   <stop offset="100%" style="stop-color:#8f8f8b; stop-opacity:1"/>
  </linearGradient>
  <linearGradient id="rainblue" x1="0%" x2="0%" y1="0%" y2="100%">
   <stop offset="0%" style="stop-color:#00F260; stop-opacity:1"/>
   <stop offset="100%" style="stop-color:#0575E6; stop-opacity:1"/>
  </linearGradient>
  <linearGradient id="sunrise" x1="0%" x2="0%" y1="0%" y2="100%">
   <stop offset="0%" style="stop-color: #FF8501; stop-opacity:1"/>
   <stop offset="100%" style="stop-color: #FFCB01; stop-opacity:1"/>
  </linearGradient>
  <linearGradient id="telinkrin" x1="0%" x2="0%" y1="0%" y2="100%">
   <stop offset="0%" style="stop-color: #b2ced6; stop-opacity:1"/>
   <stop offset="100%" style="stop-color: #6da5b7; stop-opacity:1"/>
  </linearGradient>
  <linearGradient id="60spsycho" x1="0%" x2="0%" y1="0%" y2="100%">
   <stop offset="0%" style="stop-color: #df5940; stop-opacity:1"/>
   <stop offset="25%" style="stop-color: #d8d15f; stop-opacity:1"/>
   <stop offset="50%" style="stop-color: #e9882a; stop-opacity:1"/>
   <stop offset="100%" style="stop-color: #279362; stop-opacity:1"/>
  </linearGradient>
  <linearGradient id="90ssummer" x1="0%" x2="0%" y1="0%" y2="100%">
   <stop offset="0%" style="stop-color: #f618c7; stop-opacity:1"/>
   <stop offset="20%" style="stop-color: #94ffab; stop-opacity:1"/>
   <stop offset="50%" style="stop-color: #fbfd54; stop-opacity:1"/>
   <stop offset="100%" style="stop-color: #0f83ae; stop-opacity:1"/>
  </linearGradient>
  <linearGradient id="cyberneon" x1="0%" x2="0%" y1="0%" y2="100%">
    <stop offset="0" style="stop-color:#0abdc6; stop-opacity:1"/>
    <stop offset="1" style="stop-color:#ea00d9; stop-opacity:1"/>
  </linearGradient>

  <clipPath id="_clipPath_bdomKlIiHdzJVMFBy4XylbtqckwzoF3k">
   <rect width="16" height="16"/>
  </clipPath>
 </defs>
 <g clip-path="url(#_clipPath_bdomKlIiHdzJVMFBy4XylbtqckwzoF3k)">
  <rect style="fill:#000000" fill-opacity="0" width="16" height="16"/>
  <path fill="currentColor" class="ColorScheme-Text" d="M 13.747 0 C 13.554 -0.001 13.297 0.028 12.955 0.077 L 6.78 0.956 C 5.407 1.237 5.407 1.324 5.407 2.439 L 5.407 2.478 L 5.407 2.478 L 5.407 12.892 C 5.305 12.824 5.206 12.755 5.101 12.688 L 5.101 12.688 C 4.664 12.407 4.199 12.207 3.575 12.207 C 2.792 12.207 2.325 12.495 2.043 12.874 C 1.76 13.253 1.667 13.731 1.667 14.101 C 1.667 14.546 1.825 15.022 2.169 15.384 C 2.512 15.746 3.04 16 3.799 16 C 4.657 16 5.26 15.77 5.601 15.321 C 5.869 14.967 6.018 14.495 6.07 13.912 L 6.07 13.911 L 6.07 13.91 C 6.078 13.839 6.083 13.767 6.088 13.692 C 6.095 13.577 6.094 13.361 6.094 13.361 L 6.094 5.117 C 6.094 4.127 6.093 4.068 7.468 3.842 L 12.27 3.189 C 13.625 3.019 13.646 3.137 13.646 3.849 L 13.646 11.572 C 13.545 11.504 13.445 11.436 13.341 11.368 L 13.341 11.369 C 12.904 11.088 12.439 10.888 11.814 10.888 C 11.032 10.888 10.565 11.176 10.282 11.555 C 10 11.934 9.906 12.412 9.906 12.781 C 9.906 13.227 10.065 13.702 10.408 14.064 C 10.752 14.427 11.28 14.681 12.039 14.681 C 12.896 14.681 13.499 14.451 13.84 14.001 C 14.109 13.648 14.257 13.175 14.31 12.593 L 14.31 12.591 L 14.31 12.591 C 14.317 12.52 14.323 12.448 14.328 12.373 C 14.335 12.258 14.333 12.042 14.333 12.042 L 14.333 3.138 L 14.333 1.161 C 14.333 0.294 14.327 0.006 13.747 0 L 13.747 0 Z"/>
 </g>
</svg>
