<svg xmlns="http://www.w3.org/2000/svg" style="isolation:isolate" width="16" height="16" viewBox="0 0 16 16">
  <defs>
   <style id="current-color-scheme" type="text/css">
   .ColorScheme-Text { color:#e6e6fa; } .ColorScheme-Highlight { color:#5294e2; }
  </style>
  <linearGradient id="arrongin" x1="0%" x2="0%" y1="0%" y2="100%">
   <stop offset="0%" style="stop-color:#dd9b44; stop-opacity:1"/>
   <stop offset="100%" style="stop-color:#ad6c16; stop-opacity:1"/>
  </linearGradient>
  <linearGradient id="aurora" x1="0%" x2="0%" y1="0%" y2="100%">
   <stop offset="0%" style="stop-color:#09D4DF; stop-opacity:1"/>
   <stop offset="100%" style="stop-color:#9269F4; stop-opacity:1"/>
  </linearGradient>
  <linearGradient id="fitdance" x1="0%" x2="0%" y1="0%" y2="100%">
   <stop offset="0%" style="stop-color:#1AD6AB; stop-opacity:1"/>
   <stop offset="100%" style="stop-color:#329DB6; stop-opacity:1"/>
  </linearGradient>
  <linearGradient id="oomox" x1="0%" x2="0%" y1="0%" y2="100%">
   <stop offset="0%" style="stop-color:#efefe7; stop-opacity:1"/>
   <stop offset="100%" style="stop-color:#8f8f8b; stop-opacity:1"/>
  </linearGradient>
  <linearGradient id="rainblue" x1="0%" x2="0%" y1="0%" y2="100%">
   <stop offset="0%" style="stop-color:#00F260; stop-opacity:1"/>
   <stop offset="100%" style="stop-color:#0575E6; stop-opacity:1"/>
  </linearGradient>
  <linearGradient id="sunrise" x1="0%" x2="0%" y1="0%" y2="100%">
   <stop offset="0%" style="stop-color: #FF8501; stop-opacity:1"/>
   <stop offset="100%" style="stop-color: #FFCB01; stop-opacity:1"/>
  </linearGradient>
  <linearGradient id="telinkrin" x1="0%" x2="0%" y1="0%" y2="100%">
   <stop offset="0%" style="stop-color: #b2ced6; stop-opacity:1"/>
   <stop offset="100%" style="stop-color: #6da5b7; stop-opacity:1"/>
  </linearGradient>
  <linearGradient id="60spsycho" x1="0%" x2="0%" y1="0%" y2="100%">
   <stop offset="0%" style="stop-color: #df5940; stop-opacity:1"/>
   <stop offset="25%" style="stop-color: #d8d15f; stop-opacity:1"/>
   <stop offset="50%" style="stop-color: #e9882a; stop-opacity:1"/>
   <stop offset="100%" style="stop-color: #279362; stop-opacity:1"/>
  </linearGradient>
  <linearGradient id="90ssummer" x1="0%" x2="0%" y1="0%" y2="100%">
   <stop offset="0%" style="stop-color: #f618c7; stop-opacity:1"/>
   <stop offset="20%" style="stop-color: #94ffab; stop-opacity:1"/>
   <stop offset="50%" style="stop-color: #fbfd54; stop-opacity:1"/>
   <stop offset="100%" style="stop-color: #0f83ae; stop-opacity:1"/>
  </linearGradient>
  <linearGradient id="cyberneon" x1="0%" x2="0%" y1="0%" y2="100%">
    <stop offset="0" style="stop-color:#0abdc6; stop-opacity:1"/>
    <stop offset="1" style="stop-color:#ea00d9; stop-opacity:1"/>
  </linearGradient>

  <clipPath id="_clipPath_MYuAkqNwN0vnPU7abOY9vX4OOhqyXS2X">
   <rect width="16" height="16"/>
  </clipPath>
 </defs>
 <g clip-path="url(#_clipPath_MYuAkqNwN0vnPU7abOY9vX4OOhqyXS2X)">
  <rect style="fill:#000000" fill-opacity="0" width="16" height="16"/>
  <path fill="currentColor" class="ColorScheme-Text" fill-rule="evenodd" d="M 7.985 2.085 C 11.299 2.085 13.985 4.778 13.985 8.099 C 13.985 11.421 11.299 14.114 7.985 14.114 C 4.671 14.114 1.985 11.421 1.985 8.099 C 1.985 4.778 4.671 2.085 7.985 2.085 L 7.985 2.085 L 7.985 2.085 Z M 6.675 1.205 C 5.933 1.346 5.223 1.605 4.571 1.97 L 3.922 1.194 L 3.922 1.194 L 1.916 2.903 L 2.553 3.665 C 2.32 3.952 2.107 4.26 1.919 4.587 C 1.727 4.92 1.566 5.262 1.435 5.61 L 1.435 5.61 L 0.44 5.434 L 0.44 5.434 L 0 8.035 L 0.985 8.209 C 0.999 8.96 1.134 9.704 1.38 10.41 L 0.492 10.924 L 1.822 13.201 L 2.699 12.694 L 2.699 12.694 C 3.177 13.245 3.748 13.731 4.406 14.124 L 4.053 15.098 L 6.533 15.984 L 6.88 15.027 L 6.88 15.027 C 7.622 15.147 8.373 15.144 9.103 15.027 L 9.456 16 L 11.924 15.082 L 11.578 14.129 L 11.578 14.129 C 12.211 13.752 12.79 13.272 13.286 12.696 L 14.174 13.209 L 15.476 10.916 L 14.602 10.41 L 14.602 10.41 C 14.851 9.691 14.976 8.949 14.985 8.211 L 16 8.032 L 15.526 5.437 L 15.526 5.437 L 14.526 5.613 C 14.263 4.92 13.89 4.266 13.416 3.68 L 14.078 2.89 L 12.05 1.207 L 12.05 1.207 L 11.402 1.981 C 10.747 1.612 10.04 1.353 9.307 1.211 L 9.307 0.001 L 9.307 0 L 9.307 0 L 6.675 0.395 L 6.675 1.205 L 6.675 1.205 Z M 7.985 4.09 C 10.194 4.09 11.985 5.885 11.985 8.099 C 11.985 10.314 10.194 12.109 7.985 12.109 C 5.776 12.109 3.985 10.314 3.985 8.099 C 3.985 5.885 5.776 4.09 7.985 4.09 L 7.985 4.09 Z M 7.633 3.101 C 5.975 3.214 4.482 4.147 3.651 5.589 C 2.276 7.99 3.097 11.053 5.487 12.44 C 7.878 13.823 10.934 13.004 12.317 10.609 C 13.692 8.209 12.871 5.147 10.481 3.761 C 9.619 3.26 8.627 3.03 7.633 3.101 L 7.633 3.101 Z"/>
 </g>
</svg>
