<?xml version="1.0" encoding="UTF-8" standalone="no"?>
<svg xmlns:dc="http://purl.org/dc/elements/1.1/" xmlns:cc="http://creativecommons.org/ns#" xmlns:rdf="http://www.w3.org/1999/02/22-rdf-syntax-ns#" xmlns:svg="http://www.w3.org/2000/svg" xmlns="http://www.w3.org/2000/svg" xmlns:sodipodi="http://sodipodi.sourceforge.net/DTD/sodipodi-0.dtd" xmlns:inkscape="http://www.inkscape.org/namespaces/inkscape" inkscape:version="1.0alpha (0d6517f328, 2019-04-02, custom)" sodipodi:docname="text-x-haxe.svg" id="svg65" version="1.1" viewBox="0 0 16 16" height="16" width="16" style="isolation:isolate">
  <metadata id="metadata69">
    <rdf:RDF>
      <cc:Work rdf:about="">
        <dc:format>image/svg+xml</dc:format>
        <dc:type rdf:resource="http://purl.org/dc/dcmitype/StillImage" />
      </cc:Work>
    </rdf:RDF>
  </metadata>
  <sodipodi:namedview inkscape:current-layer="svg65" inkscape:window-maximized="1" inkscape:window-y="32" inkscape:window-x="0" inkscape:cy="9.9488637" inkscape:cx="8" inkscape:zoom="40.625" showgrid="false" id="namedview67" inkscape:window-height="816" inkscape:window-width="1600" inkscape:pageshadow="2" inkscape:pageopacity="0" guidetolerance="10" gridtolerance="10" objecttolerance="10" borderopacity="1" inkscape:document-rotation="0" bordercolor="#666666" pagecolor="#ffffff" />
  <defs id="defs61">
    <style type="text/css" id="current-color-scheme">
   .ColorScheme-Text { color:#e6e6fa; } .ColorScheme-Highlight { color:#5294e2; }
  </style>
    <linearGradient y2="100%" y1="0%" x2="0%" x1="0%" id="arrongin">
      <stop id="stop3" style="stop-color:#dd9b44; stop-opacity:1" offset="0%" />
      <stop id="stop5" style="stop-color:#ad6c16; stop-opacity:1" offset="100%" />
    </linearGradient>
    <linearGradient y2="100%" y1="0%" x2="0%" x1="0%" id="aurora">
      <stop id="stop8" style="stop-color:#09D4DF; stop-opacity:1" offset="0%" />
      <stop id="stop10" style="stop-color:#9269F4; stop-opacity:1" offset="100%" />
    </linearGradient>
    <linearGradient y2="100%" y1="0%" x2="0%" x1="0%" id="fitdance">
      <stop id="stop13" style="stop-color:#1AD6AB; stop-opacity:1" offset="0%" />
      <stop id="stop15" style="stop-color:#329DB6; stop-opacity:1" offset="100%" />
    </linearGradient>
    <linearGradient y2="100%" y1="0%" x2="0%" x1="0%" id="oomox">
      <stop id="stop18" style="stop-color:#efefe7; stop-opacity:1" offset="0%" />
      <stop id="stop20" style="stop-color:#8f8f8b; stop-opacity:1" offset="100%" />
    </linearGradient>
    <linearGradient y2="100%" y1="0%" x2="0%" x1="0%" id="rainblue">
      <stop id="stop23" style="stop-color:#00F260; stop-opacity:1" offset="0%" />
      <stop id="stop25" style="stop-color:#0575E6; stop-opacity:1" offset="100%" />
    </linearGradient>
    <linearGradient y2="100%" y1="0%" x2="0%" x1="0%" id="sunrise">
      <stop id="stop28" style="stop-color: #FF8501; stop-opacity:1" offset="0%" />
      <stop id="stop30" style="stop-color: #FFCB01; stop-opacity:1" offset="100%" />
    </linearGradient>
    <linearGradient y2="100%" y1="0%" x2="0%" x1="0%" id="telinkrin">
      <stop id="stop33" style="stop-color: #b2ced6; stop-opacity:1" offset="0%" />
      <stop id="stop35" style="stop-color: #6da5b7; stop-opacity:1" offset="100%" />
    </linearGradient>
    <linearGradient y2="100%" y1="0%" x2="0%" x1="0%" id="60spsycho">
      <stop id="stop38" style="stop-color: #df5940; stop-opacity:1" offset="0%" />
      <stop id="stop40" style="stop-color: #d8d15f; stop-opacity:1" offset="25%" />
      <stop id="stop42" style="stop-color: #e9882a; stop-opacity:1" offset="50%" />
      <stop id="stop44" style="stop-color: #279362; stop-opacity:1" offset="100%" />
    </linearGradient>
    <linearGradient y2="100%" y1="0%" x2="0%" x1="0%" id="90ssummer">
      <stop id="stop47" style="stop-color: #f618c7; stop-opacity:1" offset="0%" />
      <stop id="stop49" style="stop-color: #94ffab; stop-opacity:1" offset="20%" />
      <stop id="stop51" style="stop-color: #fbfd54; stop-opacity:1" offset="50%" />
      <stop id="stop53" style="stop-color: #0f83ae; stop-opacity:1" offset="100%" />
    </linearGradient>
    <linearGradient y2="100%" y1="0%" x2="0%" x1="0%" id="cyberneon">
      <stop id="stop56" style="stop-color:#0abdc6; stop-opacity:1" offset="0" />
      <stop id="stop58" style="stop-color:#ea00d9; stop-opacity:1" offset="1" />
    </linearGradient>
  </defs>
  <path inkscape:connector-curvature="0" id="path894" d="M 0,15.999999 V 12.000066 L 1.999933,8.000071 0,3.999907 V 1e-6 H 3.999866 L 8,2.000019 11.999865,1e-6 H 16 V 3.999907 L 13.99976,8.000071 16,12.000066 v 3.999933 H 11.999865 L 8,13.999982 3.999866,15.999999 Z" style="fill:#e6e6fa;stroke:none;stroke-width:1px;stroke-linecap:butt;stroke-linejoin:miter;stroke-opacity:1" />
</svg>
