<svg xmlns="http://www.w3.org/2000/svg" width="24" height="24" viewBox="0 0 24 24">
 <defs>
  <style id="current-color-scheme" type="text/css">
   .ColorScheme-Text { color:#e6e6fa; } .ColorScheme-Highlight { color:#5294e2; }
  </style>
 </defs>
 <path style="fill:currentColor" class="ColorScheme-Text" d="M 9 1 L 9 3 L 14 3 L 14 1 L 9 1 z M 1 4 L 1 6 L 15 6 L 15 4 L 1 4 z M 2 8 L 2 15 L 7 15 L 7 8 L 2 8 z M 9 8 L 9 13 L 14 13 L 14 8 L 9 8 z" transform="translate(4 4)"/>
</svg>
