<svg xmlns="http://www.w3.org/2000/svg" width="24" height="24" viewBox="0 0 24 24">
 <defs>
  <style id="current-color-scheme" type="text/css">
   .ColorScheme-Text { color:#e6e6fa; } .ColorScheme-Highlight { color:#5294e2; }
  </style>
 </defs>
 <path style="fill:currentColor" class="ColorScheme-Text" d="M 2.84375 0.00390625 L 2.84375 0.005859375 C 2.5626502 0.049558305 2 0.23977026 2 0.93945312 L 2 13.064453 C 2 13.99743 3 13.998047 3 13.998047 L 10.5 13.998047 C 8.5670012 13.998047 7 12.431 7 10.498047 C 7 8.5650942 8.5670012 6.9980469 10.5 6.9980469 C 12.330799 6.9979528 13.852334 8.4088197 13.990234 10.234375 C 13.992234 8.0329289 13.993734 5.3914876 13.990234 3.7363281 L 9.9941406 0.00390625 L 3 0.00390625 C 3 0.00390625 2.9374249 -0.010646394 2.84375 0.00390625 z M 10.519531 7.7890625 C 9.0239312 7.7890625 7.8007812 9.0141656 7.8007812 10.509766 C 7.8007812 12.005366 9.0239313 13.228516 10.519531 13.228516 C 11.006631 13.228516 11.466771 13.080166 11.863281 12.853516 A 0.75008 0.75008 0 0 0 12.019531 13.072266 L 13.863281 14.884766 A 0.75130096 0.75130096 0 1 0 14.925781 13.822266 L 13.082031 12.009766 A 0.75008 0.75008 0 0 0 12.863281 11.853516 C 13.089931 11.457056 13.238281 10.996926 13.238281 10.509766 C 13.238281 9.0141656 12.015131 7.7890625 10.519531 7.7890625 z M 10.519531 8.7890625 C 11.474691 8.7890625 12.238281 9.5545556 12.238281 10.509766 C 12.238281 11.464926 11.474741 12.228516 10.519531 12.228516 C 9.5643713 12.228516 8.8007812 11.464976 8.8007812 10.509766 C 8.8007812 9.5546056 9.5643213 8.7890625 10.519531 8.7890625 z" transform="translate(4 4)"/>
</svg>
