<svg xmlns="http://www.w3.org/2000/svg" width="24" height="24" viewBox="0 0 24 24">
 <defs>
  <style id="current-color-scheme" type="text/css">
   .ColorScheme-Text { color:#e6e6fa; } .ColorScheme-Highlight { color:#5294e2; }
  </style>
 </defs>
 <path style="fill:currentColor" class="ColorScheme-Text" d="M 8 1 C 4.1341 1 1 3.3506 1 6.25 C 1 9.105 4.2159 11.93 8 12 L 8 15 C 15 11 15 8.232 15 6.25 C 15 3.3506 11.866 1 8 1 z M 4 4 L 7 4 L 7 7 C 7 8 6 9 5 9 L 5 8 C 5 8 6 8 6 7 L 4 7 L 4 4 z M 9 4 L 12 4 L 12 7 C 12 8 11 9 10 9 L 10 8 C 10 8 11 8 11 7 L 9 7 L 9 4 z" transform="translate(4 4)"/>
</svg>
