<svg xmlns="http://www.w3.org/2000/svg" width="24" height="24" viewBox="0 0 24 24">
 <defs>
  <style id="current-color-scheme" type="text/css">
   .ColorScheme-Text { color:#e6e6fa; } .ColorScheme-Highlight { color:#5294e2; }
  </style>
 </defs>
 <path style="fill:currentColor" class="ColorScheme-Text" d="M 9.5488281 1 C 5.4592083 2.7503927 3.0058594 6.850886 3.0058594 9.75 C 3.0058594 12.6154 5.1533125 14.939841 7.8203125 14.994141 C 6.4875125 14.966141 5.4121094 13.8072 5.4121094 12.375 C 5.4121094 10.9252 6.6402469 8.875 8.6855469 8 C 8.6855469 11.0625 10.882066 11.5052 10.322266 13.25 C 10.004886 14.23934 9.2306719 14.989947 7.8886719 14.998047 C 7.8966719 14.998087 7.9054625 15 7.9140625 15 C 10.625063 15 12.184066 13.4894 12.822266 11.5 C 13.941766 8.0104 9.5488281 7.125 9.5488281 1 z" transform="translate(4 4)"/>
</svg>
