<svg xmlns="http://www.w3.org/2000/svg" width="24" height="24" viewBox="0 0 24 24">
 <defs>
  <style id="current-color-scheme" type="text/css">
   .ColorScheme-Text { color:#e6e6fa; } .ColorScheme-Highlight { color:#5294e2; }
  </style>
 </defs>
 <path style="fill:currentColor" class="ColorScheme-Text" d="M 18.769531 0 A 0.34803699 0.71624863 34.650572 0 0 18.5 0.12109375 L 5.4980469 9.7382812 A 0.34803699 0.71624863 34.650572 0 0 5 10.607422 L 5 21 L 5 23.746094 A 0.34803699 0.71624863 34.650572 0 0 5.4980469 23.878906 L 18.5 14.261719 A 0.34803699 0.71624863 34.650572 0 0 18.998047 13.392578 L 18.998047 0.25390625 A 0.34803699 0.71624863 34.650572 0 0 18.810547 0 A 0.34803699 0.71624863 34.650572 0 0 18.769531 0 z M 5 21 L 3 21 L 3 18 L 2 18 L 2 21 L 0 21 L 2.5 24 L 5 21 z M 21.5 0 L 19 3 L 21 3 L 21 6 L 22 6 L 22 3 L 24 3 L 21.5 0 z M 18.003906 1.4902344 L 18.003906 13.626953 L 5.9960938 22.509766 L 5.9960938 10.371094 L 18.003906 1.4902344 z"/>
 <path style="fill:currentColor;opacity:0.3" class="ColorScheme-Text" d="M 17.855469 1.7460938 C 17.765347 1.7221381 17.639483 1.7597266 17.501953 1.8613281 L 6.4980469 10 C 6.2229869 10.203354 5.99991 10.592522 6 10.869141 L 6 22.007812 C 5.99991 22.284567 6.2229869 22.343828 6.4980469 22.140625 L 17.501953 14 C 17.777013 13.796646 18.00009 13.407478 18 13.130859 L 18 1.9941406 C 18.000045 1.8557632 17.94559 1.7700492 17.855469 1.7460938 z"/>
</svg>
